<?xml version="1.0" encoding="UTF-8" standalone="no"?>
<!-- Created with Inkscape (http://www.inkscape.org/) -->

<svg
   xmlns:osb="http://www.openswatchbook.org/uri/2009/osb"
   xmlns:dc="http://purl.org/dc/elements/1.1/"
   xmlns:cc="http://creativecommons.org/ns#"
   xmlns:rdf="http://www.w3.org/1999/02/22-rdf-syntax-ns#"
   xmlns:svg="http://www.w3.org/2000/svg"
   xmlns="http://www.w3.org/2000/svg"
   xmlns:xlink="http://www.w3.org/1999/xlink"
   xmlns:sodipodi="http://sodipodi.sourceforge.net/DTD/sodipodi-0.dtd"
   xmlns:inkscape="http://www.inkscape.org/namespaces/inkscape"
   width="50"
   height="50.000046"
   id="svg6028"
   version="1.1"
   inkscape:version="0.91 r13725"
   sodipodi:docname="brick_left.svg"
   inkscape:export-filename="/home/silwol/Projects/Freenukum/graphics/wall_top.png"
   inkscape:export-xdpi="9"
   inkscape:export-ydpi="9">
  <defs
     id="defs6030">
    <linearGradient
       id="linearGradient5249">
      <stop
         style="stop-color:#c72f1e;stop-opacity:1;"
         offset="0"
         id="stop5251" />
      <stop
         style="stop-color:#e35647;stop-opacity:1;"
         offset="1"
         id="stop5253" />
    </linearGradient>
    <linearGradient
       osb:paint="gradient"
       id="linearGradient3757">
      <stop
         id="stop3759"
         offset="0"
         style="stop-color:#4d4d4d;stop-opacity:1;" />
      <stop
         id="stop3761"
         offset="1"
         style="stop-color:#4d4d4d;stop-opacity:0;" />
    </linearGradient>
    <linearGradient
       id="linearGradient4020">
      <stop
         id="stop4022"
         offset="0"
         style="stop-color:#666666;stop-opacity:1;" />
      <stop
         id="stop4024"
         offset="1"
         style="stop-color:#4a4a4a;stop-opacity:1;" />
    </linearGradient>
    <linearGradient
       id="linearGradient4038">
      <stop
         id="stop4040"
         offset="0"
         style="stop-color:#838383;stop-opacity:1;" />
      <stop
         id="stop4042"
         offset="1"
         style="stop-color:#c6c6c6;stop-opacity:1;" />
    </linearGradient>
    <linearGradient
       gradientUnits="userSpaceOnUse"
       y2="60"
       x2="540"
       y1="0"
       x1="540"
       id="linearGradient4044-5"
       xlink:href="#linearGradient4038-0"
       inkscape:collect="always" />
    <linearGradient
       id="linearGradient4038-0">
      <stop
         id="stop4040-2"
         offset="0"
         style="stop-color:#f7370f;stop-opacity:1;" />
      <stop
         id="stop4042-3"
         offset="1"
         style="stop-color:#b50501;stop-opacity:1;" />
    </linearGradient>
    <linearGradient
       gradientUnits="userSpaceOnUse"
       y2="552.36218"
       x2="880"
       y1="552.36218"
       x1="840"
       id="linearGradient4080-2"
       xlink:href="#linearGradient4020-8"
       inkscape:collect="always" />
    <linearGradient
       id="linearGradient4020-8">
      <stop
         id="stop4022-1"
         offset="0"
         style="stop-color:#a20000;stop-opacity:1;" />
      <stop
         id="stop4024-7"
         offset="1"
         style="stop-color:#5a0101;stop-opacity:1;" />
    </linearGradient>
    <linearGradient
       inkscape:collect="always"
       xlink:href="#linearGradient4020"
       id="linearGradient6185"
       gradientUnits="userSpaceOnUse"
       x1="520"
       y1="892.36218"
       x2="520"
       y2="932.36218"
       gradientTransform="translate(-240,1160)" />
    <linearGradient
       inkscape:collect="always"
       xlink:href="#linearGradient4038"
       id="linearGradient6188"
       gradientUnits="userSpaceOnUse"
       x1="520"
       y1="172.36218"
       x2="520"
       y2="212.36218"
       gradientTransform="translate(-240,1160)" />
    <linearGradient
       inkscape:collect="always"
       xlink:href="#linearGradient4038"
       id="linearGradient6191"
       gradientUnits="userSpaceOnUse"
       x1="540"
       y1="0"
       x2="540"
       y2="60"
       gradientTransform="translate(-240,1212.3622)" />
    <linearGradient
       inkscape:collect="always"
       xlink:href="#linearGradient4020"
       id="linearGradient6194"
       gradientUnits="userSpaceOnUse"
       x1="520"
       y1="940"
       x2="520"
       y2="1000"
       gradientTransform="translate(-240,1212.3622)" />
    <linearGradient
       inkscape:collect="always"
       xlink:href="#linearGradient4020"
       id="linearGradient6197"
       gradientUnits="userSpaceOnUse"
       x1="840"
       y1="552.36218"
       x2="880"
       y2="552.36218"
       gradientTransform="translate(-240,1160)" />
    <linearGradient
       inkscape:collect="always"
       xlink:href="#linearGradient4038"
       id="linearGradient6200"
       gradientUnits="userSpaceOnUse"
       x1="120"
       y1="552.36218"
       x2="160"
       y2="552.36218"
       gradientTransform="translate(-240,1160)" />
    <linearGradient
       inkscape:collect="always"
       xlink:href="#linearGradient4020"
       id="linearGradient6203"
       gradientUnits="userSpaceOnUse"
       x1="940"
       y1="500"
       x2="1000"
       y2="500"
       gradientTransform="translate(-240,1212.3622)" />
    <linearGradient
       inkscape:collect="always"
       xlink:href="#linearGradient4038"
       id="linearGradient6206"
       gradientUnits="userSpaceOnUse"
       x1="0"
       y1="480"
       x2="60"
       y2="480"
       gradientTransform="translate(-240,1212.3622)" />
    <linearGradient
       inkscape:collect="always"
       xlink:href="#linearGradient4020-8-2"
       id="linearGradient4321"
       gradientUnits="userSpaceOnUse"
       gradientTransform="translate(-130,-119.99998)"
       x1="850"
       y1="292.36218"
       x2="880"
       y2="292.36218" />
    <linearGradient
       inkscape:collect="always"
       xlink:href="#linearGradient4038-0-6"
       id="linearGradient4323"
       gradientUnits="userSpaceOnUse"
       gradientTransform="translate(130,-120)"
       x1="120"
       y1="292.36221"
       x2="140"
       y2="292.36221" />
    <linearGradient
       inkscape:collect="always"
       xlink:href="#linearGradient4038-0-6"
       id="linearGradient4325"
       gradientUnits="userSpaceOnUse"
       gradientTransform="translate(500,52.3622)"
       x1="180"
       y1="1.4901161e-05"
       x2="180"
       y2="30" />
    <linearGradient
       inkscape:collect="always"
       xlink:href="#linearGradient4020-8-2"
       id="linearGradient4327"
       gradientUnits="userSpaceOnUse"
       gradientTransform="translate(-70,-600)"
       x1="520"
       y1="882.36218"
       x2="520"
       y2="912.36218" />
    <linearGradient
       inkscape:collect="always"
       xlink:href="#linearGradient4020-8-2"
       id="linearGradient4329"
       gradientUnits="userSpaceOnUse"
       gradientTransform="translate(-130,-119.99998)"
       x1="850"
       y1="292.36218"
       x2="880"
       y2="292.36218" />
    <linearGradient
       inkscape:collect="always"
       xlink:href="#linearGradient4038-0-6"
       id="linearGradient4331"
       gradientUnits="userSpaceOnUse"
       gradientTransform="translate(130,-120)"
       x1="120"
       y1="292.36221"
       x2="140"
       y2="292.36221" />
    <linearGradient
       inkscape:collect="always"
       xlink:href="#linearGradient4038-0-6"
       id="linearGradient4333"
       gradientUnits="userSpaceOnUse"
       gradientTransform="translate(500,52.3622)"
       x1="180"
       y1="1.4901161e-05"
       x2="180"
       y2="30" />
    <linearGradient
       inkscape:collect="always"
       xlink:href="#linearGradient4020-8-2"
       id="linearGradient4335"
       gradientUnits="userSpaceOnUse"
       gradientTransform="translate(-70,-600)"
       x1="520"
       y1="882.36218"
       x2="520"
       y2="912.36218" />
    <linearGradient
       inkscape:collect="always"
       xlink:href="#linearGradient4020-8-2"
       id="linearGradient4337"
       gradientUnits="userSpaceOnUse"
       gradientTransform="translate(-130,-119.99998)"
       x1="850"
       y1="292.36218"
       x2="880"
       y2="292.36218" />
    <linearGradient
       inkscape:collect="always"
       xlink:href="#linearGradient4038-0-6"
       id="linearGradient4339"
       gradientUnits="userSpaceOnUse"
       gradientTransform="translate(130,-120)"
       x1="120"
       y1="292.36221"
       x2="140"
       y2="292.36221" />
    <linearGradient
       inkscape:collect="always"
       xlink:href="#linearGradient4038-0-6"
       id="linearGradient4341"
       gradientUnits="userSpaceOnUse"
       gradientTransform="translate(500,52.3622)"
       x1="180"
       y1="1.4901161e-05"
       x2="180"
       y2="30" />
    <linearGradient
       inkscape:collect="always"
       xlink:href="#linearGradient4020-8-2"
       id="linearGradient4343"
       gradientUnits="userSpaceOnUse"
       gradientTransform="translate(-70,-600)"
       x1="520"
       y1="882.36218"
       x2="520"
       y2="912.36218" />
    <linearGradient
       inkscape:collect="always"
       xlink:href="#linearGradient4020-8-2"
       id="linearGradient4353"
       gradientUnits="userSpaceOnUse"
       gradientTransform="translate(-130,-119.99998)"
       x1="850"
       y1="292.36218"
       x2="880"
       y2="292.36218" />
    <linearGradient
       inkscape:collect="always"
       xlink:href="#linearGradient4038-0-6"
       id="linearGradient4355"
       gradientUnits="userSpaceOnUse"
       gradientTransform="translate(130,-120)"
       x1="120"
       y1="292.36221"
       x2="140"
       y2="292.36221" />
    <linearGradient
       inkscape:collect="always"
       xlink:href="#linearGradient4038-0-6"
       id="linearGradient4357"
       gradientUnits="userSpaceOnUse"
       gradientTransform="translate(500,52.3622)"
       x1="180"
       y1="1.4901161e-05"
       x2="180"
       y2="30" />
    <linearGradient
       inkscape:collect="always"
       xlink:href="#linearGradient4020-8-2"
       id="linearGradient4359"
       gradientUnits="userSpaceOnUse"
       gradientTransform="translate(-70,-600)"
       x1="520"
       y1="882.36218"
       x2="520"
       y2="912.36218" />
    <linearGradient
       inkscape:collect="always"
       xlink:href="#linearGradient4020-8-2"
       id="linearGradient4383"
       gradientUnits="userSpaceOnUse"
       gradientTransform="translate(-70,-600)"
       x1="520"
       y1="882.36218"
       x2="520"
       y2="912.36218" />
    <linearGradient
       inkscape:collect="always"
       xlink:href="#linearGradient4038-0-6"
       id="linearGradient4385"
       gradientUnits="userSpaceOnUse"
       gradientTransform="translate(630,-120)"
       x1="120"
       y1="292.36221"
       x2="140"
       y2="292.36221" />
    <linearGradient
       inkscape:collect="always"
       xlink:href="#linearGradient4038-0-6"
       id="linearGradient4387"
       gradientUnits="userSpaceOnUse"
       gradientTransform="translate(1000,52.3622)"
       x1="-110"
       y1="2.8421709e-14"
       x2="-110"
       y2="30" />
    <linearGradient
       inkscape:collect="always"
       xlink:href="#linearGradient4038-0-4"
       id="linearGradient6219-4"
       gradientUnits="userSpaceOnUse"
       gradientTransform="translate(630,-120)"
       x1="120"
       y1="292.36221"
       x2="140"
       y2="292.36221" />
    <linearGradient
       id="linearGradient4038-0-4">
      <stop
         id="stop4040-2-6"
         offset="0"
         style="stop-color:#f7370f;stop-opacity:1;" />
      <stop
         id="stop4042-3-3"
         offset="1"
         style="stop-color:#b50501;stop-opacity:1;" />
    </linearGradient>
    <linearGradient
       inkscape:collect="always"
       xlink:href="#linearGradient5249-3"
       id="linearGradient5312"
       gradientUnits="userSpaceOnUse"
       gradientTransform="matrix(0,-0.14705879,0.05,0,-3.9597125e-6,1053.8624)"
       x1="160"
       y1="120"
       x2="160"
       y2="30" />
    <linearGradient
       inkscape:collect="always"
       xlink:href="#linearGradient4038-0-6"
       id="linearGradient5336"
       gradientUnits="userSpaceOnUse"
       gradientTransform="translate(0,52.3622)"
       x1="180"
       y1="1.4901161e-05"
       x2="180"
       y2="30" />
    <linearGradient
       inkscape:collect="always"
       xlink:href="#linearGradient4020-8-2"
       id="linearGradient5338"
       gradientUnits="userSpaceOnUse"
       gradientTransform="translate(-630,-119.99998)"
       x1="860"
       y1="292.36218"
       x2="880"
       y2="292.36218" />
    <linearGradient
       inkscape:collect="always"
       xlink:href="#linearGradient4020-8-2"
       id="linearGradient5340"
       gradientUnits="userSpaceOnUse"
       gradientTransform="translate(-70,-610)"
       x1="520"
       y1="882.36218"
       x2="520"
       y2="912.36218" />
    <linearGradient
       inkscape:collect="always"
       xlink:href="#linearGradient4038-0-6"
       id="linearGradient5342"
       gradientUnits="userSpaceOnUse"
       gradientTransform="translate(-120,-135)"
       x1="120"
       y1="292.36221"
       x2="140"
       y2="292.36221" />
    <linearGradient
       inkscape:collect="always"
       xlink:href="#linearGradient4020-8-2"
       id="linearGradient5344"
       gradientUnits="userSpaceOnUse"
       gradientTransform="translate(-130,-119.99998)"
       x1="850"
       y1="292.36218"
       x2="880"
       y2="292.36218" />
    <linearGradient
       inkscape:collect="always"
       xlink:href="#linearGradient4038-0-6"
       id="linearGradient5346"
       gradientUnits="userSpaceOnUse"
       gradientTransform="translate(130,-120)"
       x1="120"
       y1="292.36221"
       x2="140"
       y2="292.36221" />
    <linearGradient
       inkscape:collect="always"
       xlink:href="#linearGradient4038-0-6"
       id="linearGradient5348"
       gradientUnits="userSpaceOnUse"
       gradientTransform="translate(500,52.3622)"
       x1="180"
       y1="1.4901161e-05"
       x2="180"
       y2="30" />
    <linearGradient
       inkscape:collect="always"
       xlink:href="#linearGradient4020-8-2"
       id="linearGradient5350"
       gradientUnits="userSpaceOnUse"
       gradientTransform="translate(-70,-600)"
       x1="520"
       y1="882.36218"
       x2="520"
       y2="912.36218" />
    <linearGradient
       inkscape:collect="always"
       xlink:href="#linearGradient4020-8-2"
       id="linearGradient5399"
       gradientUnits="userSpaceOnUse"
       gradientTransform="translate(-130,-119.99998)"
       x1="850"
       y1="292.36218"
       x2="880"
       y2="292.36218" />
    <linearGradient
       inkscape:collect="always"
       xlink:href="#linearGradient4038-0-6"
       id="linearGradient5401"
       gradientUnits="userSpaceOnUse"
       gradientTransform="translate(130,-120)"
       x1="120"
       y1="292.36221"
       x2="140"
       y2="292.36221" />
    <linearGradient
       inkscape:collect="always"
       xlink:href="#linearGradient4038-0-6"
       id="linearGradient5403"
       gradientUnits="userSpaceOnUse"
       gradientTransform="translate(500,52.3622)"
       x1="180"
       y1="1.4901161e-05"
       x2="180"
       y2="30" />
    <linearGradient
       inkscape:collect="always"
       xlink:href="#linearGradient4020-8-2"
       id="linearGradient5405"
       gradientUnits="userSpaceOnUse"
       gradientTransform="translate(-70,-600)"
       x1="520"
       y1="882.36218"
       x2="520"
       y2="912.36218" />
    <linearGradient
       inkscape:collect="always"
       xlink:href="#linearGradient4020-8-2"
       id="linearGradient5407"
       gradientUnits="userSpaceOnUse"
       gradientTransform="translate(-70,-600)"
       x1="520"
       y1="882.36218"
       x2="520"
       y2="912.36218" />
    <linearGradient
       inkscape:collect="always"
       xlink:href="#linearGradient4038-0-6"
       id="linearGradient5409"
       gradientUnits="userSpaceOnUse"
       gradientTransform="translate(630,-120)"
       x1="120"
       y1="292.36221"
       x2="140"
       y2="292.36221" />
    <linearGradient
       inkscape:collect="always"
       xlink:href="#linearGradient4038-0-6"
       id="linearGradient5411"
       gradientUnits="userSpaceOnUse"
       gradientTransform="translate(1000,52.3622)"
       x1="-110"
       y1="2.8421709e-14"
       x2="-110"
       y2="30" />
    <linearGradient
       inkscape:collect="always"
       xlink:href="#linearGradient4038-0-6"
       id="linearGradient5413"
       gradientUnits="userSpaceOnUse"
       gradientTransform="translate(0,52.3622)"
       x1="180"
       y1="1.4901161e-05"
       x2="180"
       y2="30" />
    <linearGradient
       inkscape:collect="always"
       xlink:href="#linearGradient4020-8-2"
       id="linearGradient5415"
       gradientUnits="userSpaceOnUse"
       gradientTransform="translate(-630,-119.99998)"
       x1="860"
       y1="292.36218"
       x2="880"
       y2="292.36218" />
    <linearGradient
       inkscape:collect="always"
       xlink:href="#linearGradient4020-8-2"
       id="linearGradient5417"
       gradientUnits="userSpaceOnUse"
       gradientTransform="translate(-70,-610)"
       x1="520"
       y1="882.36218"
       x2="520"
       y2="912.36218" />
    <linearGradient
       inkscape:collect="always"
       xlink:href="#linearGradient4038-0-6"
       id="linearGradient5419"
       gradientUnits="userSpaceOnUse"
       gradientTransform="translate(-120,-135)"
       x1="120"
       y1="292.36221"
       x2="140"
       y2="292.36221" />
    <linearGradient
       id="linearGradient5444">
      <stop
         id="stop5446"
         offset="0"
         style="stop-color:#882015;stop-opacity:1;" />
      <stop
         id="stop5448"
         offset="1"
         style="stop-color:#52130d;stop-opacity:1;" />
    </linearGradient>
    <linearGradient
       inkscape:collect="always"
       xlink:href="#linearGradient5249-3"
       id="linearGradient5312-2"
       gradientUnits="userSpaceOnUse"
       gradientTransform="matrix(0,-2.8502123,1,0,-1.5549316e-6,1051.4344)"
       x1="160"
       y1="120"
       x2="160"
       y2="30" />
    <linearGradient
       id="linearGradient5249-3">
      <stop
         style="stop-color:#882015;stop-opacity:1;"
         offset="0"
         id="stop5251-4" />
      <stop
         style="stop-color:#e35647;stop-opacity:1;"
         offset="1"
         id="stop5253-9" />
    </linearGradient>
    <linearGradient
       inkscape:collect="always"
       xlink:href="#linearGradient4020-8-2"
       id="linearGradient5344-4"
       gradientUnits="userSpaceOnUse"
       gradientTransform="translate(-130,-119.99998)"
       x1="850"
       y1="292.36218"
       x2="880"
       y2="292.36218" />
    <linearGradient
       id="linearGradient4020-8-2">
      <stop
         id="stop4022-1-2"
         offset="0"
         style="stop-color:#6a0000;stop-opacity:1;" />
      <stop
         id="stop4024-7-7"
         offset="1"
         style="stop-color:#350101;stop-opacity:1;" />
    </linearGradient>
    <linearGradient
       inkscape:collect="always"
       xlink:href="#linearGradient4038-0-6"
       id="linearGradient5346-2"
       gradientUnits="userSpaceOnUse"
       gradientTransform="translate(130,-120)"
       x1="120"
       y1="292.36221"
       x2="140"
       y2="292.36221" />
    <linearGradient
       id="linearGradient4038-0-6">
      <stop
         id="stop4040-2-2"
         offset="0"
         style="stop-color:#b62406;stop-opacity:1;" />
      <stop
         id="stop4042-3-4"
         offset="1"
         style="stop-color:#730301;stop-opacity:1;" />
    </linearGradient>
    <linearGradient
       inkscape:collect="always"
       xlink:href="#linearGradient4038-0-6"
       id="linearGradient5348-7"
       gradientUnits="userSpaceOnUse"
       gradientTransform="translate(500,52.3622)"
       x1="180"
       y1="1.4901161e-05"
       x2="180"
       y2="30" />
    <linearGradient
       id="linearGradient9397">
      <stop
         id="stop9399"
         offset="0"
         style="stop-color:#b62406;stop-opacity:1;" />
      <stop
         id="stop9401"
         offset="1"
         style="stop-color:#730301;stop-opacity:1;" />
    </linearGradient>
    <linearGradient
       inkscape:collect="always"
       xlink:href="#linearGradient4020-8-2"
       id="linearGradient5350-5"
       gradientUnits="userSpaceOnUse"
       gradientTransform="translate(-70,-600)"
       x1="520"
       y1="882.36218"
       x2="520"
       y2="912.36218" />
    <linearGradient
       id="linearGradient9404">
      <stop
         id="stop9406"
         offset="0"
         style="stop-color:#6a0000;stop-opacity:1;" />
      <stop
         id="stop9408"
         offset="1"
         style="stop-color:#350101;stop-opacity:1;" />
    </linearGradient>
  </defs>
  <sodipodi:namedview
     id="base"
     pagecolor="#ffffff"
     bordercolor="#666666"
     borderopacity="1.0"
     inkscape:pageopacity="0.0"
     inkscape:pageshadow="2"
     inkscape:zoom="0.49497474"
     inkscape:cx="104.1898"
     inkscape:cy="473.49696"
     inkscape:document-units="px"
     inkscape:current-layer="layer1"
     showgrid="true"
     showguides="true"
     inkscape:guide-bbox="true"
     inkscape:window-width="1600"
     inkscape:window-height="842"
     inkscape:window-x="0"
     inkscape:window-y="0"
     inkscape:window-maximized="1"
     fit-margin-top="0"
     fit-margin-left="0"
     fit-margin-right="0"
     fit-margin-bottom="0">
    <inkscape:grid
       type="xygrid"
       id="grid6036"
       empspacing="5"
       visible="true"
       enabled="true"
       snapvisiblegridlinesonly="true"
       originx="4.1319659e-06"
       originy="0.00022675781" />
    <sodipodi:guide
       orientation="1,0"
       position="1000,3120.0002"
       id="guide6038" />
    <sodipodi:guide
       orientation="1,0"
       position="2000,2560.0002"
       id="guide6040" />
    <sodipodi:guide
       orientation="0,1"
       position="1520,2000.0002"
       id="guide6042" />
    <sodipodi:guide
       orientation="0,1"
       position="1440,1000.0002"
       id="guide6044" />
    <sodipodi:guide
       orientation="0,1"
       position="2240,3000.0002"
       id="guide6048" />
    <sodipodi:guide
       orientation="1,0"
       position="3000,2640.0002"
       id="guide6050" />
    <sodipodi:guide
       position="4.1319659e-06,0.00022675781"
       orientation="0,3000"
       id="guide6052" />
    <sodipodi:guide
       position="3000,0.00022675781"
       orientation="-3000,0"
       id="guide6054" />
    <sodipodi:guide
       position="3000,3000.0002"
       orientation="0,-3000"
       id="guide6056" />
    <sodipodi:guide
       position="4.1319659e-06,3000.0002"
       orientation="3000,0"
       id="guide6058" />
    <sodipodi:guide
       orientation="0,1"
       position="-99.999996,2750.0002"
       id="guide6578" />
  </sodipodi:namedview>
  <metadata
     id="metadata6033">
    <rdf:RDF>
      <cc:Work
         rdf:about="">
        <dc:format>image/svg+xml</dc:format>
        <dc:type
           rdf:resource="http://purl.org/dc/dcmitype/StillImage" />
        <dc:title></dc:title>
      </cc:Work>
    </rdf:RDF>
  </metadata>
  <g
     inkscape:label="Ebene 1"
     inkscape:groupmode="layer"
     id="layer1"
     transform="translate(4.1319659e-6,-1002.3624)">
    <rect
       style="fill:#882015;fill-opacity:1;fill-rule:nonzero;stroke:none"
       id="rect6046"
       width="48.484772"
       height="50"
       x="1.5152249"
       y="1002.3624" />
    <g
       id="g4271"
       transform="matrix(0.05,0,0,0.04999999,12.499996,1037.2443)">
      <path
         sodipodi:nodetypes="ccccccc"
         inkscape:connector-curvature="0"
         id="path4273"
         d="m 720,272.3622 0,-190 20,-20 10,10 0,210 -10,10 z"
         style="fill:url(#linearGradient4353);fill-opacity:1;stroke:none" />
      <path
         style="fill:url(#linearGradient4355);fill-opacity:1;stroke:#000000;stroke-width:0;stroke-linecap:butt;stroke-linejoin:miter;stroke-miterlimit:4;stroke-dasharray:none;stroke-opacity:1"
         d="m 250,72.3622 0,210 10,10 20,-20 0,-190 -20,-20 z"
         id="path4275"
         inkscape:connector-curvature="0"
         sodipodi:nodetypes="ccccccc" />
      <path
         style="fill:url(#linearGradient4357);fill-opacity:1;stroke:#000000;stroke-width:0;stroke-linecap:butt;stroke-linejoin:miter;stroke-miterlimit:4;stroke-dasharray:none;stroke-opacity:1"
         d="m 270,52.3622 -10,10 20,20 440,0 20,-20 -10,-10 z"
         id="path4277"
         inkscape:connector-curvature="0"
         sodipodi:nodetypes="ccccccc" />
      <path
         sodipodi:nodetypes="ccccccc"
         inkscape:connector-curvature="0"
         id="path4279"
         d="m 270,302.3622 -10,-10 20,-20 440,0 20,20 -10,10 z"
         style="fill:url(#linearGradient4359);fill-opacity:1;stroke:none" />
    </g>
    <g
       id="g4291"
       transform="matrix(0.05,0,0,0.04999999,-3.8819659e-6,1024.7443)">
      <path
         sodipodi:nodetypes="ccccccc"
         inkscape:connector-curvature="0"
         id="path4293"
         d="m 720,272.3622 0,-190 20,-20 10,10 0,210 -10,10 z"
         style="fill:url(#linearGradient4337);fill-opacity:1;stroke:none" />
      <path
         style="fill:url(#linearGradient4339);fill-opacity:1;stroke:#000000;stroke-width:0;stroke-linecap:butt;stroke-linejoin:miter;stroke-miterlimit:4;stroke-dasharray:none;stroke-opacity:1"
         d="m 250,72.3622 0,210 10,10 20,-20 0,-190 -20,-20 z"
         id="path4295"
         inkscape:connector-curvature="0"
         sodipodi:nodetypes="ccccccc" />
      <path
         style="fill:url(#linearGradient4341);fill-opacity:1;stroke:#000000;stroke-width:0;stroke-linecap:butt;stroke-linejoin:miter;stroke-miterlimit:4;stroke-dasharray:none;stroke-opacity:1"
         d="m 270,52.3622 -10,10 20,20 440,0 20,-20 -10,-10 z"
         id="path4297"
         inkscape:connector-curvature="0"
         sodipodi:nodetypes="ccccccc" />
      <path
         sodipodi:nodetypes="ccccccc"
         inkscape:connector-curvature="0"
         id="path4299"
         d="m 270,302.3622 -10,-10 20,-20 440,0 20,20 -10,10 z"
         style="fill:url(#linearGradient4343);fill-opacity:1;stroke:none" />
    </g>
    <g
       id="g4301"
       transform="matrix(0.05,0,0,0.04999999,12.499996,1012.2443)">
      <path
         style="fill:url(#linearGradient4329);fill-opacity:1;stroke:none"
         d="m 720,272.3622 0,-190 20,-20 10,10 0,210 -10,10 z"
         id="path4303"
         inkscape:connector-curvature="0"
         sodipodi:nodetypes="ccccccc" />
      <path
         sodipodi:nodetypes="ccccccc"
         inkscape:connector-curvature="0"
         id="path4305"
         d="m 250,72.3622 0,210 10,10 20,-20 0,-190 -20,-20 z"
         style="fill:url(#linearGradient4331);fill-opacity:1;stroke:#000000;stroke-width:0;stroke-linecap:butt;stroke-linejoin:miter;stroke-miterlimit:4;stroke-dasharray:none;stroke-opacity:1" />
      <path
         sodipodi:nodetypes="ccccccc"
         inkscape:connector-curvature="0"
         id="path4307"
         d="m 270,52.3622 -10,10 20,20 440,0 20,-20 -10,-10 z"
         style="fill:url(#linearGradient4333);fill-opacity:1;stroke:#000000;stroke-width:0;stroke-linecap:butt;stroke-linejoin:miter;stroke-miterlimit:4;stroke-dasharray:none;stroke-opacity:1" />
      <path
         style="fill:url(#linearGradient4335);fill-opacity:1;stroke:none"
         d="m 270,302.3622 -10,-10 20,-20 440,0 20,20 -10,10 z"
         id="path4309"
         inkscape:connector-curvature="0"
         sodipodi:nodetypes="ccccccc" />
    </g>
    <g
       id="g4375"
       transform="matrix(0.05,0,0,0.04999999,-3.8819659e-6,1024.7443)">
      <path
         sodipodi:nodetypes="cccccc"
         inkscape:connector-curvature="0"
         id="path4377"
         d="m 770,302.3622 -10,-10 20,-20 220,0 0,30 z"
         style="fill:url(#linearGradient4383);fill-opacity:1;stroke:none" />
      <path
         sodipodi:nodetypes="ccccccc"
         inkscape:connector-curvature="0"
         id="path4379"
         d="m 750,72.3622 0,210 10,10 20,-20 0,-190 -20,-20 z"
         style="fill:url(#linearGradient4385);fill-opacity:1;stroke:#000000;stroke-width:0;stroke-linecap:butt;stroke-linejoin:miter;stroke-miterlimit:4;stroke-dasharray:none;stroke-opacity:1" />
      <path
         sodipodi:nodetypes="cccccc"
         inkscape:connector-curvature="0"
         id="path4381"
         d="m 770,52.3622 -10,10 20,20 220,0 0,-30 z"
         style="fill:url(#linearGradient4387);fill-opacity:1;stroke:#000000;stroke-width:0;stroke-linecap:butt;stroke-linejoin:miter;stroke-miterlimit:4;stroke-dasharray:none;stroke-opacity:1" />
    </g>
    <path
       style="fill:url(#linearGradient5312);fill-opacity:1;stroke:none"
       d="m 1.4999961,1052.3624 0,-48.5 4.4999998,0 0,48.5 z"
       id="rect5310"
       inkscape:connector-curvature="0"
       sodipodi:nodetypes="ccccc" />
    <g
       id="g4311"
       transform="matrix(0.05,0,0,0.04999999,-12.500003,1012.2443)">
      <path
         sodipodi:nodetypes="ccccccc"
         inkscape:connector-curvature="0"
         id="path4313"
         d="m 720,272.3622 0,-190 20,-20 10,10 0,210 -10,10 z"
         style="fill:url(#linearGradient4321);fill-opacity:1;stroke:none" />
      <path
         style="fill:url(#linearGradient4323);fill-opacity:1;stroke:#000000;stroke-width:0;stroke-linecap:butt;stroke-linejoin:miter;stroke-miterlimit:4;stroke-dasharray:none;stroke-opacity:1"
         d="m 250,82.3622 0,190 15,15 15,-15 0,-190 -15,-15 z"
         id="path4315"
         inkscape:connector-curvature="0"
         sodipodi:nodetypes="ccccccc" />
      <path
         style="fill:url(#linearGradient4325);fill-opacity:1;stroke:#000000;stroke-width:0;stroke-linecap:butt;stroke-linejoin:miter;stroke-miterlimit:4;stroke-dasharray:none;stroke-opacity:1"
         d="m 280,52.3622 -15,15 15,15 440,0 20,-20 -10,-10 z"
         id="path4317"
         inkscape:connector-curvature="0"
         sodipodi:nodetypes="ccccccc" />
      <path
         sodipodi:nodetypes="ccccccc"
         inkscape:connector-curvature="0"
         id="path4319"
         d="m 280,302.3622 -15,-15 15,-15 440,0 20,20 -10,10 z"
         style="fill:url(#linearGradient4327);fill-opacity:1;stroke:none" />
    </g>
    <g
       id="g5316"
       transform="matrix(0.05,0,0,0.04999999,-3.8819659e-6,1024.7443)">
      <path
         sodipodi:nodetypes="ccccccc"
         inkscape:connector-curvature="0"
         id="path5318"
         d="m 30,52.3622 -15,15 15,15 190,0 20,-20 -10,-10 z"
         style="fill:url(#linearGradient5336);fill-opacity:1;stroke:#000000;stroke-width:0;stroke-linecap:butt;stroke-linejoin:miter;stroke-miterlimit:4;stroke-dasharray:none;stroke-opacity:1" />
      <path
         style="fill:url(#linearGradient5338);fill-opacity:1;stroke:none"
         d="m 220,272.3622 0,-190 20,-20 10,10 0,210 -10,10 z"
         id="path5320"
         inkscape:connector-curvature="0"
         sodipodi:nodetypes="ccccccc" />
      <path
         style="fill:url(#linearGradient5340);fill-opacity:1;stroke:none"
         d="m 30,302.3622 -15,-15 15,-15 190,0 20,20 -10,10 z"
         id="path5322"
         inkscape:connector-curvature="0"
         sodipodi:nodetypes="ccccccc" />
      <path
         sodipodi:nodetypes="ccccccc"
         inkscape:connector-curvature="0"
         id="path5324"
         d="m 0,82.3622 0,190 15,15 15,-15 0,-190 -15,-15 z"
         style="fill:url(#linearGradient5342);fill-opacity:1;stroke:#000000;stroke-width:0;stroke-linecap:butt;stroke-linejoin:miter;stroke-miterlimit:4;stroke-dasharray:none;stroke-opacity:1" />
    </g>
    <g
       transform="matrix(0.05,0,0,0.04999999,-12.500003,1037.2443)"
       id="g5326">
      <path
         style="fill:url(#linearGradient5344);fill-opacity:1;stroke:none"
         d="m 720,272.3622 0,-190 20,-20 10,10 0,210 -10,10 z"
         id="path5328"
         inkscape:connector-curvature="0"
         sodipodi:nodetypes="ccccccc" />
      <path
         sodipodi:nodetypes="ccccccc"
         inkscape:connector-curvature="0"
         id="path5330"
         d="m 250,82.3622 0,190 15,15 15,-15 0,-190 -15,-15 z"
         style="fill:url(#linearGradient5346);fill-opacity:1;stroke:#000000;stroke-width:0;stroke-linecap:butt;stroke-linejoin:miter;stroke-miterlimit:4;stroke-dasharray:none;stroke-opacity:1" />
      <path
         sodipodi:nodetypes="ccccccc"
         inkscape:connector-curvature="0"
         id="path5332"
         d="m 280,52.3622 -15,15 15,15 440,0 20,-20 -10,-10 z"
         style="fill:url(#linearGradient5348);fill-opacity:1;stroke:#000000;stroke-width:0;stroke-linecap:butt;stroke-linejoin:miter;stroke-miterlimit:4;stroke-dasharray:none;stroke-opacity:1" />
      <path
         style="fill:url(#linearGradient5350);fill-opacity:1;stroke:none"
         d="m 280,302.3622 -15,-15 15,-15 440,0 20,20 -10,10 z"
         id="path5334"
         inkscape:connector-curvature="0"
         sodipodi:nodetypes="ccccccc" />
    </g>
    <g
       id="g5371"
       transform="matrix(0.05,0,0,0.04999999,-3.8819659e-6,999.74427)">
      <path
         style="fill:url(#linearGradient5399);fill-opacity:1;stroke:none"
         d="m 720,272.3622 0,-190 20,-20 10,10 0,210 -10,10 z"
         id="path5373"
         inkscape:connector-curvature="0"
         sodipodi:nodetypes="ccccccc" />
      <path
         sodipodi:nodetypes="ccccccc"
         inkscape:connector-curvature="0"
         id="path5375"
         d="m 250,72.3622 0,210 10,10 20,-20 0,-190 -20,-20 z"
         style="fill:url(#linearGradient5401);fill-opacity:1;stroke:#000000;stroke-width:0;stroke-linecap:butt;stroke-linejoin:miter;stroke-miterlimit:4;stroke-dasharray:none;stroke-opacity:1" />
      <path
         sodipodi:nodetypes="ccccccc"
         inkscape:connector-curvature="0"
         id="path5377"
         d="m 270,52.3622 -10,10 20,20 440,0 20,-20 -10,-10 z"
         style="fill:url(#linearGradient5403);fill-opacity:1;stroke:#000000;stroke-width:0;stroke-linecap:butt;stroke-linejoin:miter;stroke-miterlimit:4;stroke-dasharray:none;stroke-opacity:1" />
      <path
         style="fill:url(#linearGradient5405);fill-opacity:1;stroke:none"
         d="m 270,302.3622 -10,-10 20,-20 440,0 20,20 -10,10 z"
         id="path5379"
         inkscape:connector-curvature="0"
         sodipodi:nodetypes="ccccccc" />
    </g>
    <g
       id="g5381"
       transform="matrix(0.05,0,0,0.04999999,-3.8819659e-6,999.74427)">
      <path
         style="fill:url(#linearGradient5407);fill-opacity:1;stroke:none"
         d="m 770,302.3622 -10,-10 20,-20 220,0 0,30 z"
         id="path5383"
         inkscape:connector-curvature="0"
         sodipodi:nodetypes="cccccc" />
      <path
         style="fill:url(#linearGradient5409);fill-opacity:1;stroke:#000000;stroke-width:0;stroke-linecap:butt;stroke-linejoin:miter;stroke-miterlimit:4;stroke-dasharray:none;stroke-opacity:1"
         d="m 750,72.3622 0,210 10,10 20,-20 0,-190 -20,-20 z"
         id="path5385"
         inkscape:connector-curvature="0"
         sodipodi:nodetypes="ccccccc" />
      <path
         style="fill:url(#linearGradient5411);fill-opacity:1;stroke:#000000;stroke-width:0;stroke-linecap:butt;stroke-linejoin:miter;stroke-miterlimit:4;stroke-dasharray:none;stroke-opacity:1"
         d="m 770,52.3622 -10,10 20,20 220,0 0,-30 z"
         id="path5387"
         inkscape:connector-curvature="0"
         sodipodi:nodetypes="cccccc" />
    </g>
    <g
       id="g5389"
       transform="matrix(0.05,0,0,0.04999999,-3.8819659e-6,999.74427)">
      <path
         style="fill:url(#linearGradient5413);fill-opacity:1;stroke:#000000;stroke-width:0;stroke-linecap:butt;stroke-linejoin:miter;stroke-miterlimit:4;stroke-dasharray:none;stroke-opacity:1"
         d="m 30,52.3622 -15,15 15,15 190,0 20,-20 -10,-10 z"
         id="path5391"
         inkscape:connector-curvature="0"
         sodipodi:nodetypes="ccccccc" />
      <path
         sodipodi:nodetypes="ccccccc"
         inkscape:connector-curvature="0"
         id="path5393"
         d="m 220,272.3622 0,-190 20,-20 10,10 0,210 -10,10 z"
         style="fill:url(#linearGradient5415);fill-opacity:1;stroke:none" />
      <path
         sodipodi:nodetypes="ccccccc"
         inkscape:connector-curvature="0"
         id="path5395"
         d="m 30,302.3622 -15,-15 15,-15 190,0 20,20 -10,10 z"
         style="fill:url(#linearGradient5417);fill-opacity:1;stroke:none" />
      <path
         style="fill:url(#linearGradient5419);fill-opacity:1;stroke:#000000;stroke-width:0;stroke-linecap:butt;stroke-linejoin:miter;stroke-miterlimit:4;stroke-dasharray:none;stroke-opacity:1"
         d="m 0,82.3622 0,190 15,15 15,-15 0,-190 -15,-15 z"
         id="path5397"
         inkscape:connector-curvature="0"
         sodipodi:nodetypes="ccccccc" />
    </g>
  </g>
</svg>
