<?xml version="1.0" encoding="UTF-8" standalone="no"?>
<!-- Created with Inkscape (http://www.inkscape.org/) -->

<svg
   xmlns:dc="http://purl.org/dc/elements/1.1/"
   xmlns:cc="http://creativecommons.org/ns#"
   xmlns:rdf="http://www.w3.org/1999/02/22-rdf-syntax-ns#"
   xmlns:svg="http://www.w3.org/2000/svg"
   xmlns="http://www.w3.org/2000/svg"
   xmlns:xlink="http://www.w3.org/1999/xlink"
   xmlns:sodipodi="http://sodipodi.sourceforge.net/DTD/sodipodi-0.dtd"
   xmlns:inkscape="http://www.inkscape.org/namespaces/inkscape"
   width="50"
   height="50"
   id="svg2"
   version="1.1"
   inkscape:version="0.91 r13725"
   sodipodi:docname="steel_girder_top_left.svg">
  <defs
     id="defs4">
    <linearGradient
       id="linearGradient4147">
      <stop
         id="stop4149"
         offset="0"
         style="stop-color:#000000;stop-opacity:1;" />
      <stop
         style="stop-color:#1b1b1b;stop-opacity:1;"
         offset="0"
         id="stop4151" />
      <stop
         id="stop4153"
         offset="1"
         style="stop-color:#2a2a2a;stop-opacity:1;" />
    </linearGradient>
    <linearGradient
       id="linearGradient4133">
      <stop
         style="stop-color:#4d4d4d;stop-opacity:1;"
         offset="0"
         id="stop4135" />
      <stop
         id="stop4137"
         offset="0.77777797"
         style="stop-color:#636363;stop-opacity:1;" />
      <stop
         style="stop-color:#4d4d4d;stop-opacity:1;"
         offset="1"
         id="stop4139" />
    </linearGradient>
    <linearGradient
       id="linearGradient4119">
      <stop
         style="stop-color:#000000;stop-opacity:1;"
         offset="0"
         id="stop4121" />
      <stop
         id="stop4127"
         offset="0.88888884"
         style="stop-color:#1b1b1b;stop-opacity:1;" />
      <stop
         style="stop-color:#2a2a2a;stop-opacity:1;"
         offset="1"
         id="stop4123" />
    </linearGradient>
    <linearGradient
       id="linearGradient4072">
      <stop
         id="stop4074"
         offset="0"
         style="stop-color:#4d4d4d;stop-opacity:1;" />
      <stop
         style="stop-color:#636363;stop-opacity:1;"
         offset="0.91999996"
         id="stop4078" />
      <stop
         id="stop4076"
         offset="1"
         style="stop-color:#4d4d4d;stop-opacity:1;" />
    </linearGradient>
    <linearGradient
       id="linearGradient3902">
      <stop
         style="stop-color:#2a2a2a;stop-opacity:1;"
         offset="0"
         id="stop3904" />
      <stop
         style="stop-color:#1b1b1b;stop-opacity:1;"
         offset="1"
         id="stop3906" />
    </linearGradient>
    <linearGradient
       id="linearGradient3888">
      <stop
         style="stop-color:#4d4d4d;stop-opacity:1;"
         offset="0"
         id="stop3890" />
      <stop
         style="stop-color:#636363;stop-opacity:1;"
         offset="1"
         id="stop3892" />
    </linearGradient>
    <linearGradient
       inkscape:collect="always"
       xlink:href="#linearGradient3888"
       id="linearGradient3894"
       x1="0"
       y1="500"
       x2="80"
       y2="500"
       gradientUnits="userSpaceOnUse"
       gradientTransform="translate(0,1052.3622)" />
    <linearGradient
       inkscape:collect="always"
       xlink:href="#linearGradient3888"
       id="linearGradient3898"
       gradientUnits="userSpaceOnUse"
       x1="0"
       y1="500"
       x2="80"
       y2="500"
       gradientTransform="translate(640,1052.3622)" />
    <linearGradient
       inkscape:collect="always"
       xlink:href="#linearGradient3902"
       id="linearGradient3908"
       x1="240"
       y1="500"
       x2="320"
       y2="500"
       gradientUnits="userSpaceOnUse"
       gradientTransform="translate(40,1052.3622)" />
    <linearGradient
       inkscape:collect="always"
       xlink:href="#linearGradient3902"
       id="linearGradient3912"
       gradientUnits="userSpaceOnUse"
       gradientTransform="translate(680,1052.3622)"
       x1="240"
       y1="500"
       x2="320"
       y2="500" />
    <linearGradient
       inkscape:collect="always"
       xlink:href="#linearGradient3902-6"
       id="linearGradient3078"
       gradientUnits="userSpaceOnUse"
       gradientTransform="translate(732.36218,-2000)"
       x1="240"
       y1="500"
       x2="320"
       y2="500" />
    <linearGradient
       id="linearGradient3902-6">
      <stop
         style="stop-color:#2a2a2a;stop-opacity:1;"
         offset="0"
         id="stop3904-2" />
      <stop
         style="stop-color:#1b1b1b;stop-opacity:1;"
         offset="1"
         id="stop3906-5" />
    </linearGradient>
    <linearGradient
       inkscape:collect="always"
       xlink:href="#linearGradient3902-6"
       id="linearGradient3081"
       gradientUnits="userSpaceOnUse"
       gradientTransform="translate(92.36218,-2000)"
       x1="240"
       y1="500"
       x2="320"
       y2="500" />
    <linearGradient
       id="linearGradient3205">
      <stop
         style="stop-color:#2a2a2a;stop-opacity:1;"
         offset="0"
         id="stop3207" />
      <stop
         style="stop-color:#1b1b1b;stop-opacity:1;"
         offset="1"
         id="stop3209" />
    </linearGradient>
    <linearGradient
       inkscape:collect="always"
       xlink:href="#linearGradient3888-4"
       id="linearGradient3084"
       gradientUnits="userSpaceOnUse"
       gradientTransform="translate(692.36218,-2000)"
       x1="0"
       y1="500"
       x2="80"
       y2="500" />
    <linearGradient
       id="linearGradient3888-4">
      <stop
         style="stop-color:#4d4d4d;stop-opacity:1;"
         offset="0"
         id="stop3890-4" />
      <stop
         style="stop-color:#636363;stop-opacity:1;"
         offset="1"
         id="stop3892-9" />
    </linearGradient>
    <linearGradient
       inkscape:collect="always"
       xlink:href="#linearGradient3888-4"
       id="linearGradient3087"
       gradientUnits="userSpaceOnUse"
       x1="0"
       y1="500"
       x2="80"
       y2="500"
       gradientTransform="translate(52.36218,-2000)" />
    <linearGradient
       id="linearGradient3216">
      <stop
         style="stop-color:#4d4d4d;stop-opacity:1;"
         offset="0"
         id="stop3218" />
      <stop
         style="stop-color:#636363;stop-opacity:1;"
         offset="1"
         id="stop3220" />
    </linearGradient>
    <radialGradient
       inkscape:collect="always"
       xlink:href="#linearGradient4072"
       id="radialGradient4101"
       gradientUnits="userSpaceOnUse"
       gradientTransform="matrix(0,-0.10443626,0.10443627,0,-46.703587,1046.2397)"
       cx="-58.623825"
       cy="925.9577"
       fx="-58.623825"
       fy="925.9577"
       r="478.76089" />
    <radialGradient
       inkscape:collect="always"
       xlink:href="#linearGradient4119"
       id="radialGradient4125"
       cx="979.99994"
       cy="944.93555"
       fx="979.99994"
       fy="944.93555"
       r="394.25003"
       gradientTransform="matrix(0,-0.09131261,0.09131261,0,-36.284544,1141.8486)"
       gradientUnits="userSpaceOnUse" />
    <radialGradient
       inkscape:collect="always"
       xlink:href="#linearGradient4133"
       id="radialGradient4131"
       gradientUnits="userSpaceOnUse"
       gradientTransform="matrix(0,-0.03759706,0.03759705,0,15.186696,1050.1581)"
       cx="-58.623825"
       cy="925.9577"
       fx="-58.623825"
       fy="925.9577"
       r="478.76089" />
    <radialGradient
       inkscape:collect="always"
       xlink:href="#linearGradient4147"
       id="radialGradient4145"
       gradientUnits="userSpaceOnUse"
       gradientTransform="matrix(0,-0.01014584,0.01014585,0,40.412811,1062.3051)"
       cx="979.99994"
       cy="944.93555"
       fx="979.99994"
       fy="944.93555"
       r="394.25003" />
  </defs>
  <sodipodi:namedview
     id="base"
     pagecolor="#ffffff"
     bordercolor="#666666"
     borderopacity="1.0"
     inkscape:pageopacity="0.0"
     inkscape:pageshadow="2"
     inkscape:zoom="0.12374369"
     inkscape:cx="-416.60032"
     inkscape:cy="-177.08371"
     inkscape:document-units="px"
     inkscape:current-layer="layer1"
     showgrid="true"
     inkscape:window-width="1600"
     inkscape:window-height="842"
     inkscape:window-x="0"
     inkscape:window-y="0"
     inkscape:window-maximized="1"
     fit-margin-top="0"
     fit-margin-left="0"
     fit-margin-right="0"
     fit-margin-bottom="0">
    <inkscape:grid
       type="xygrid"
       id="grid3004"
       empspacing="5"
       visible="true"
       enabled="true"
       snapvisiblegridlinesonly="true"
       originx="2e-05"
       originy="1.7e-05" />
  </sodipodi:namedview>
  <metadata
     id="metadata7">
    <rdf:RDF>
      <cc:Work
         rdf:about="">
        <dc:format>image/svg+xml</dc:format>
        <dc:type
           rdf:resource="http://purl.org/dc/dcmitype/StillImage" />
        <dc:title></dc:title>
      </cc:Work>
    </rdf:RDF>
  </metadata>
  <g
     inkscape:label="Ebene 1"
     inkscape:groupmode="layer"
     id="layer1"
     transform="translate(2e-5,-1002.3622)">
    <path
       style="fill:#333333;fill-rule:evenodd;stroke:none"
       d="m 49.999979,1002.3622 0,50 -49.999998,0 c 0,-24 21.999999,-50 49.999998,-50 z"
       id="rect3293"
       inkscape:connector-curvature="0"
       sodipodi:nodetypes="cccc" />
    <path
       id="path4086"
       style="fill:url(#radialGradient4101);fill-opacity:1;stroke:none;stroke-width:1.01153886;stroke-opacity:1"
       d="m -2e-5,1052.3622 4.0000028,0 c 0,-25.4051 20.5948992,-46 45.9999962,-46 l -3e-6,-4 c -27.614236,0 -49.999996,22.3858 -49.999996,50"
       inkscape:connector-curvature="0"
       sodipodi:nodetypes="ccccc" />
    <path
       id="path4106"
       style="fill:url(#radialGradient4125);fill-opacity:1;stroke:none;stroke-opacity:1"
       d="m 49.999977,1016.3622 c -19.882249,0 -35.999997,16.1177 -35.999997,36 l 4,0 c 0,-17.6731 14.32689,-32 32,-32 z"
       inkscape:connector-curvature="0"
       sodipodi:nodetypes="ccccc" />
    <path
       sodipodi:nodetypes="ccccc"
       inkscape:connector-curvature="0"
       d="m 31.99998,1052.3622 3.999999,0 c 0,-8 6,-14 14,-14 l -1e-6,-4 c -9.941125,0 -17.999998,8.0589 -17.999998,18"
       style="fill:url(#radialGradient4131);fill-opacity:1;stroke:none"
       id="path4129" />
    <path
       sodipodi:nodetypes="cccc"
       inkscape:connector-curvature="0"
       d="m 49.999979,1048.3622 c -2.209138,0 -3.999999,1.7909 -3.999999,4 1.249999,0 3.999999,0 3.999999,0 z"
       style="fill:url(#radialGradient4145);fill-opacity:1;stroke:none"
       id="path4141" />
  </g>
</svg>
