<?xml version="1.0" encoding="UTF-8" standalone="no"?>
<!-- Created with Inkscape (http://www.inkscape.org/) -->

<svg
   xmlns:dc="http://purl.org/dc/elements/1.1/"
   xmlns:cc="http://creativecommons.org/ns#"
   xmlns:rdf="http://www.w3.org/1999/02/22-rdf-syntax-ns#"
   xmlns:svg="http://www.w3.org/2000/svg"
   xmlns="http://www.w3.org/2000/svg"
   xmlns:xlink="http://www.w3.org/1999/xlink"
   xmlns:sodipodi="http://sodipodi.sourceforge.net/DTD/sodipodi-0.dtd"
   xmlns:inkscape="http://www.inkscape.org/namespaces/inkscape"
   width="50"
   height="50"
   id="svg2"
   version="1.1"
   inkscape:version="0.91 r13725"
   sodipodi:docname="steel_girder_horizontal.svg">
  <defs
     id="defs4">
    <linearGradient
       id="linearGradient3902">
      <stop
         style="stop-color:#2a2a2a;stop-opacity:1;"
         offset="0"
         id="stop3904" />
      <stop
         style="stop-color:#1b1b1b;stop-opacity:1;"
         offset="1"
         id="stop3906" />
    </linearGradient>
    <linearGradient
       id="linearGradient3888">
      <stop
         style="stop-color:#4d4d4d;stop-opacity:1;"
         offset="0"
         id="stop3890" />
      <stop
         style="stop-color:#636363;stop-opacity:1;"
         offset="1"
         id="stop3892" />
    </linearGradient>
    <linearGradient
       inkscape:collect="always"
       xlink:href="#linearGradient3888"
       id="linearGradient3894"
       x1="0"
       y1="500"
       x2="80"
       y2="500"
       gradientUnits="userSpaceOnUse" />
    <linearGradient
       inkscape:collect="always"
       xlink:href="#linearGradient3888"
       id="linearGradient3898"
       gradientUnits="userSpaceOnUse"
       x1="0"
       y1="500"
       x2="80"
       y2="500"
       gradientTransform="translate(640,52.362183)" />
    <linearGradient
       inkscape:collect="always"
       xlink:href="#linearGradient3902"
       id="linearGradient3908"
       x1="240"
       y1="500"
       x2="320"
       y2="500"
       gradientUnits="userSpaceOnUse"
       gradientTransform="translate(40,52.362183)" />
    <linearGradient
       inkscape:collect="always"
       xlink:href="#linearGradient3902"
       id="linearGradient3912"
       gradientUnits="userSpaceOnUse"
       gradientTransform="translate(680,52.362183)"
       x1="240"
       y1="500"
       x2="320"
       y2="500" />
    <linearGradient
       inkscape:collect="always"
       xlink:href="#linearGradient3888"
       id="linearGradient3069"
       gradientUnits="userSpaceOnUse"
       x1="0"
       y1="500"
       x2="80"
       y2="500" />
    <linearGradient
       inkscape:collect="always"
       xlink:href="#linearGradient3888"
       id="linearGradient3071"
       gradientUnits="userSpaceOnUse"
       gradientTransform="translate(640,52.362183)"
       x1="0"
       y1="500"
       x2="80"
       y2="500" />
    <linearGradient
       inkscape:collect="always"
       xlink:href="#linearGradient3902"
       id="linearGradient3073"
       gradientUnits="userSpaceOnUse"
       gradientTransform="translate(40,52.362183)"
       x1="240"
       y1="500"
       x2="320"
       y2="500" />
    <linearGradient
       inkscape:collect="always"
       xlink:href="#linearGradient3902"
       id="linearGradient3075"
       gradientUnits="userSpaceOnUse"
       gradientTransform="translate(680,52.362183)"
       x1="240"
       y1="500"
       x2="320"
       y2="500" />
    <linearGradient
       inkscape:collect="always"
       xlink:href="#linearGradient3902"
       id="linearGradient3078"
       gradientUnits="userSpaceOnUse"
       gradientTransform="matrix(0.05,0,0,0.05,1036.3622,-50)"
       x1="240"
       y1="500"
       x2="320"
       y2="500" />
    <linearGradient
       inkscape:collect="always"
       xlink:href="#linearGradient3902"
       id="linearGradient3081"
       gradientUnits="userSpaceOnUse"
       gradientTransform="matrix(0.05,0,0,0.05,1004.3622,-50)"
       x1="240"
       y1="500"
       x2="320"
       y2="500" />
    <linearGradient
       inkscape:collect="always"
       xlink:href="#linearGradient3888"
       id="linearGradient3084"
       gradientUnits="userSpaceOnUse"
       gradientTransform="matrix(0.05,0,0,0.05,1034.3622,-50)"
       x1="0"
       y1="500"
       x2="80"
       y2="500" />
    <linearGradient
       inkscape:collect="always"
       xlink:href="#linearGradient3888"
       id="linearGradient3087"
       gradientUnits="userSpaceOnUse"
       x1="0"
       y1="500"
       x2="80"
       y2="500"
       gradientTransform="matrix(0.05,0,0,0.05,1002.3622,-50)" />
  </defs>
  <sodipodi:namedview
     id="base"
     pagecolor="#ffffff"
     bordercolor="#666666"
     borderopacity="1.0"
     inkscape:pageopacity="0.0"
     inkscape:pageshadow="2"
     inkscape:zoom="0.35"
     inkscape:cx="520"
     inkscape:cy="365.71429"
     inkscape:document-units="px"
     inkscape:current-layer="layer1"
     showgrid="true"
     inkscape:window-width="1038"
     inkscape:window-height="685"
     inkscape:window-x="166"
     inkscape:window-y="43"
     inkscape:window-maximized="0"
     fit-margin-top="0"
     fit-margin-left="0"
     fit-margin-right="0"
     fit-margin-bottom="0">
    <inkscape:grid
       type="xygrid"
       id="grid3004"
       empspacing="5"
       visible="true"
       enabled="true"
       snapvisiblegridlinesonly="true"
       originx="0"
       originy="-3.8281246e-07" />
  </sodipodi:namedview>
  <metadata
     id="metadata7">
    <rdf:RDF>
      <cc:Work
         rdf:about="">
        <dc:format>image/svg+xml</dc:format>
        <dc:type
           rdf:resource="http://purl.org/dc/dcmitype/StillImage" />
        <dc:title></dc:title>
      </cc:Work>
    </rdf:RDF>
  </metadata>
  <g
     inkscape:label="Ebene 1"
     inkscape:groupmode="layer"
     id="layer1"
     transform="translate(0,-1002.3622)">
    <rect
       style="fill:#333333;fill-rule:evenodd;stroke:none"
       id="rect3006"
       width="50"
       height="50"
       x="1002.3622"
       y="-50"
       transform="matrix(0,1,-1,0,0,0)" />
    <rect
       style="fill:url(#linearGradient3087);fill-opacity:1;stroke:none"
       id="rect3118"
       width="4"
       height="50"
       x="1002.3622"
       y="-50"
       transform="matrix(0,1,-1,0,0,0)" />
    <rect
       y="-50"
       x="1034.3622"
       height="50"
       width="4"
       id="rect3896"
       style="fill:url(#linearGradient3084);fill-opacity:1;stroke:none"
       transform="matrix(0,1,-1,0,0,0)" />
    <rect
       style="fill:url(#linearGradient3081);fill-opacity:1;stroke:none"
       id="rect3900"
       width="4"
       height="50"
       x="1016.3622"
       y="-50"
       transform="matrix(0,1,-1,0,0,0)" />
    <rect
       y="-50"
       x="1048.3622"
       height="50"
       width="4"
       id="rect3910"
       style="fill:url(#linearGradient3078);fill-opacity:1;stroke:none"
       transform="matrix(0,1,-1,0,0,0)" />
  </g>
</svg>
