<?xml version="1.0" encoding="UTF-8" standalone="no"?>
<!-- Created with Inkscape (http://www.inkscape.org/) -->

<svg
   xmlns:dc="http://purl.org/dc/elements/1.1/"
   xmlns:cc="http://creativecommons.org/ns#"
   xmlns:rdf="http://www.w3.org/1999/02/22-rdf-syntax-ns#"
   xmlns:svg="http://www.w3.org/2000/svg"
   xmlns="http://www.w3.org/2000/svg"
   xmlns:xlink="http://www.w3.org/1999/xlink"
   xmlns:sodipodi="http://sodipodi.sourceforge.net/DTD/sodipodi-0.dtd"
   xmlns:inkscape="http://www.inkscape.org/namespaces/inkscape"
   width="50"
   height="50"
   id="svg2"
   version="1.1"
   inkscape:version="0.91 r13725"
   sodipodi:docname="steel_girder_top_right.svg">
  <defs
     id="defs4">
    <linearGradient
       id="linearGradient5470">
      <stop
         id="stop5472"
         offset="0"
         style="stop-color:#b20000;stop-opacity:1;" />
      <stop
         style="stop-color:#636363;stop-opacity:1;"
         offset="0"
         id="stop5474" />
      <stop
         style="stop-color:#4d4d4d;stop-opacity:1;"
         offset="0.21739113"
         id="stop5476" />
      <stop
         id="stop5478"
         offset="1"
         style="stop-color:#1b1b1b;stop-opacity:1;" />
      <stop
         id="stop5480"
         offset="1"
         style="stop-color:#2a2a2a;stop-opacity:1;" />
    </linearGradient>
    <linearGradient
       id="linearGradient5458">
      <stop
         style="stop-color:#b20000;stop-opacity:1;"
         offset="0"
         id="stop5460" />
      <stop
         id="stop5462"
         offset="0.5"
         style="stop-color:#636363;stop-opacity:1;" />
      <stop
         id="stop5464"
         offset="0.64285713"
         style="stop-color:#4d4d4d;stop-opacity:1;" />
      <stop
         style="stop-color:#2a2a2a;stop-opacity:1;"
         offset="0.77777797"
         id="stop5466" />
      <stop
         style="stop-color:#1b1b1b;stop-opacity:1;"
         offset="1"
         id="stop5468" />
    </linearGradient>
    <linearGradient
       id="linearGradient5446">
      <stop
         style="stop-color:#b20000;stop-opacity:1;"
         offset="0"
         id="stop5448" />
      <stop
         id="stop5450"
         offset="0.66666669"
         style="stop-color:#4d4d4d;stop-opacity:1;" />
      <stop
         id="stop5452"
         offset="0.75000006"
         style="stop-color:#636363;stop-opacity:1;" />
      <stop
         style="stop-color:#1b1b1b;stop-opacity:1;"
         offset="0.8888889"
         id="stop5454" />
      <stop
         style="stop-color:#2a2a2a;stop-opacity:1;"
         offset="1"
         id="stop5456" />
    </linearGradient>
    <linearGradient
       id="linearGradient4773">
      <stop
         id="stop4775"
         offset="0"
         style="stop-color:#b20000;stop-opacity:1;" />
      <stop
         style="stop-color:#636363;stop-opacity:1;"
         offset="0.76496869"
         id="stop4781" />
      <stop
         style="stop-color:#4d4d4d;stop-opacity:1;"
         offset="0.83148766"
         id="stop4777" />
      <stop
         id="stop4783"
         offset="0.92000002"
         style="stop-color:#2a2a2a;stop-opacity:1;" />
      <stop
         id="stop4779"
         offset="1"
         style="stop-color:#1b1b1b;stop-opacity:1;" />
    </linearGradient>
    <linearGradient
       id="linearGradient4726">
      <stop
         style="stop-color:#b61010;stop-opacity:1;"
         offset="0"
         id="stop4728" />
      <stop
         id="stop4730"
         offset="0.88888896"
         style="stop-color:#4d4d4d;stop-opacity:1;" />
      <stop
         style="stop-color:#636363;stop-opacity:1;"
         offset="1"
         id="stop4732" />
    </linearGradient>
    <linearGradient
       id="linearGradient4718">
      <stop
         style="stop-color:#dbf854;stop-opacity:1;"
         offset="0"
         id="stop4720" />
      <stop
         id="stop4722"
         offset="0.77777773"
         style="stop-color:#2a2a2a;stop-opacity:1;" />
      <stop
         style="stop-color:#1b1b1b;stop-opacity:1;"
         offset="1"
         id="stop4724" />
    </linearGradient>
    <linearGradient
       id="linearGradient4202">
      <stop
         id="stop4204"
         offset="0"
         style="stop-color:#4d4d4d;stop-opacity:1;" />
      <stop
         id="stop4208"
         offset="1"
         style="stop-color:#636363;stop-opacity:1;" />
    </linearGradient>
    <linearGradient
       id="linearGradient4147">
      <stop
         id="stop4149"
         offset="0"
         style="stop-color:#dbf854;stop-opacity:1;" />
      <stop
         style="stop-color:#1b1b1b;stop-opacity:1;"
         offset="0.61340207"
         id="stop4151" />
      <stop
         id="stop4153"
         offset="1"
         style="stop-color:#2a2a2a;stop-opacity:1;" />
    </linearGradient>
    <linearGradient
       id="linearGradient4133">
      <stop
         style="stop-color:#4d4d4d;stop-opacity:1;"
         offset="0"
         id="stop4135" />
      <stop
         id="stop4137"
         offset="0.77777797"
         style="stop-color:#636363;stop-opacity:1;" />
      <stop
         style="stop-color:#4d4d4d;stop-opacity:1;"
         offset="1"
         id="stop4139" />
    </linearGradient>
    <linearGradient
       id="linearGradient4119">
      <stop
         style="stop-color:#b20000;stop-opacity:1;"
         offset="0"
         id="stop4121" />
      <stop
         id="stop4127"
         offset="0.88888884"
         style="stop-color:#2a2a2a;stop-opacity:1;" />
      <stop
         style="stop-color:#1b1b1b;stop-opacity:1;"
         offset="1"
         id="stop4123" />
    </linearGradient>
    <linearGradient
       id="linearGradient4072">
      <stop
         id="stop4074"
         offset="0"
         style="stop-color:#4d4d4d;stop-opacity:1;" />
      <stop
         style="stop-color:#636363;stop-opacity:1;"
         offset="0.91999996"
         id="stop4078" />
      <stop
         id="stop4076"
         offset="1"
         style="stop-color:#4d4d4d;stop-opacity:1;" />
    </linearGradient>
    <linearGradient
       id="linearGradient3902">
      <stop
         style="stop-color:#2a2a2a;stop-opacity:1;"
         offset="0"
         id="stop3904" />
      <stop
         style="stop-color:#1b1b1b;stop-opacity:1;"
         offset="1"
         id="stop3906" />
    </linearGradient>
    <linearGradient
       id="linearGradient3888">
      <stop
         style="stop-color:#4d4d4d;stop-opacity:1;"
         offset="0"
         id="stop3890" />
      <stop
         style="stop-color:#636363;stop-opacity:1;"
         offset="1"
         id="stop3892" />
    </linearGradient>
    <linearGradient
       inkscape:collect="always"
       xlink:href="#linearGradient3888"
       id="linearGradient3894"
       x1="0"
       y1="500"
       x2="80"
       y2="500"
       gradientUnits="userSpaceOnUse"
       gradientTransform="translate(0,1052.3622)" />
    <linearGradient
       inkscape:collect="always"
       xlink:href="#linearGradient3888"
       id="linearGradient3898"
       gradientUnits="userSpaceOnUse"
       x1="0"
       y1="500"
       x2="80"
       y2="500"
       gradientTransform="translate(640,1052.3622)" />
    <linearGradient
       inkscape:collect="always"
       xlink:href="#linearGradient3902"
       id="linearGradient3908"
       x1="240"
       y1="500"
       x2="320"
       y2="500"
       gradientUnits="userSpaceOnUse"
       gradientTransform="translate(40,1052.3622)" />
    <linearGradient
       inkscape:collect="always"
       xlink:href="#linearGradient3902"
       id="linearGradient3912"
       gradientUnits="userSpaceOnUse"
       gradientTransform="translate(680,1052.3622)"
       x1="240"
       y1="500"
       x2="320"
       y2="500" />
    <linearGradient
       inkscape:collect="always"
       xlink:href="#linearGradient3902-6"
       id="linearGradient3078"
       gradientUnits="userSpaceOnUse"
       gradientTransform="translate(732.36218,-2000)"
       x1="240"
       y1="500"
       x2="320"
       y2="500" />
    <linearGradient
       id="linearGradient3902-6">
      <stop
         style="stop-color:#2a2a2a;stop-opacity:1;"
         offset="0"
         id="stop3904-2" />
      <stop
         style="stop-color:#1b1b1b;stop-opacity:1;"
         offset="1"
         id="stop3906-5" />
    </linearGradient>
    <linearGradient
       inkscape:collect="always"
       xlink:href="#linearGradient3902-6"
       id="linearGradient3081"
       gradientUnits="userSpaceOnUse"
       gradientTransform="translate(92.36218,-2000)"
       x1="240"
       y1="500"
       x2="320"
       y2="500" />
    <linearGradient
       id="linearGradient3205">
      <stop
         style="stop-color:#2a2a2a;stop-opacity:1;"
         offset="0"
         id="stop3207" />
      <stop
         style="stop-color:#1b1b1b;stop-opacity:1;"
         offset="1"
         id="stop3209" />
    </linearGradient>
    <linearGradient
       inkscape:collect="always"
       xlink:href="#linearGradient3888-4"
       id="linearGradient3084"
       gradientUnits="userSpaceOnUse"
       gradientTransform="translate(692.36218,-2000)"
       x1="0"
       y1="500"
       x2="80"
       y2="500" />
    <linearGradient
       id="linearGradient3888-4">
      <stop
         style="stop-color:#4d4d4d;stop-opacity:1;"
         offset="0"
         id="stop3890-4" />
      <stop
         style="stop-color:#636363;stop-opacity:1;"
         offset="1"
         id="stop3892-9" />
    </linearGradient>
    <linearGradient
       inkscape:collect="always"
       xlink:href="#linearGradient3888-4"
       id="linearGradient3087"
       gradientUnits="userSpaceOnUse"
       x1="0"
       y1="500"
       x2="80"
       y2="500"
       gradientTransform="translate(52.36218,-2000)" />
    <linearGradient
       id="linearGradient3216">
      <stop
         style="stop-color:#4d4d4d;stop-opacity:1;"
         offset="0"
         id="stop3218" />
      <stop
         style="stop-color:#636363;stop-opacity:1;"
         offset="1"
         id="stop3220" />
    </linearGradient>
    <radialGradient
       inkscape:collect="always"
       xlink:href="#linearGradient5470"
       id="radialGradient4761"
       gradientUnits="userSpaceOnUse"
       gradientTransform="matrix(0.0291693,0,0,0.01014585,-28.585923,1042.775)"
       cx="979.99994"
       cy="944.93555"
       fx="979.99994"
       fy="944.93555"
       r="394.25003" />
    <radialGradient
       inkscape:collect="always"
       xlink:href="#linearGradient5458"
       id="radialGradient4764"
       gradientUnits="userSpaceOnUse"
       gradientTransform="matrix(0.03759706,0,0,0.05848431,2.2040746,998.2082)"
       cx="-58.623825"
       cy="925.9577"
       fx="-58.623825"
       fy="925.9577"
       r="478.76089" />
    <radialGradient
       inkscape:collect="always"
       xlink:href="#linearGradient5446"
       id="radialGradient4767"
       gradientUnits="userSpaceOnUse"
       gradientTransform="matrix(0.12175015,0,0,0.09131261,-119.31516,966.07767)"
       cx="979.99994"
       cy="944.93555"
       fx="979.99994"
       fy="944.93555"
       r="394.25003" />
    <radialGradient
       inkscape:collect="always"
       xlink:href="#linearGradient4773"
       id="radialGradient4770"
       gradientUnits="userSpaceOnUse"
       gradientTransform="matrix(0.10443626,0,0,0.1256017,6.1224371,936.06033)"
       cx="-58.623825"
       cy="925.9577"
       fx="-58.623825"
       fy="925.9577"
       r="478.76089" />
  </defs>
  <sodipodi:namedview
     id="base"
     pagecolor="#ffffff"
     bordercolor="#666666"
     borderopacity="1.0"
     inkscape:pageopacity="0.0"
     inkscape:pageshadow="2"
     inkscape:zoom="0.35"
     inkscape:cx="-379.42116"
     inkscape:cy="486.35514"
     inkscape:document-units="px"
     inkscape:current-layer="layer1"
     showgrid="true"
     inkscape:window-width="1600"
     inkscape:window-height="842"
     inkscape:window-x="0"
     inkscape:window-y="0"
     inkscape:window-maximized="1"
     fit-margin-top="0"
     fit-margin-left="0"
     fit-margin-right="0"
     fit-margin-bottom="0">
    <inkscape:grid
       type="xygrid"
       id="grid3004"
       empspacing="5"
       visible="true"
       enabled="true"
       snapvisiblegridlinesonly="true"
       originx="1.3e-05"
       originy="1.7e-05" />
  </sodipodi:namedview>
  <metadata
     id="metadata7">
    <rdf:RDF>
      <cc:Work
         rdf:about="">
        <dc:format>image/svg+xml</dc:format>
        <dc:type
           rdf:resource="http://purl.org/dc/dcmitype/StillImage" />
        <dc:title></dc:title>
      </cc:Work>
    </rdf:RDF>
  </metadata>
  <g
     inkscape:label="Ebene 1"
     inkscape:groupmode="layer"
     id="layer1"
     transform="translate(1.3e-5,-1002.3622)">
    <path
       style="fill:#333333;fill-rule:evenodd;stroke:none"
       d="m 49.999987,1052.3622 -50,0 0,-50 c 24.000001,0 50,22 50,50 z"
       id="rect3293"
       inkscape:connector-curvature="0"
       sodipodi:nodetypes="cccc" />
    <path
       id="path4086"
       style="fill:url(#radialGradient4770);fill-opacity:1;stroke:none"
       d="m -1.3e-5,1002.3622 6.5e-7,4 c 25.40509935,0 46.00000035,20.5949 46.00000035,46 l 3.999999,0 c 0,-27.6142 -22.385762,-50 -50,-50"
       inkscape:connector-curvature="0"
       sodipodi:nodetypes="ccccc" />
    <path
       id="path4106"
       style="fill:url(#radialGradient4767);fill-opacity:1;stroke:none"
       d="m 35.999989,1052.3622 c 0,-19.8823 -16.11775,-36 -36.0000004,-36 l -5e-7,4 c 17.6731129,0 31.9999989,14.3269 31.9999989,32 z"
       inkscape:connector-curvature="0"
       sodipodi:nodetypes="ccccc" />
    <path
       sodipodi:nodetypes="ccccc"
       inkscape:connector-curvature="0"
       d="m -1.3e-5,1034.3622 0,4 c 8.0000011,0 14.000001,6 14.000001,14 l 4,0 c 0,-9.9411 -8.0588749,-18 -18.000001,-18"
       style="fill:url(#radialGradient4764);fill-opacity:1;stroke:none"
       id="path4129" />
    <path
       sodipodi:nodetypes="cccc"
       inkscape:connector-curvature="0"
       d="m 3.999988,1052.3622 c 0,-2.2091 -1.790861,-4 -4.000001,-4 0,1.25 0,4 0,4 z"
       style="fill:url(#radialGradient4761);fill-opacity:1;stroke:none"
       id="path4141" />
  </g>
</svg>
