<?xml version="1.0" encoding="UTF-8" standalone="no"?>
<!-- Created with Inkscape (http://www.inkscape.org/) -->

<svg
   xmlns:dc="http://purl.org/dc/elements/1.1/"
   xmlns:cc="http://creativecommons.org/ns#"
   xmlns:rdf="http://www.w3.org/1999/02/22-rdf-syntax-ns#"
   xmlns:svg="http://www.w3.org/2000/svg"
   xmlns="http://www.w3.org/2000/svg"
   xmlns:xlink="http://www.w3.org/1999/xlink"
   xmlns:sodipodi="http://sodipodi.sourceforge.net/DTD/sodipodi-0.dtd"
   xmlns:inkscape="http://www.inkscape.org/namespaces/inkscape"
   width="1000"
   height="1000"
   id="svg2"
   version="1.1"
   inkscape:version="0.48.1 r9760"
   sodipodi:docname="wall_speaker.svg">
  <defs
     id="defs4">
    <linearGradient
       id="linearGradient3843">
      <stop
         style="stop-color:#0f0f0f;stop-opacity:1;"
         offset="0"
         id="stop3845" />
      <stop
         id="stop3853"
         offset="0.33333266"
         style="stop-color:#000000;stop-opacity:1;" />
      <stop
         id="stop3851"
         offset="0.5"
         style="stop-color:#898989;stop-opacity:1;" />
      <stop
         style="stop-color:#4a4a4a;stop-opacity:1;"
         offset="1"
         id="stop3847" />
    </linearGradient>
    <linearGradient
       id="linearGradient3833">
      <stop
         style="stop-color:#a8a8a8;stop-opacity:1;"
         offset="0"
         id="stop3835" />
      <stop
         style="stop-color:#bbbbbb;stop-opacity:0;"
         offset="1"
         id="stop3837" />
    </linearGradient>
    <linearGradient
       id="linearGradient3823">
      <stop
         style="stop-color:#5a5a5a;stop-opacity:1;"
         offset="0"
         id="stop3825" />
      <stop
         style="stop-color:#939393;stop-opacity:1;"
         offset="1"
         id="stop3827" />
    </linearGradient>
    <linearGradient
       inkscape:collect="always"
       xlink:href="#linearGradient3823"
       id="linearGradient3829"
       x1="400"
       y1="920"
       x2="400"
       y2="1000"
       gradientUnits="userSpaceOnUse"
       gradientTransform="matrix(1,0,0,0.62499987,-2e-5,-522.63768)" />
    <radialGradient
       inkscape:collect="always"
       xlink:href="#linearGradient3843"
       id="radialGradient3861"
       gradientUnits="userSpaceOnUse"
       gradientTransform="matrix(1.3743694,-1.3743672,1.6666654,1.6666683,-1452.0447,-453.89229)"
       cx="79.365479"
       cy="853.78094"
       fx="79.365479"
       fy="853.78094"
       r="30" />
    <radialGradient
       inkscape:collect="always"
       xlink:href="#linearGradient3843"
       id="radialGradient3881"
       gradientUnits="userSpaceOnUse"
       gradientTransform="matrix(1.3743694,-1.3743672,1.6666654,1.6666683,-1452.0447,-453.89229)"
       cx="79.365479"
       cy="853.78094"
       fx="79.365479"
       fy="853.78094"
       r="30" />
    <radialGradient
       inkscape:collect="always"
       xlink:href="#linearGradient3843"
       id="radialGradient3883"
       gradientUnits="userSpaceOnUse"
       gradientTransform="matrix(1.3743694,-1.3743672,1.6666654,1.6666683,-1452.0447,-453.89229)"
       cx="79.365479"
       cy="853.78094"
       fx="79.365479"
       fy="853.78094"
       r="30" />
    <radialGradient
       inkscape:collect="always"
       xlink:href="#linearGradient3843"
       id="radialGradient3885"
       gradientUnits="userSpaceOnUse"
       gradientTransform="matrix(1.3743694,-1.3743672,1.6666654,1.6666683,-1452.0447,-453.89229)"
       cx="79.365479"
       cy="853.78094"
       fx="79.365479"
       fy="853.78094"
       r="30" />
    <radialGradient
       inkscape:collect="always"
       xlink:href="#linearGradient3843"
       id="radialGradient3893"
       gradientUnits="userSpaceOnUse"
       gradientTransform="matrix(1.3743694,-1.3743672,1.6666654,1.6666683,-1452.0447,-453.89229)"
       cx="79.365479"
       cy="853.78094"
       fx="79.365479"
       fy="853.78094"
       r="30" />
    <linearGradient
       inkscape:collect="always"
       xlink:href="#linearGradient3823-5"
       id="linearGradient3829-8"
       x1="400"
       y1="920"
       x2="400"
       y2="1000"
       gradientUnits="userSpaceOnUse"
       gradientTransform="matrix(1,0,0,0.62499987,-1052.3622,-574.99987)" />
    <linearGradient
       id="linearGradient3823-5">
      <stop
         style="stop-color:#5a5a5a;stop-opacity:1;"
         offset="0"
         id="stop3825-5" />
      <stop
         style="stop-color:#939393;stop-opacity:1;"
         offset="1"
         id="stop3827-0" />
    </linearGradient>
    <radialGradient
       inkscape:collect="always"
       xlink:href="#linearGradient3843-3"
       id="radialGradient3893-7"
       gradientUnits="userSpaceOnUse"
       gradientTransform="matrix(1.3743694,-1.3743672,1.6666654,1.6666683,-1452.0447,-453.89229)"
       cx="79.365479"
       cy="853.78094"
       fx="79.365479"
       fy="853.78094"
       r="30" />
    <linearGradient
       id="linearGradient3843-3">
      <stop
         style="stop-color:#0f0f0f;stop-opacity:1;"
         offset="0"
         id="stop3845-8" />
      <stop
         id="stop3853-2"
         offset="0.33333266"
         style="stop-color:#000000;stop-opacity:1;" />
      <stop
         id="stop3851-3"
         offset="0.5"
         style="stop-color:#898989;stop-opacity:1;" />
      <stop
         style="stop-color:#4a4a4a;stop-opacity:1;"
         offset="1"
         id="stop3847-0" />
    </linearGradient>
    <radialGradient
       inkscape:collect="always"
       xlink:href="#linearGradient3843-3"
       id="radialGradient3881-7"
       gradientUnits="userSpaceOnUse"
       gradientTransform="matrix(1.3743694,-1.3743672,1.6666654,1.6666683,-1452.0447,-453.89229)"
       cx="79.365479"
       cy="853.78094"
       fx="79.365479"
       fy="853.78094"
       r="30" />
    <linearGradient
       id="linearGradient4080">
      <stop
         style="stop-color:#0f0f0f;stop-opacity:1;"
         offset="0"
         id="stop4082" />
      <stop
         id="stop4084"
         offset="0.33333266"
         style="stop-color:#000000;stop-opacity:1;" />
      <stop
         id="stop4086"
         offset="0.5"
         style="stop-color:#898989;stop-opacity:1;" />
      <stop
         style="stop-color:#4a4a4a;stop-opacity:1;"
         offset="1"
         id="stop4088" />
    </linearGradient>
    <radialGradient
       inkscape:collect="always"
       xlink:href="#linearGradient3843-3"
       id="radialGradient3885-7"
       gradientUnits="userSpaceOnUse"
       gradientTransform="matrix(1.3743694,-1.3743672,1.6666654,1.6666683,-1452.0447,-453.89229)"
       cx="79.365479"
       cy="853.78094"
       fx="79.365479"
       fy="853.78094"
       r="30" />
    <linearGradient
       id="linearGradient4091">
      <stop
         style="stop-color:#0f0f0f;stop-opacity:1;"
         offset="0"
         id="stop4093" />
      <stop
         id="stop4095"
         offset="0.33333266"
         style="stop-color:#000000;stop-opacity:1;" />
      <stop
         id="stop4097"
         offset="0.5"
         style="stop-color:#898989;stop-opacity:1;" />
      <stop
         style="stop-color:#4a4a4a;stop-opacity:1;"
         offset="1"
         id="stop4099" />
    </linearGradient>
    <radialGradient
       inkscape:collect="always"
       xlink:href="#linearGradient3843-3"
       id="radialGradient3861-7"
       gradientUnits="userSpaceOnUse"
       gradientTransform="matrix(1.3743694,-1.3743672,1.6666654,1.6666683,-1452.0447,-453.89229)"
       cx="79.365479"
       cy="853.78094"
       fx="79.365479"
       fy="853.78094"
       r="30" />
    <linearGradient
       id="linearGradient4102">
      <stop
         style="stop-color:#0f0f0f;stop-opacity:1;"
         offset="0"
         id="stop4104" />
      <stop
         id="stop4106"
         offset="0.33333266"
         style="stop-color:#000000;stop-opacity:1;" />
      <stop
         id="stop4108"
         offset="0.5"
         style="stop-color:#898989;stop-opacity:1;" />
      <stop
         style="stop-color:#4a4a4a;stop-opacity:1;"
         offset="1"
         id="stop4110" />
    </linearGradient>
    <linearGradient
       y2="1000"
       x2="400"
       y1="920"
       x1="400"
       gradientTransform="matrix(1,0,0,0.62499987,-1052.3622,-574.99987)"
       gradientUnits="userSpaceOnUse"
       id="linearGradient4125"
       xlink:href="#linearGradient3823-5"
       inkscape:collect="always" />
    <linearGradient
       inkscape:collect="always"
       xlink:href="#linearGradient3823-0"
       id="linearGradient3829-4"
       x1="400"
       y1="920"
       x2="400"
       y2="1000"
       gradientUnits="userSpaceOnUse"
       gradientTransform="matrix(1,0,0,0.625,0,427.36218)" />
    <linearGradient
       id="linearGradient3823-0">
      <stop
         style="stop-color:#434343;stop-opacity:1;"
         offset="0"
         id="stop3825-9" />
      <stop
         style="stop-color:#171717;stop-opacity:1;"
         offset="1"
         id="stop3827-1" />
    </linearGradient>
    <radialGradient
       inkscape:collect="always"
       xlink:href="#linearGradient3843-6"
       id="radialGradient3861-9"
       gradientUnits="userSpaceOnUse"
       gradientTransform="matrix(1.3743694,-1.3743672,1.6666654,1.6666683,-1452.0447,-453.89229)"
       cx="79.365479"
       cy="853.78094"
       fx="79.365479"
       fy="853.78094"
       r="30" />
    <linearGradient
       id="linearGradient3843-6">
      <stop
         style="stop-color:#0f0f0f;stop-opacity:1;"
         offset="0"
         id="stop3845-2" />
      <stop
         id="stop3853-5"
         offset="0.33333266"
         style="stop-color:#000000;stop-opacity:1;" />
      <stop
         id="stop3851-4"
         offset="0.5"
         style="stop-color:#898989;stop-opacity:1;" />
      <stop
         style="stop-color:#4a4a4a;stop-opacity:1;"
         offset="1"
         id="stop3847-4" />
    </linearGradient>
    <radialGradient
       inkscape:collect="always"
       xlink:href="#linearGradient3843-6"
       id="radialGradient3885-9"
       gradientUnits="userSpaceOnUse"
       gradientTransform="matrix(1.3743694,-1.3743672,1.6666654,1.6666683,-1452.0447,-453.89229)"
       cx="79.365479"
       cy="853.78094"
       fx="79.365479"
       fy="853.78094"
       r="30" />
    <linearGradient
       id="linearGradient3423">
      <stop
         style="stop-color:#0f0f0f;stop-opacity:1;"
         offset="0"
         id="stop3425" />
      <stop
         id="stop3427"
         offset="0.33333266"
         style="stop-color:#000000;stop-opacity:1;" />
      <stop
         id="stop3429"
         offset="0.5"
         style="stop-color:#898989;stop-opacity:1;" />
      <stop
         style="stop-color:#4a4a4a;stop-opacity:1;"
         offset="1"
         id="stop3431" />
    </linearGradient>
    <radialGradient
       inkscape:collect="always"
       xlink:href="#linearGradient3843-6"
       id="radialGradient3883-9"
       gradientUnits="userSpaceOnUse"
       gradientTransform="matrix(1.3743694,-1.3743672,1.6666654,1.6666683,-1452.0447,-453.89229)"
       cx="79.365479"
       cy="853.78094"
       fx="79.365479"
       fy="853.78094"
       r="30" />
    <linearGradient
       id="linearGradient3434">
      <stop
         style="stop-color:#0f0f0f;stop-opacity:1;"
         offset="0"
         id="stop3436" />
      <stop
         id="stop3438"
         offset="0.33333266"
         style="stop-color:#000000;stop-opacity:1;" />
      <stop
         id="stop3440"
         offset="0.5"
         style="stop-color:#898989;stop-opacity:1;" />
      <stop
         style="stop-color:#4a4a4a;stop-opacity:1;"
         offset="1"
         id="stop3442" />
    </linearGradient>
    <radialGradient
       inkscape:collect="always"
       xlink:href="#linearGradient3843-6"
       id="radialGradient3881-3"
       gradientUnits="userSpaceOnUse"
       gradientTransform="matrix(1.3743694,-1.3743672,1.6666654,1.6666683,-1452.0447,-453.89229)"
       cx="79.365479"
       cy="853.78094"
       fx="79.365479"
       fy="853.78094"
       r="30" />
    <linearGradient
       id="linearGradient3445">
      <stop
         style="stop-color:#0f0f0f;stop-opacity:1;"
         offset="0"
         id="stop3447" />
      <stop
         id="stop3449"
         offset="0.33333266"
         style="stop-color:#000000;stop-opacity:1;" />
      <stop
         id="stop3451"
         offset="0.5"
         style="stop-color:#898989;stop-opacity:1;" />
      <stop
         style="stop-color:#4a4a4a;stop-opacity:1;"
         offset="1"
         id="stop3453" />
    </linearGradient>
    <radialGradient
       inkscape:collect="always"
       xlink:href="#linearGradient3843-6"
       id="radialGradient3893-6"
       gradientUnits="userSpaceOnUse"
       gradientTransform="matrix(1.3743694,-1.3743672,1.6666654,1.6666683,-1452.0447,-453.89229)"
       cx="79.365479"
       cy="853.78094"
       fx="79.365479"
       fy="853.78094"
       r="30" />
    <linearGradient
       id="linearGradient3456">
      <stop
         style="stop-color:#0f0f0f;stop-opacity:1;"
         offset="0"
         id="stop3458" />
      <stop
         id="stop3460"
         offset="0.33333266"
         style="stop-color:#000000;stop-opacity:1;" />
      <stop
         id="stop3462"
         offset="0.5"
         style="stop-color:#898989;stop-opacity:1;" />
      <stop
         style="stop-color:#4a4a4a;stop-opacity:1;"
         offset="1"
         id="stop3464" />
    </linearGradient>
    <linearGradient
       y2="1000"
       x2="400"
       y1="920"
       x1="400"
       gradientTransform="matrix(0,-1,0.62499987,0,375.00015,1052.3622)"
       gradientUnits="userSpaceOnUse"
       id="linearGradient4114"
       xlink:href="#linearGradient3823-6"
       inkscape:collect="always" />
    <linearGradient
       id="linearGradient3823-6">
      <stop
         style="stop-color:#434343;stop-opacity:1;"
         offset="0"
         id="stop3825-0" />
      <stop
         style="stop-color:#171717;stop-opacity:1;"
         offset="1"
         id="stop3827-0-0" />
    </linearGradient>
    <radialGradient
       inkscape:collect="always"
       xlink:href="#linearGradient3843-0"
       id="radialGradient3861-4"
       gradientUnits="userSpaceOnUse"
       gradientTransform="matrix(1.3743694,-1.3743672,1.6666654,1.6666683,-1452.0447,-453.89229)"
       cx="79.365479"
       cy="853.78094"
       fx="79.365479"
       fy="853.78094"
       r="30" />
    <linearGradient
       id="linearGradient3843-0">
      <stop
         style="stop-color:#0f0f0f;stop-opacity:1;"
         offset="0"
         id="stop3845-9" />
      <stop
         id="stop3853-0"
         offset="0.33333266"
         style="stop-color:#000000;stop-opacity:1;" />
      <stop
         id="stop3851-5"
         offset="0.5"
         style="stop-color:#898989;stop-opacity:1;" />
      <stop
         style="stop-color:#4a4a4a;stop-opacity:1;"
         offset="1"
         id="stop3847-8" />
    </linearGradient>
    <radialGradient
       inkscape:collect="always"
       xlink:href="#linearGradient3843-0"
       id="radialGradient3885-0"
       gradientUnits="userSpaceOnUse"
       gradientTransform="matrix(1.3743694,-1.3743672,1.6666654,1.6666683,-1452.0447,-453.89229)"
       cx="79.365479"
       cy="853.78094"
       fx="79.365479"
       fy="853.78094"
       r="30" />
    <linearGradient
       id="linearGradient3477">
      <stop
         style="stop-color:#0f0f0f;stop-opacity:1;"
         offset="0"
         id="stop3479" />
      <stop
         id="stop3481"
         offset="0.33333266"
         style="stop-color:#000000;stop-opacity:1;" />
      <stop
         id="stop3483"
         offset="0.5"
         style="stop-color:#898989;stop-opacity:1;" />
      <stop
         style="stop-color:#4a4a4a;stop-opacity:1;"
         offset="1"
         id="stop3485" />
    </linearGradient>
    <radialGradient
       inkscape:collect="always"
       xlink:href="#linearGradient3843-0"
       id="radialGradient3883-7"
       gradientUnits="userSpaceOnUse"
       gradientTransform="matrix(1.3743694,-1.3743672,1.6666654,1.6666683,-1452.0447,-453.89229)"
       cx="79.365479"
       cy="853.78094"
       fx="79.365479"
       fy="853.78094"
       r="30" />
    <linearGradient
       id="linearGradient3488">
      <stop
         style="stop-color:#0f0f0f;stop-opacity:1;"
         offset="0"
         id="stop3490" />
      <stop
         id="stop3492"
         offset="0.33333266"
         style="stop-color:#000000;stop-opacity:1;" />
      <stop
         id="stop3494"
         offset="0.5"
         style="stop-color:#898989;stop-opacity:1;" />
      <stop
         style="stop-color:#4a4a4a;stop-opacity:1;"
         offset="1"
         id="stop3496" />
    </linearGradient>
    <radialGradient
       inkscape:collect="always"
       xlink:href="#linearGradient3843-0"
       id="radialGradient3881-6"
       gradientUnits="userSpaceOnUse"
       gradientTransform="matrix(1.3743694,-1.3743672,1.6666654,1.6666683,-1452.0447,-453.89229)"
       cx="79.365479"
       cy="853.78094"
       fx="79.365479"
       fy="853.78094"
       r="30" />
    <linearGradient
       id="linearGradient3499">
      <stop
         style="stop-color:#0f0f0f;stop-opacity:1;"
         offset="0"
         id="stop3501" />
      <stop
         id="stop3503"
         offset="0.33333266"
         style="stop-color:#000000;stop-opacity:1;" />
      <stop
         id="stop3505"
         offset="0.5"
         style="stop-color:#898989;stop-opacity:1;" />
      <stop
         style="stop-color:#4a4a4a;stop-opacity:1;"
         offset="1"
         id="stop3507" />
    </linearGradient>
    <linearGradient
       y2="1000"
       x2="400"
       y1="920"
       x1="400"
       gradientTransform="matrix(1,0,0,0.625,10e-6,427.36218)"
       gradientUnits="userSpaceOnUse"
       id="linearGradient3538"
       xlink:href="#linearGradient3823-0"
       inkscape:collect="always" />
  </defs>
  <sodipodi:namedview
     id="base"
     pagecolor="#ffffff"
     bordercolor="#666666"
     borderopacity="1.0"
     inkscape:pageopacity="0.0"
     inkscape:pageshadow="2"
     inkscape:zoom="0.35"
     inkscape:cx="318.95554"
     inkscape:cy="411.15084"
     inkscape:document-units="px"
     inkscape:current-layer="layer1"
     showgrid="true"
     inkscape:window-width="1280"
     inkscape:window-height="743"
     inkscape:window-x="0"
     inkscape:window-y="26"
     inkscape:window-maximized="1">
    <inkscape:grid
       type="xygrid"
       id="grid3004"
       empspacing="5"
       visible="true"
       enabled="true"
       snapvisiblegridlinesonly="true" />
  </sodipodi:namedview>
  <metadata
     id="metadata7">
    <rdf:RDF>
      <cc:Work
         rdf:about="">
        <dc:format>image/svg+xml</dc:format>
        <dc:type
           rdf:resource="http://purl.org/dc/dcmitype/StillImage" />
        <dc:title></dc:title>
      </cc:Work>
    </rdf:RDF>
  </metadata>
  <g
     inkscape:label="Ebene 1"
     inkscape:groupmode="layer"
     id="layer1"
     transform="translate(0,-52.362183)">
    <rect
       style="fill:#333333;fill-rule:evenodd;stroke:none"
       id="rect3006"
       width="1000"
       height="1000"
       x="0"
       y="52.362183" />
    <path
       style="fill:url(#linearGradient3829);fill-opacity:1;stroke:none"
       d="m 0,52.362183 1000,0 -50,49.999997 -900,0 z"
       id="rect3053"
       inkscape:connector-curvature="0"
       sodipodi:nodetypes="ccccc" />
    <g
       id="g3869"
       transform="translate(30,-750)">
      <path
         transform="translate(0,52.362183)"
         d="m 100,850 c 0,16.56854 -13.431458,30 -30,30 -16.568542,0 -30,-13.43146 -30,-30 0,-16.56854 13.431458,-30 30,-30 16.568542,0 30,13.43146 30,30 z"
         sodipodi:ry="30"
         sodipodi:rx="30"
         sodipodi:cy="850"
         sodipodi:cx="70"
         id="path3871"
         style="fill:url(#radialGradient3883);fill-opacity:1;stroke:none"
         sodipodi:type="arc" />
      <path
         transform="translate(0,52.362183)"
         d="m 90,850 c 0,11.04569 -8.954305,20 -20,20 -11.045695,0 -20,-8.95431 -20,-20 0,-11.04569 8.954305,-20 20,-20 11.045695,0 20,8.95431 20,20 z"
         sodipodi:ry="20"
         sodipodi:rx="20"
         sodipodi:cy="850"
         sodipodi:cx="70"
         id="path3873"
         style="fill:#606060;fill-opacity:1;stroke:none"
         sodipodi:type="arc" />
    </g>
    <g
       id="g3887"
       transform="translate(830,-750)">
      <path
         transform="translate(0,52.362183)"
         d="m 100,850 c 0,16.56854 -13.431458,30 -30,30 -16.568542,0 -30,-13.43146 -30,-30 0,-16.56854 13.431458,-30 30,-30 16.568542,0 30,13.43146 30,30 z"
         sodipodi:ry="30"
         sodipodi:rx="30"
         sodipodi:cy="850"
         sodipodi:cx="70"
         id="path3889"
         style="fill:url(#radialGradient3893);fill-opacity:1;stroke:none"
         sodipodi:type="arc" />
      <path
         transform="translate(0,52.362183)"
         d="m 90,850 c 0,11.04569 -8.954305,20 -20,20 -11.045695,0 -20,-8.95431 -20,-20 0,-11.04569 8.954305,-20 20,-20 11.045695,0 20,8.95431 20,20 z"
         sodipodi:ry="20"
         sodipodi:rx="20"
         sodipodi:cy="850"
         sodipodi:cx="70"
         id="path3891"
         style="fill:#606060;fill-opacity:1;stroke:none"
         sodipodi:type="arc" />
    </g>
    <path
       style="fill:url(#linearGradient4125);fill-opacity:1;stroke:none"
       d="M -1052.3622,0 -52.362183,0 -102.36218,50 -1002.3622,50 z"
       id="rect3053-6"
       inkscape:connector-curvature="0"
       sodipodi:nodetypes="ccccc"
       transform="matrix(0,-1,1,0,0,0)" />
    <g
       id="g3887-0"
       transform="translate(30,50)">
      <path
         transform="translate(0,52.362183)"
         d="m 100,850 c 0,16.56854 -13.431458,30 -30,30 -16.568542,0 -30,-13.43146 -30,-30 0,-16.56854 13.431458,-30 30,-30 16.568542,0 30,13.43146 30,30 z"
         sodipodi:ry="30"
         sodipodi:rx="30"
         sodipodi:cy="850"
         sodipodi:cx="70"
         id="path3889-3"
         style="fill:url(#radialGradient3893-7);fill-opacity:1;stroke:none"
         sodipodi:type="arc" />
      <path
         transform="translate(0,52.362183)"
         d="m 90,850 c 0,11.04569 -8.954305,20 -20,20 -11.045695,0 -20,-8.95431 -20,-20 0,-11.04569 8.954305,-20 20,-20 11.045695,0 20,8.95431 20,20 z"
         sodipodi:ry="20"
         sodipodi:rx="20"
         sodipodi:cy="850"
         sodipodi:cx="70"
         id="path3891-7"
         style="fill:#606060;fill-opacity:1;stroke:none"
         sodipodi:type="arc" />
    </g>
    <path
       style="fill:url(#linearGradient3538);fill-opacity:1;stroke:none"
       d="m 50,1002.3622 900.00001,0 49.99999,50 -999.99999,0 z"
       id="rect3053-5"
       inkscape:connector-curvature="0"
       sodipodi:nodetypes="ccccc" />
    <g
       id="g3887-6"
       transform="translate(830.00001,50)">
      <path
         transform="translate(0,52.362183)"
         d="m 100,850 a 30,30 0 1 1 -60,0 30,30 0 1 1 60,0 z"
         sodipodi:ry="30"
         sodipodi:rx="30"
         sodipodi:cy="850"
         sodipodi:cx="70"
         id="path3889-9"
         style="fill:url(#radialGradient3893-6);fill-opacity:1;stroke:none"
         sodipodi:type="arc" />
      <path
         transform="translate(0,52.362183)"
         d="m 90,850 a 20,20 0 1 1 -40,0 20,20 0 1 1 40,0 z"
         sodipodi:ry="20"
         sodipodi:rx="20"
         sodipodi:cy="850"
         sodipodi:cx="70"
         id="path3891-4"
         style="fill:#606060;fill-opacity:1;stroke:none"
         sodipodi:type="arc" />
    </g>
    <path
       style="fill:url(#linearGradient4114);fill-opacity:1;stroke:none"
       d="M 950.00001,1002.3622 950,102.36218 l 50,-49.999997 0,1000.000017 z"
       id="rect3053-6-2"
       inkscape:connector-curvature="0"
       sodipodi:nodetypes="ccccc" />
    <path
       style="fill:#000000;fill-opacity:1;stroke:none;stroke-width:1;stroke-opacity:1"
       d="M 250.71875 160 C 233.84245 172.16948 217.90345 185.55206 203.09375 200 L 796.90625 200 C 782.09655 185.55206 766.15755 172.16948 749.28125 160 L 250.71875 160 z "
       transform="translate(0,52.362183)"
       id="rect3731" />
    <path
       style="fill:#000000;fill-opacity:1;stroke:none;stroke-width:1;stroke-opacity:1"
       d="M 167.09375 240 C 157.03117 252.75116 147.71353 266.12339 139.21875 280 L 860.78125 280 C 852.28647 266.12339 842.96883 252.75116 832.90625 240 L 167.09375 240 z "
       transform="translate(0,52.362183)"
       id="rect3733" />
    <path
       style="fill:#000000;fill-opacity:1;stroke:none;stroke-width:1;stroke-opacity:1"
       d="M 117.6875 320 C 111.61795 332.9855 106.2407 346.33064 101.5625 360 L 898.4375 360 C 893.7593 346.33064 888.38205 332.9855 882.3125 320 L 117.6875 320 z "
       transform="translate(0,52.362183)"
       id="rect3735" />
    <path
       style="fill:#000000;fill-opacity:1;stroke:none;stroke-width:1;stroke-opacity:1"
       d="M 90.15625 400 C 87.148585 413.10891 84.781209 426.45001 83.09375 440 L 916.90625 440 C 915.21879 426.45001 912.85141 413.10891 909.84375 400 L 90.15625 400 z "
       transform="translate(0,52.362183)"
       id="rect3737" />
    <path
       style="fill:#000000;fill-opacity:1;stroke:none;stroke-width:1;stroke-opacity:1"
       d="M 80.125 480 C 80.043675 483.32015 80 486.66075 80 490 C 80 500.09169 80.359518 510.09108 81.09375 520 L 918.90625 520 C 919.64048 510.09108 920 500.09169 920 490 C 920 486.66075 919.95633 483.32015 919.875 480 L 80.125 480 z "
       transform="translate(0,52.362183)"
       id="rect3739" />
    <path
       style="fill:#000000;fill-opacity:1;stroke:none;stroke-width:1;stroke-opacity:1"
       d="M 86.09375 560 C 88.485411 573.57165 91.589834 586.9196 95.3125 600 L 904.6875 600 C 908.41017 586.9196 911.51459 573.57165 913.90625 560 L 86.09375 560 z "
       transform="translate(0,52.362183)"
       id="rect4509" />
    <path
       style="fill:#000000;fill-opacity:1;stroke:none;stroke-width:1;stroke-opacity:1"
       d="M 109 640 C 114.52341 653.70967 120.77311 667.05796 127.71875 680 L 872.28125 680 C 879.22689 667.05796 885.47659 653.70967 891 640 L 109 640 z "
       transform="translate(0,52.362183)"
       id="rect4511" />
    <path
       style="fill:#000000;fill-opacity:1;stroke:none;stroke-width:1;stroke-opacity:1"
       d="M 152.25 720 C 161.9733 733.98272 172.56515 747.32464 183.9375 760 L 816.0625 760 C 827.43485 747.32464 838.0267 733.98272 847.75 720 L 152.25 720 z "
       transform="translate(0,52.362183)"
       id="rect4513" />
    <path
       style="fill:#000000;fill-opacity:1;stroke:none;stroke-width:1;stroke-opacity:1"
       d="M 225.125 800 C 242.59336 814.77451 261.31254 828.16717 281.125 840 L 718.875 840 C 738.68746 828.16717 757.40664 814.77451 774.875 800 L 225.125 800 z "
       transform="translate(0,52.362183)"
       id="rect4515" />
  </g>
</svg>
