<?xml version="1.0" encoding="UTF-8" standalone="no"?>
<!-- Created with Inkscape (http://www.inkscape.org/) -->

<svg
   xmlns:dc="http://purl.org/dc/elements/1.1/"
   xmlns:cc="http://creativecommons.org/ns#"
   xmlns:rdf="http://www.w3.org/1999/02/22-rdf-syntax-ns#"
   xmlns:svg="http://www.w3.org/2000/svg"
   xmlns="http://www.w3.org/2000/svg"
   xmlns:xlink="http://www.w3.org/1999/xlink"
   xmlns:sodipodi="http://sodipodi.sourceforge.net/DTD/sodipodi-0.dtd"
   xmlns:inkscape="http://www.inkscape.org/namespaces/inkscape"
   width="50"
   height="50.000019"
   id="svg2"
   version="1.1"
   inkscape:version="0.91 r13725"
   sodipodi:docname="alert_platform_bottom.svg"
   inkscape:export-filename="/home/silwol/Projects/freenukum-ng/graphics/solid/alert_platform_left.png"
   inkscape:export-xdpi="9"
   inkscape:export-ydpi="9">
  <defs
     id="defs4">
    <linearGradient
       id="linearGradient4266">
      <stop
         id="stop4268"
         offset="0"
         style="stop-color:#808080;stop-opacity:0;" />
      <stop
         style="stop-color:#808080;stop-opacity:1;"
         offset="0.05"
         id="stop4270" />
      <stop
         id="stop4272"
         offset="0.94999999"
         style="stop-color:#808080;stop-opacity:1;" />
      <stop
         id="stop4274"
         offset="1"
         style="stop-color:#808080;stop-opacity:0;" />
    </linearGradient>
    <linearGradient
       id="linearGradient3796">
      <stop
         style="stop-color:#808080;stop-opacity:0;"
         offset="0"
         id="stop3798" />
      <stop
         id="stop3804"
         offset="0.05"
         style="stop-color:#808080;stop-opacity:1;" />
      <stop
         style="stop-color:#808080;stop-opacity:1;"
         offset="0.94999999"
         id="stop3806" />
      <stop
         style="stop-color:#808080;stop-opacity:0;"
         offset="1"
         id="stop3800" />
    </linearGradient>
    <linearGradient
       id="linearGradient3765">
      <stop
         style="stop-color:#d40000;stop-opacity:1;"
         offset="0"
         id="stop3767" />
      <stop
         style="stop-color:#ff0000;stop-opacity:0.54379565;"
         offset="1"
         id="stop3769" />
    </linearGradient>
    <linearGradient
       inkscape:collect="always"
       xlink:href="#linearGradient3796"
       id="linearGradient3802"
       x1="500"
       y1="52.362183"
       x2="660"
       y2="172.36218"
       gradientUnits="userSpaceOnUse" />
    <linearGradient
       inkscape:collect="always"
       xlink:href="#linearGradient3796"
       id="linearGradient3814"
       gradientUnits="userSpaceOnUse"
       x1="500"
       y1="52.362183"
       x2="625"
       y2="177.36218"
       gradientTransform="matrix(0.05,0,0,0.05,-25.000007,999.74409)" />
    <linearGradient
       inkscape:collect="always"
       xlink:href="#linearGradient3796"
       id="linearGradient3816"
       gradientUnits="userSpaceOnUse"
       x1="500"
       y1="52.362183"
       x2="660"
       y2="172.36218"
       gradientTransform="translate(500,0)" />
    <linearGradient
       inkscape:collect="always"
       xlink:href="#linearGradient3796"
       id="linearGradient3818"
       gradientUnits="userSpaceOnUse"
       x1="500"
       y1="52.362183"
       x2="660"
       y2="172.36218"
       gradientTransform="translate(1000,-1.7e-5)" />
    <linearGradient
       inkscape:collect="always"
       xlink:href="#linearGradient3796"
       id="linearGradient4260"
       gradientUnits="userSpaceOnUse"
       x1="500"
       y1="52.362183"
       x2="625"
       y2="177.36218"
       gradientTransform="matrix(0.05,0,0,0.05,-7.6e-6,999.74409)" />
    <linearGradient
       inkscape:collect="always"
       xlink:href="#linearGradient3796"
       id="linearGradient4262"
       gradientUnits="userSpaceOnUse"
       gradientTransform="matrix(0.05,0,0,0.05,24.999992,999.74409)"
       x1="500"
       y1="52.362183"
       x2="625"
       y2="177.36218" />
    <linearGradient
       inkscape:collect="always"
       xlink:href="#linearGradient4266"
       id="linearGradient4264"
       gradientUnits="userSpaceOnUse"
       gradientTransform="matrix(0.05,0,0,0.05,49.999992,999.74409)"
       x1="-374.99985"
       y1="927.36194"
       x2="-250"
       y2="1052.3622" />
    <linearGradient
       inkscape:collect="always"
       xlink:href="#linearGradient3765"
       id="linearGradient3256"
       gradientUnits="userSpaceOnUse"
       x1="580"
       y1="0"
       x2="580"
       y2="30" />
    <linearGradient
       inkscape:collect="always"
       xlink:href="#linearGradient3765"
       id="linearGradient3258"
       gradientUnits="userSpaceOnUse"
       gradientTransform="matrix(0,-1,1,0,0,1052.3622)"
       x1="580"
       y1="0"
       x2="580"
       y2="30" />
    <linearGradient
       inkscape:collect="always"
       xlink:href="#linearGradient3765"
       id="linearGradient3260"
       gradientUnits="userSpaceOnUse"
       gradientTransform="matrix(-1,0,0,-1,1000,1052.3622)"
       x1="580"
       y1="0"
       x2="580"
       y2="30" />
  </defs>
  <sodipodi:namedview
     id="base"
     pagecolor="#ffffff"
     bordercolor="#666666"
     borderopacity="1.0"
     inkscape:pageopacity="0.0"
     inkscape:pageshadow="2"
     inkscape:zoom="0.175"
     inkscape:cx="-593.16557"
     inkscape:cy="334.55764"
     inkscape:document-units="px"
     inkscape:current-layer="layer1"
     showgrid="true"
     showguides="true"
     inkscape:guide-bbox="true"
     inkscape:window-width="1600"
     inkscape:window-height="842"
     inkscape:window-x="0"
     inkscape:window-y="0"
     inkscape:window-maximized="1"
     fit-margin-top="0"
     fit-margin-left="0"
     fit-margin-right="0"
     fit-margin-bottom="0">
    <inkscape:grid
       type="xygrid"
       id="grid2985"
       empspacing="5"
       visible="true"
       enabled="true"
       snapvisiblegridlinesonly="true"
       originx="7.95e-06"
       originy="1.7e-05" />
    <sodipodi:guide
       orientation="1,0"
       position="1000,900.00002"
       id="guide3757" />
    <sodipodi:guide
       orientation="1,0"
       position="7.95e-06,640.00002"
       id="guide3759" />
    <sodipodi:guide
       orientation="0,1"
       position="240.00001,1000"
       id="guide3761" />
    <sodipodi:guide
       orientation="0,1"
       position="160.00001,1.7e-05"
       id="guide3763" />
    <sodipodi:guide
       orientation="1,0"
       position="270.00001,110.00002"
       id="guide3767" />
    <sodipodi:guide
       orientation="1,0"
       position="500.00001,920.00002"
       id="guide3769" />
    <sodipodi:guide
       orientation="1,0"
       position="750.00001,1040"
       id="guide3771" />
  </sodipodi:namedview>
  <metadata
     id="metadata7">
    <rdf:RDF>
      <cc:Work
         rdf:about="">
        <dc:format>image/svg+xml</dc:format>
        <dc:type
           rdf:resource="http://purl.org/dc/dcmitype/StillImage" />
        <dc:title></dc:title>
      </cc:Work>
    </rdf:RDF>
  </metadata>
  <g
     inkscape:label="Ebene 1"
     inkscape:groupmode="layer"
     id="layer1"
     transform="translate(7.95e-6,-1002.3622)">
    <rect
       style="fill:#ffec00;fill-opacity:1;fill-rule:nonzero;stroke:none"
       id="rect2987"
       width="50"
       height="50"
       x="-7.6000001e-06"
       y="1002.3622" />
    <path
       style="fill:url(#linearGradient3814);fill-opacity:1;stroke:none;stroke-opacity:1"
       d="m -7.6e-6,1002.3622 12.4999996,0 -12.4999996,12.5 z"
       id="path3812"
       inkscape:connector-curvature="0"
       sodipodi:nodetypes="cccc" />
    <path
       sodipodi:nodetypes="ccccc"
       inkscape:connector-curvature="0"
       id="path4254"
       d="m 24.999992,1052.3622 25,-25 0,12.5 -12.5,12.5 z"
       style="fill:url(#linearGradient4264);fill-opacity:1;stroke:none" />
    <path
       style="fill:url(#linearGradient4262);fill-opacity:1;stroke:none"
       d="m -7.6e-6,1052.3622 49.9999996,-50 0,12.5 -37.5,37.5 z"
       id="path4256"
       inkscape:connector-curvature="0"
       sodipodi:nodetypes="ccccc" />
    <path
       sodipodi:nodetypes="ccccc"
       inkscape:connector-curvature="0"
       id="path4258"
       d="m -7.6e-6,1027.3622 24.9999996,-25 12.5,0 -37.4999996,37.5 z"
       style="fill:url(#linearGradient4260);fill-opacity:1;stroke:none" />
    <g
       id="g3251"
       transform="matrix(0,-0.05,0.05,0,-2.6181171,1052.3622)">
      <path
         transform="translate(0,52.362183)"
         sodipodi:nodetypes="ccccc"
         inkscape:connector-curvature="0"
         id="path2995"
         d="m 0,0 50,50 950,0 0,-50 z"
         style="fill:url(#linearGradient3256);fill-opacity:1;stroke:none" />
      <path
         sodipodi:nodetypes="ccccc"
         style="fill:url(#linearGradient3258);fill-opacity:1;stroke:none"
         d="m 0,1052.3622 50,-50 L 50,102.36218 0,52.362183 Z"
         id="path3774"
         inkscape:connector-curvature="0" />
      <path
         sodipodi:nodetypes="ccccc"
         style="fill:url(#linearGradient3260);fill-opacity:1;stroke:none"
         d="m 1000,1052.3622 0,-50 -950,0 -50,50 z"
         id="path3778"
         inkscape:connector-curvature="0" />
    </g>
  </g>
</svg>
