<?xml version="1.0" encoding="UTF-8" standalone="no"?>
<!-- Created with Inkscape (http://www.inkscape.org/) -->

<svg
   xmlns:osb="http://www.openswatchbook.org/uri/2009/osb"
   xmlns:dc="http://purl.org/dc/elements/1.1/"
   xmlns:cc="http://creativecommons.org/ns#"
   xmlns:rdf="http://www.w3.org/1999/02/22-rdf-syntax-ns#"
   xmlns:svg="http://www.w3.org/2000/svg"
   xmlns="http://www.w3.org/2000/svg"
   xmlns:xlink="http://www.w3.org/1999/xlink"
   xmlns:sodipodi="http://sodipodi.sourceforge.net/DTD/sodipodi-0.dtd"
   xmlns:inkscape="http://www.inkscape.org/namespaces/inkscape"
   width="50"
   height="50.00005"
   id="svg6028"
   version="1.1"
   inkscape:version="0.91 r13725"
   sodipodi:docname="brick_top_right.svg"
   inkscape:export-filename="/home/silwol/Projects/Freenukum/graphics/wall_top.png"
   inkscape:export-xdpi="9"
   inkscape:export-ydpi="9">
  <defs
     id="defs6030">
    <linearGradient
       id="linearGradient5444">
      <stop
         id="stop5446"
         offset="0"
         style="stop-color:#c72f1e;stop-opacity:1;" />
      <stop
         id="stop5448"
         offset="1"
         style="stop-color:#52130d;stop-opacity:1;" />
    </linearGradient>
    <linearGradient
       id="linearGradient5249">
      <stop
         style="stop-color:#c72f1e;stop-opacity:1;"
         offset="0"
         id="stop5251" />
      <stop
         style="stop-color:#e35647;stop-opacity:1;"
         offset="1"
         id="stop5253" />
    </linearGradient>
    <linearGradient
       osb:paint="gradient"
       id="linearGradient3757">
      <stop
         id="stop3759"
         offset="0"
         style="stop-color:#4d4d4d;stop-opacity:1;" />
      <stop
         id="stop3761"
         offset="1"
         style="stop-color:#4d4d4d;stop-opacity:0;" />
    </linearGradient>
    <linearGradient
       id="linearGradient4020">
      <stop
         id="stop4022"
         offset="0"
         style="stop-color:#666666;stop-opacity:1;" />
      <stop
         id="stop4024"
         offset="1"
         style="stop-color:#4a4a4a;stop-opacity:1;" />
    </linearGradient>
    <linearGradient
       id="linearGradient4038">
      <stop
         id="stop4040"
         offset="0"
         style="stop-color:#838383;stop-opacity:1;" />
      <stop
         id="stop4042"
         offset="1"
         style="stop-color:#c6c6c6;stop-opacity:1;" />
    </linearGradient>
    <linearGradient
       gradientUnits="userSpaceOnUse"
       y2="60"
       x2="540"
       y1="0"
       x1="540"
       id="linearGradient4044-5"
       xlink:href="#linearGradient4038-0"
       inkscape:collect="always" />
    <linearGradient
       id="linearGradient4038-0">
      <stop
         id="stop4040-2"
         offset="0"
         style="stop-color:#f7370f;stop-opacity:1;" />
      <stop
         id="stop4042-3"
         offset="1"
         style="stop-color:#b50501;stop-opacity:1;" />
    </linearGradient>
    <linearGradient
       gradientUnits="userSpaceOnUse"
       y2="552.36218"
       x2="880"
       y1="552.36218"
       x1="840"
       id="linearGradient4080-2"
       xlink:href="#linearGradient4020-8"
       inkscape:collect="always" />
    <linearGradient
       id="linearGradient4020-8">
      <stop
         id="stop4022-1"
         offset="0"
         style="stop-color:#a20000;stop-opacity:1;" />
      <stop
         id="stop4024-7"
         offset="1"
         style="stop-color:#5a0101;stop-opacity:1;" />
    </linearGradient>
    <linearGradient
       inkscape:collect="always"
       xlink:href="#linearGradient4020"
       id="linearGradient6185"
       gradientUnits="userSpaceOnUse"
       x1="520"
       y1="892.36218"
       x2="520"
       y2="932.36218"
       gradientTransform="translate(-240,1160)" />
    <linearGradient
       inkscape:collect="always"
       xlink:href="#linearGradient4038"
       id="linearGradient6188"
       gradientUnits="userSpaceOnUse"
       x1="520"
       y1="172.36218"
       x2="520"
       y2="212.36218"
       gradientTransform="translate(-240,1160)" />
    <linearGradient
       inkscape:collect="always"
       xlink:href="#linearGradient4038"
       id="linearGradient6191"
       gradientUnits="userSpaceOnUse"
       x1="540"
       y1="0"
       x2="540"
       y2="60"
       gradientTransform="translate(-240,1212.3622)" />
    <linearGradient
       inkscape:collect="always"
       xlink:href="#linearGradient4020"
       id="linearGradient6194"
       gradientUnits="userSpaceOnUse"
       x1="520"
       y1="940"
       x2="520"
       y2="1000"
       gradientTransform="translate(-240,1212.3622)" />
    <linearGradient
       inkscape:collect="always"
       xlink:href="#linearGradient4020"
       id="linearGradient6197"
       gradientUnits="userSpaceOnUse"
       x1="840"
       y1="552.36218"
       x2="880"
       y2="552.36218"
       gradientTransform="translate(-240,1160)" />
    <linearGradient
       inkscape:collect="always"
       xlink:href="#linearGradient4038"
       id="linearGradient6200"
       gradientUnits="userSpaceOnUse"
       x1="120"
       y1="552.36218"
       x2="160"
       y2="552.36218"
       gradientTransform="translate(-240,1160)" />
    <linearGradient
       inkscape:collect="always"
       xlink:href="#linearGradient4020"
       id="linearGradient6203"
       gradientUnits="userSpaceOnUse"
       x1="940"
       y1="500"
       x2="1000"
       y2="500"
       gradientTransform="translate(-240,1212.3622)" />
    <linearGradient
       inkscape:collect="always"
       xlink:href="#linearGradient4038"
       id="linearGradient6206"
       gradientUnits="userSpaceOnUse"
       x1="0"
       y1="480"
       x2="60"
       y2="480"
       gradientTransform="translate(-240,1212.3622)" />
    <linearGradient
       inkscape:collect="always"
       xlink:href="#linearGradient4020-8"
       id="linearGradient4321"
       gradientUnits="userSpaceOnUse"
       gradientTransform="translate(-130,-119.99998)"
       x1="850"
       y1="292.36218"
       x2="880"
       y2="292.36218" />
    <linearGradient
       inkscape:collect="always"
       xlink:href="#linearGradient4038-0"
       id="linearGradient4323"
       gradientUnits="userSpaceOnUse"
       gradientTransform="translate(130,-120)"
       x1="120"
       y1="292.36221"
       x2="140"
       y2="292.36221" />
    <linearGradient
       inkscape:collect="always"
       xlink:href="#linearGradient4038-0"
       id="linearGradient4325"
       gradientUnits="userSpaceOnUse"
       gradientTransform="translate(500,52.3622)"
       x1="180"
       y1="1.4901161e-05"
       x2="180"
       y2="30" />
    <linearGradient
       inkscape:collect="always"
       xlink:href="#linearGradient4020-8"
       id="linearGradient4327"
       gradientUnits="userSpaceOnUse"
       gradientTransform="translate(-70,-600)"
       x1="520"
       y1="882.36218"
       x2="520"
       y2="912.36218" />
    <linearGradient
       inkscape:collect="always"
       xlink:href="#linearGradient4020-8"
       id="linearGradient4329"
       gradientUnits="userSpaceOnUse"
       gradientTransform="translate(-130,-119.99998)"
       x1="850"
       y1="292.36218"
       x2="880"
       y2="292.36218" />
    <linearGradient
       inkscape:collect="always"
       xlink:href="#linearGradient4038-0"
       id="linearGradient4331"
       gradientUnits="userSpaceOnUse"
       gradientTransform="translate(130,-120)"
       x1="120"
       y1="292.36221"
       x2="140"
       y2="292.36221" />
    <linearGradient
       inkscape:collect="always"
       xlink:href="#linearGradient4038-0"
       id="linearGradient4333"
       gradientUnits="userSpaceOnUse"
       gradientTransform="translate(500,52.3622)"
       x1="180"
       y1="1.4901161e-05"
       x2="180"
       y2="30" />
    <linearGradient
       inkscape:collect="always"
       xlink:href="#linearGradient4020-8"
       id="linearGradient4335"
       gradientUnits="userSpaceOnUse"
       gradientTransform="translate(-70,-600)"
       x1="520"
       y1="882.36218"
       x2="520"
       y2="912.36218" />
    <linearGradient
       inkscape:collect="always"
       xlink:href="#linearGradient4020-8"
       id="linearGradient4337"
       gradientUnits="userSpaceOnUse"
       gradientTransform="translate(-130,-119.99998)"
       x1="850"
       y1="292.36218"
       x2="880"
       y2="292.36218" />
    <linearGradient
       inkscape:collect="always"
       xlink:href="#linearGradient4038-0"
       id="linearGradient4339"
       gradientUnits="userSpaceOnUse"
       gradientTransform="translate(130,-120)"
       x1="120"
       y1="292.36221"
       x2="140"
       y2="292.36221" />
    <linearGradient
       inkscape:collect="always"
       xlink:href="#linearGradient4038-0"
       id="linearGradient4341"
       gradientUnits="userSpaceOnUse"
       gradientTransform="translate(500,52.3622)"
       x1="180"
       y1="1.4901161e-05"
       x2="180"
       y2="30" />
    <linearGradient
       inkscape:collect="always"
       xlink:href="#linearGradient4020-8"
       id="linearGradient4343"
       gradientUnits="userSpaceOnUse"
       gradientTransform="translate(-70,-600)"
       x1="520"
       y1="882.36218"
       x2="520"
       y2="912.36218" />
    <linearGradient
       inkscape:collect="always"
       xlink:href="#linearGradient4038-0-4"
       id="linearGradient6219-4"
       gradientUnits="userSpaceOnUse"
       gradientTransform="translate(630,-120)"
       x1="120"
       y1="292.36221"
       x2="140"
       y2="292.36221" />
    <linearGradient
       id="linearGradient4038-0-4">
      <stop
         id="stop4040-2-6"
         offset="0"
         style="stop-color:#f7370f;stop-opacity:1;" />
      <stop
         id="stop4042-3-3"
         offset="1"
         style="stop-color:#b50501;stop-opacity:1;" />
    </linearGradient>
    <linearGradient
       inkscape:collect="always"
       xlink:href="#linearGradient4038-0"
       id="linearGradient5336"
       gradientUnits="userSpaceOnUse"
       gradientTransform="translate(0,52.3622)"
       x1="180"
       y1="1.4901161e-05"
       x2="180"
       y2="30" />
    <linearGradient
       inkscape:collect="always"
       xlink:href="#linearGradient4020-8"
       id="linearGradient5338"
       gradientUnits="userSpaceOnUse"
       gradientTransform="translate(-630,-119.99998)"
       x1="860"
       y1="292.36218"
       x2="880"
       y2="292.36218" />
    <linearGradient
       inkscape:collect="always"
       xlink:href="#linearGradient4020-8"
       id="linearGradient5340"
       gradientUnits="userSpaceOnUse"
       gradientTransform="translate(-70,-610)"
       x1="520"
       y1="882.36218"
       x2="520"
       y2="912.36218" />
    <linearGradient
       inkscape:collect="always"
       xlink:href="#linearGradient4038-0-4"
       id="linearGradient5342"
       gradientUnits="userSpaceOnUse"
       gradientTransform="translate(-120,-135)"
       x1="120"
       y1="292.36221"
       x2="140"
       y2="292.36221" />
    <linearGradient
       inkscape:collect="always"
       xlink:href="#linearGradient4020-8"
       id="linearGradient5399"
       gradientUnits="userSpaceOnUse"
       gradientTransform="translate(-130,-119.99998)"
       x1="850"
       y1="292.36218"
       x2="880"
       y2="292.36218" />
    <linearGradient
       inkscape:collect="always"
       xlink:href="#linearGradient4038-0"
       id="linearGradient5401"
       gradientUnits="userSpaceOnUse"
       gradientTransform="translate(130,-120)"
       x1="120"
       y1="292.36221"
       x2="140"
       y2="292.36221" />
    <linearGradient
       inkscape:collect="always"
       xlink:href="#linearGradient4038-0"
       id="linearGradient5403"
       gradientUnits="userSpaceOnUse"
       gradientTransform="translate(500,52.3622)"
       x1="180"
       y1="1.4901161e-05"
       x2="180"
       y2="30" />
    <linearGradient
       inkscape:collect="always"
       xlink:href="#linearGradient4020-8"
       id="linearGradient5405"
       gradientUnits="userSpaceOnUse"
       gradientTransform="translate(-70,-600)"
       x1="520"
       y1="882.36218"
       x2="520"
       y2="912.36218" />
    <linearGradient
       inkscape:collect="always"
       xlink:href="#linearGradient4020-8"
       id="linearGradient5407"
       gradientUnits="userSpaceOnUse"
       gradientTransform="translate(-70,-600)"
       x1="520"
       y1="882.36218"
       x2="520"
       y2="912.36218" />
    <linearGradient
       inkscape:collect="always"
       xlink:href="#linearGradient4038-0"
       id="linearGradient5409"
       gradientUnits="userSpaceOnUse"
       gradientTransform="translate(630,-120)"
       x1="120"
       y1="292.36221"
       x2="140"
       y2="292.36221" />
    <linearGradient
       inkscape:collect="always"
       xlink:href="#linearGradient4038-0"
       id="linearGradient5411"
       gradientUnits="userSpaceOnUse"
       gradientTransform="translate(1000,52.3622)"
       x1="-110"
       y1="2.8421709e-14"
       x2="-110"
       y2="30" />
    <linearGradient
       inkscape:collect="always"
       xlink:href="#linearGradient4038-0"
       id="linearGradient5413"
       gradientUnits="userSpaceOnUse"
       gradientTransform="translate(0,52.3622)"
       x1="180"
       y1="1.4901161e-05"
       x2="180"
       y2="30" />
    <linearGradient
       inkscape:collect="always"
       xlink:href="#linearGradient4020-8"
       id="linearGradient5415"
       gradientUnits="userSpaceOnUse"
       gradientTransform="translate(-630,-119.99998)"
       x1="860"
       y1="292.36218"
       x2="880"
       y2="292.36218" />
    <linearGradient
       inkscape:collect="always"
       xlink:href="#linearGradient4020-8"
       id="linearGradient5417"
       gradientUnits="userSpaceOnUse"
       gradientTransform="translate(-70,-610)"
       x1="520"
       y1="882.36218"
       x2="520"
       y2="912.36218" />
    <linearGradient
       inkscape:collect="always"
       xlink:href="#linearGradient5444"
       id="linearGradient5508"
       gradientUnits="userSpaceOnUse"
       gradientTransform="matrix(0,0.14248515,-0.05,0,49.999995,1002.5873)"
       x1="160"
       y1="120"
       x2="160"
       y2="30" />
    <linearGradient
       inkscape:collect="always"
       xlink:href="#linearGradient4020-8-7"
       id="linearGradient5399-5"
       gradientUnits="userSpaceOnUse"
       gradientTransform="translate(-130,-119.99998)"
       x1="850"
       y1="292.36218"
       x2="880"
       y2="292.36218" />
    <linearGradient
       id="linearGradient4020-8-7">
      <stop
         id="stop4022-1-3"
         offset="0"
         style="stop-color:#a20000;stop-opacity:1;" />
      <stop
         id="stop4024-7-4"
         offset="1"
         style="stop-color:#5a0101;stop-opacity:1;" />
    </linearGradient>
    <linearGradient
       y2="292.36218"
       x2="880"
       y1="292.36218"
       x1="850"
       gradientTransform="translate(120,-119.99998)"
       gradientUnits="userSpaceOnUse"
       id="linearGradient5525"
       xlink:href="#linearGradient4020-8-7"
       inkscape:collect="always" />
    <linearGradient
       inkscape:collect="always"
       xlink:href="#linearGradient4020-8"
       id="linearGradient5554"
       gradientUnits="userSpaceOnUse"
       gradientTransform="translate(-70,-600)"
       x1="520"
       y1="882.36218"
       x2="520"
       y2="912.36218" />
    <linearGradient
       inkscape:collect="always"
       xlink:href="#linearGradient4038-0"
       id="linearGradient5556"
       gradientUnits="userSpaceOnUse"
       gradientTransform="translate(630,-120)"
       x1="120"
       y1="292.36221"
       x2="140"
       y2="292.36221" />
    <linearGradient
       inkscape:collect="always"
       xlink:href="#linearGradient4038-0"
       id="linearGradient5558"
       gradientUnits="userSpaceOnUse"
       gradientTransform="translate(1000,52.3622)"
       x1="-110"
       y1="2.8421709e-14"
       x2="-110"
       y2="30" />
    <linearGradient
       inkscape:collect="always"
       xlink:href="#linearGradient4020-8-7"
       id="linearGradient5560"
       gradientUnits="userSpaceOnUse"
       gradientTransform="translate(120,-119.99998)"
       x1="850"
       y1="292.36218"
       x2="880"
       y2="292.36218" />
    <linearGradient
       inkscape:collect="always"
       xlink:href="#linearGradient4020-8"
       id="linearGradient5601"
       gradientUnits="userSpaceOnUse"
       gradientTransform="translate(-130,-119.99998)"
       x1="850"
       y1="292.36218"
       x2="880"
       y2="292.36218" />
    <linearGradient
       inkscape:collect="always"
       xlink:href="#linearGradient4038-0"
       id="linearGradient5603"
       gradientUnits="userSpaceOnUse"
       gradientTransform="translate(130,-120)"
       x1="120"
       y1="292.36221"
       x2="140"
       y2="292.36221" />
    <linearGradient
       inkscape:collect="always"
       xlink:href="#linearGradient4038-0"
       id="linearGradient5605"
       gradientUnits="userSpaceOnUse"
       gradientTransform="translate(500,52.3622)"
       x1="180"
       y1="1.4901161e-05"
       x2="180"
       y2="30" />
    <linearGradient
       inkscape:collect="always"
       xlink:href="#linearGradient4020-8"
       id="linearGradient5607"
       gradientUnits="userSpaceOnUse"
       gradientTransform="translate(-70,-600)"
       x1="520"
       y1="882.36218"
       x2="520"
       y2="912.36218" />
    <linearGradient
       inkscape:collect="always"
       xlink:href="#linearGradient4020-8"
       id="linearGradient5609"
       gradientUnits="userSpaceOnUse"
       gradientTransform="translate(-130,-119.99998)"
       x1="850"
       y1="292.36218"
       x2="880"
       y2="292.36218" />
    <linearGradient
       inkscape:collect="always"
       xlink:href="#linearGradient4038-0"
       id="linearGradient5611"
       gradientUnits="userSpaceOnUse"
       gradientTransform="translate(130,-120)"
       x1="120"
       y1="292.36221"
       x2="140"
       y2="292.36221" />
    <linearGradient
       inkscape:collect="always"
       xlink:href="#linearGradient4038-0"
       id="linearGradient5613"
       gradientUnits="userSpaceOnUse"
       gradientTransform="translate(500,52.3622)"
       x1="180"
       y1="1.4901161e-05"
       x2="180"
       y2="30" />
    <linearGradient
       inkscape:collect="always"
       xlink:href="#linearGradient4020-8"
       id="linearGradient5615"
       gradientUnits="userSpaceOnUse"
       gradientTransform="translate(-70,-600)"
       x1="520"
       y1="882.36218"
       x2="520"
       y2="912.36218" />
    <linearGradient
       inkscape:collect="always"
       xlink:href="#linearGradient5249-3"
       id="linearGradient5255"
       x1="160"
       y1="120"
       x2="160"
       y2="30"
       gradientUnits="userSpaceOnUse"
       gradientTransform="matrix(2.9411765,0,0,1,0,52.3622)" />
    <linearGradient
       id="linearGradient5249-3">
      <stop
         style="stop-color:#c72f1e;stop-opacity:1;"
         offset="0"
         id="stop5251-2" />
      <stop
         style="stop-color:#e35647;stop-opacity:1;"
         offset="1"
         id="stop5253-6" />
    </linearGradient>
    <linearGradient
       y2="30"
       x2="160"
       y1="120"
       x1="160"
       gradientTransform="matrix(0.14264706,0,0,0.04999106,-3.8819659e-6,1002.5409)"
       gradientUnits="userSpaceOnUse"
       id="linearGradient5943"
       xlink:href="#linearGradient5249-3"
       inkscape:collect="always" />
    <linearGradient
       inkscape:collect="always"
       xlink:href="#linearGradient4038-0-3"
       id="linearGradient6182"
       gradientUnits="userSpaceOnUse"
       gradientTransform="translate(0,52.3622)"
       x1="180"
       y1="1.4901161e-05"
       x2="180"
       y2="30" />
    <linearGradient
       id="linearGradient4038-0-3">
      <stop
         id="stop4040-2-1"
         offset="0"
         style="stop-color:#f7370f;stop-opacity:1;" />
      <stop
         id="stop4042-3-1"
         offset="1"
         style="stop-color:#b50501;stop-opacity:1;" />
    </linearGradient>
    <linearGradient
       gradientTransform="translate(-630,-119.99998)"
       y2="292.36218"
       x2="880"
       y1="292.36218"
       x1="860"
       gradientUnits="userSpaceOnUse"
       id="linearGradient6158"
       xlink:href="#linearGradient4020-8-1"
       inkscape:collect="always" />
    <linearGradient
       id="linearGradient4020-8-1">
      <stop
         id="stop4022-1-2"
         offset="0"
         style="stop-color:#a20000;stop-opacity:1;" />
      <stop
         id="stop4024-7-5"
         offset="1"
         style="stop-color:#5a0101;stop-opacity:1;" />
    </linearGradient>
    <linearGradient
       inkscape:collect="always"
       xlink:href="#linearGradient4020-8-1"
       id="linearGradient3291"
       gradientUnits="userSpaceOnUse"
       gradientTransform="translate(-70,-610)"
       x1="520"
       y1="882.36218"
       x2="520"
       y2="912.36218" />
    <linearGradient
       id="linearGradient5982">
      <stop
         id="stop5984"
         offset="0"
         style="stop-color:#a20000;stop-opacity:1;" />
      <stop
         id="stop5986"
         offset="1"
         style="stop-color:#5a0101;stop-opacity:1;" />
    </linearGradient>
    <linearGradient
       inkscape:collect="always"
       xlink:href="#linearGradient4020-8-1"
       id="linearGradient6179"
       gradientUnits="userSpaceOnUse"
       gradientTransform="translate(-130,-119.99998)"
       x1="850"
       y1="292.36218"
       x2="880"
       y2="292.36218" />
    <linearGradient
       id="linearGradient5989">
      <stop
         id="stop5991"
         offset="0"
         style="stop-color:#a20000;stop-opacity:1;" />
      <stop
         id="stop5993"
         offset="1"
         style="stop-color:#5a0101;stop-opacity:1;" />
    </linearGradient>
    <linearGradient
       inkscape:collect="always"
       xlink:href="#linearGradient4038-0-3"
       id="linearGradient6215"
       gradientUnits="userSpaceOnUse"
       gradientTransform="translate(130,-120)"
       x1="120"
       y1="292.36221"
       x2="140"
       y2="292.36221" />
    <linearGradient
       id="linearGradient5996">
      <stop
         id="stop5998"
         offset="0"
         style="stop-color:#f7370f;stop-opacity:1;" />
      <stop
         id="stop6000"
         offset="1"
         style="stop-color:#b50501;stop-opacity:1;" />
    </linearGradient>
    <linearGradient
       inkscape:collect="always"
       xlink:href="#linearGradient4038-0-3"
       id="linearGradient4683"
       gradientUnits="userSpaceOnUse"
       gradientTransform="translate(500,52.3622)"
       x1="180"
       y1="1.4901161e-05"
       x2="180"
       y2="30" />
    <linearGradient
       id="linearGradient6003">
      <stop
         id="stop6005"
         offset="0"
         style="stop-color:#f7370f;stop-opacity:1;" />
      <stop
         id="stop6007"
         offset="1"
         style="stop-color:#b50501;stop-opacity:1;" />
    </linearGradient>
    <linearGradient
       inkscape:collect="always"
       xlink:href="#linearGradient4020-8-1"
       id="linearGradient6211"
       gradientUnits="userSpaceOnUse"
       gradientTransform="translate(-70,-600)"
       x1="520"
       y1="882.36218"
       x2="520"
       y2="912.36218" />
    <linearGradient
       id="linearGradient6010">
      <stop
         id="stop6012"
         offset="0"
         style="stop-color:#a20000;stop-opacity:1;" />
      <stop
         id="stop6014"
         offset="1"
         style="stop-color:#5a0101;stop-opacity:1;" />
    </linearGradient>
    <linearGradient
       y2="912.36218"
       x2="520"
       y1="882.36218"
       x1="520"
       gradientTransform="translate(-70,-610)"
       gradientUnits="userSpaceOnUse"
       id="linearGradient6025"
       xlink:href="#linearGradient4020-8-1"
       inkscape:collect="always" />
  </defs>
  <sodipodi:namedview
     id="base"
     pagecolor="#ffffff"
     bordercolor="#666666"
     borderopacity="1.0"
     inkscape:pageopacity="0.0"
     inkscape:pageshadow="2"
     inkscape:zoom="0.35"
     inkscape:cx="336.97839"
     inkscape:cy="503.74899"
     inkscape:document-units="px"
     inkscape:current-layer="layer1"
     showgrid="true"
     showguides="true"
     inkscape:guide-bbox="true"
     inkscape:window-width="1600"
     inkscape:window-height="842"
     inkscape:window-x="0"
     inkscape:window-y="0"
     inkscape:window-maximized="1"
     fit-margin-top="0"
     fit-margin-left="0"
     fit-margin-right="0"
     fit-margin-bottom="0">
    <inkscape:grid
       type="xygrid"
       id="grid6036"
       empspacing="5"
       visible="true"
       enabled="true"
       snapvisiblegridlinesonly="true"
       originx="4.25e-06"
       originy="0.17876222" />
    <sodipodi:guide
       orientation="1,0"
       position="1000,3120.1788"
       id="guide6038" />
    <sodipodi:guide
       orientation="1,0"
       position="2000,2560.1788"
       id="guide6040" />
    <sodipodi:guide
       orientation="0,1"
       position="1520,2000.1788"
       id="guide6042" />
    <sodipodi:guide
       orientation="0,1"
       position="1440,1000.1788"
       id="guide6044" />
    <sodipodi:guide
       orientation="0,1"
       position="2240,3000.1788"
       id="guide6048" />
    <sodipodi:guide
       orientation="1,0"
       position="3000,2640.1788"
       id="guide6050" />
    <sodipodi:guide
       position="4.25e-06,0.17876222"
       orientation="0,3000"
       id="guide6052" />
    <sodipodi:guide
       position="3000,0.17876222"
       orientation="-3000,0"
       id="guide6054" />
    <sodipodi:guide
       position="3000,3000.1788"
       orientation="0,-3000"
       id="guide6056" />
    <sodipodi:guide
       position="4.25e-06,3000.1788"
       orientation="3000,0"
       id="guide6058" />
    <sodipodi:guide
       orientation="0,1"
       position="-99.999996,2750.1788"
       id="guide6578" />
  </sodipodi:namedview>
  <metadata
     id="metadata6033">
    <rdf:RDF>
      <cc:Work
         rdf:about="">
        <dc:format>image/svg+xml</dc:format>
        <dc:type
           rdf:resource="http://purl.org/dc/dcmitype/StillImage" />
        <dc:title></dc:title>
      </cc:Work>
    </rdf:RDF>
  </metadata>
  <g
     inkscape:label="Ebene 1"
     inkscape:groupmode="layer"
     id="layer1"
     transform="translate(4.25e-6,-1002.5409)">
    <rect
       style="fill:#c72f1e;fill-opacity:1;fill-rule:nonzero;stroke:none"
       id="rect6046"
       width="48.43903"
       height="48.454842"
       x="0.025249936"
       y="1004.0861" />
    <g
       id="g4291"
       transform="matrix(0.05,0,0,0.04999106,-3.8819659e-6,1024.9188)">
      <path
         sodipodi:nodetypes="ccccccc"
         inkscape:connector-curvature="0"
         id="path4293"
         d="m 720,272.3622 0,-190 20,-20 10,10 0,210 -10,10 z"
         style="fill:url(#linearGradient4337);fill-opacity:1;stroke:none" />
      <path
         style="fill:url(#linearGradient4339);fill-opacity:1;stroke:#000000;stroke-width:0;stroke-linecap:butt;stroke-linejoin:miter;stroke-miterlimit:4;stroke-dasharray:none;stroke-opacity:1"
         d="m 250,72.3622 0,210 10,10 20,-20 0,-190 -20,-20 z"
         id="path4295"
         inkscape:connector-curvature="0"
         sodipodi:nodetypes="ccccccc" />
      <path
         style="fill:url(#linearGradient4341);fill-opacity:1;stroke:#000000;stroke-width:0;stroke-linecap:butt;stroke-linejoin:miter;stroke-miterlimit:4;stroke-dasharray:none;stroke-opacity:1"
         d="m 270,52.3622 -10,10 20,20 440,0 20,-20 -10,-10 z"
         id="path4297"
         inkscape:connector-curvature="0"
         sodipodi:nodetypes="ccccccc" />
      <path
         sodipodi:nodetypes="ccccccc"
         inkscape:connector-curvature="0"
         id="path4299"
         d="m 270,302.3622 -10,-10 20,-20 440,0 20,20 -10,10 z"
         style="fill:url(#linearGradient4343);fill-opacity:1;stroke:none" />
    </g>
    <g
       id="g4311"
       transform="matrix(0.05,0,0,0.04999106,-12.500004,1012.421)">
      <path
         sodipodi:nodetypes="ccccccc"
         inkscape:connector-curvature="0"
         id="path4313"
         d="m 720,272.3622 0,-190 20,-20 10,10 0,210 -10,10 z"
         style="fill:url(#linearGradient4321);fill-opacity:1;stroke:none" />
      <path
         style="fill:url(#linearGradient4323);fill-opacity:1;stroke:#000000;stroke-width:0;stroke-linecap:butt;stroke-linejoin:miter;stroke-miterlimit:4;stroke-dasharray:none;stroke-opacity:1"
         d="m 250,72.3622 0,210 10,10 20,-20 0,-190 -20,-20 z"
         id="path4315"
         inkscape:connector-curvature="0"
         sodipodi:nodetypes="ccccccc" />
      <path
         style="fill:url(#linearGradient4325);fill-opacity:1;stroke:#000000;stroke-width:0;stroke-linecap:butt;stroke-linejoin:miter;stroke-miterlimit:4;stroke-dasharray:none;stroke-opacity:1"
         d="m 270,52.3622 -10,10 20,20 440,0 20,-20 -10,-10 z"
         id="path4317"
         inkscape:connector-curvature="0"
         sodipodi:nodetypes="ccccccc" />
      <path
         sodipodi:nodetypes="ccccccc"
         inkscape:connector-curvature="0"
         id="path4319"
         d="m 270,302.3622 -10,-10 20,-20 440,0 20,20 -10,10 z"
         style="fill:url(#linearGradient4327);fill-opacity:1;stroke:none" />
    </g>
    <g
       id="g5316"
       transform="matrix(0.05,0,0,0.04999106,-3.8819659e-6,1024.9188)">
      <path
         sodipodi:nodetypes="ccccccc"
         inkscape:connector-curvature="0"
         id="path5318"
         d="m 0,52.3622 0,10 0,20 220,0 20,-20 -10,-10 z"
         style="fill:url(#linearGradient5336);fill-opacity:1;stroke:#000000;stroke-width:0;stroke-linecap:butt;stroke-linejoin:miter;stroke-miterlimit:4;stroke-dasharray:none;stroke-opacity:1" />
      <path
         style="fill:url(#linearGradient5338);fill-opacity:1;stroke:none"
         d="m 220,272.3622 0,-190 20,-20 10,10 0,210 -10,10 z"
         id="path5320"
         inkscape:connector-curvature="0"
         sodipodi:nodetypes="ccccccc" />
      <path
         style="fill:url(#linearGradient5340);fill-opacity:1;stroke:none"
         d="m 0,302.3622 0,-10 0,-20 220,0 20,20 -10,10 z"
         id="path5322"
         inkscape:connector-curvature="0"
         sodipodi:nodetypes="ccccccc" />
    </g>
    <path
       style="fill:url(#linearGradient5508);fill-opacity:1;stroke:none"
       d="m 48.499995,1004.0406 0,46.9916 -4.5,0 0,-42.4924 z"
       id="path5506"
       inkscape:connector-curvature="0"
       sodipodi:nodetypes="ccccc" />
    <g
       id="g5544"
       transform="matrix(0.05,0,0,0.04999106,-3.8819659e-6,1024.9188)">
      <path
         sodipodi:nodetypes="ccccccc"
         inkscape:connector-curvature="0"
         id="path5546"
         d="m 770,302.3622 -10,-10 20,-20 190,0 15,15 -15,15 z"
         style="fill:url(#linearGradient5554);fill-opacity:1;stroke:none" />
      <path
         sodipodi:nodetypes="ccccccc"
         inkscape:connector-curvature="0"
         id="path5548"
         d="m 750,72.3622 0,210 10,10 20,-20 0,-190 -20,-20 z"
         style="fill:url(#linearGradient5556);fill-opacity:1;stroke:#000000;stroke-width:0;stroke-linecap:butt;stroke-linejoin:miter;stroke-miterlimit:4;stroke-dasharray:none;stroke-opacity:1" />
      <path
         sodipodi:nodetypes="ccccccc"
         inkscape:connector-curvature="0"
         id="path5550"
         d="m 770,52.3622 -10,10 20,20 190,0 15,-15 -15,-15 z"
         style="fill:url(#linearGradient5558);fill-opacity:1;stroke:#000000;stroke-width:0;stroke-linecap:butt;stroke-linejoin:miter;stroke-miterlimit:4;stroke-dasharray:none;stroke-opacity:1" />
      <path
         sodipodi:nodetypes="ccccccc"
         inkscape:connector-curvature="0"
         id="path5552"
         d="m 970,272.3622 0,-190 15,-15 15,15 0,190 -15,15 z"
         style="fill:url(#linearGradient5560);fill-opacity:1;stroke:none" />
    </g>
    <g
       id="g4301"
       transform="matrix(0.05,0,0,0.04999106,12.499996,1012.421)">
      <path
         style="fill:url(#linearGradient4329);fill-opacity:1;stroke:none"
         d="m 720,272.3622 0,-190 15,-15 15,15 0,190 -15,15 z"
         id="path4303"
         inkscape:connector-curvature="0"
         sodipodi:nodetypes="ccccccc" />
      <path
         sodipodi:nodetypes="ccccccc"
         inkscape:connector-curvature="0"
         id="path4305"
         d="m 250,72.3622 0,210 10,10 20,-20 0,-190 -20,-20 z"
         style="fill:url(#linearGradient4331);fill-opacity:1;stroke:#000000;stroke-width:0;stroke-linecap:butt;stroke-linejoin:miter;stroke-miterlimit:4;stroke-dasharray:none;stroke-opacity:1" />
      <path
         sodipodi:nodetypes="ccccccc"
         inkscape:connector-curvature="0"
         id="path4307"
         d="m 270,52.3622 -10,10 20,20 440,0 15,-15 -15,-15 z"
         style="fill:url(#linearGradient4333);fill-opacity:1;stroke:#000000;stroke-width:0;stroke-linecap:butt;stroke-linejoin:miter;stroke-miterlimit:4;stroke-dasharray:none;stroke-opacity:1" />
      <path
         style="fill:url(#linearGradient4335);fill-opacity:1;stroke:none"
         d="m 270,302.3622 -10,-10 20,-20 440,0 15,15 -15,15 z"
         id="path4309"
         inkscape:connector-curvature="0"
         sodipodi:nodetypes="ccccccc" />
    </g>
    <g
       transform="matrix(0.05,0,0,0.04999106,-12.500004,1037.4166)"
       id="g5581">
      <path
         style="fill:url(#linearGradient5601);fill-opacity:1;stroke:none"
         d="m 720,272.3622 0,-190 20,-20 10,10 0,210 -10,10 z"
         id="path5583"
         inkscape:connector-curvature="0"
         sodipodi:nodetypes="ccccccc" />
      <path
         sodipodi:nodetypes="ccccccc"
         inkscape:connector-curvature="0"
         id="path5585"
         d="m 250,72.3622 0,210 10,10 20,-20 0,-190 -20,-20 z"
         style="fill:url(#linearGradient5603);fill-opacity:1;stroke:#000000;stroke-width:0;stroke-linecap:butt;stroke-linejoin:miter;stroke-miterlimit:4;stroke-dasharray:none;stroke-opacity:1" />
      <path
         sodipodi:nodetypes="ccccccc"
         inkscape:connector-curvature="0"
         id="path5587"
         d="m 270,52.3622 -10,10 20,20 440,0 20,-20 -10,-10 z"
         style="fill:url(#linearGradient5605);fill-opacity:1;stroke:#000000;stroke-width:0;stroke-linecap:butt;stroke-linejoin:miter;stroke-miterlimit:4;stroke-dasharray:none;stroke-opacity:1" />
      <path
         style="fill:url(#linearGradient5607);fill-opacity:1;stroke:none"
         d="m 270,302.3622 -10,-10 20,-20 440,0 20,20 -10,10 z"
         id="path5589"
         inkscape:connector-curvature="0"
         sodipodi:nodetypes="ccccccc" />
    </g>
    <g
       transform="matrix(0.05,0,0,0.04999106,12.499996,1037.4166)"
       id="g5591">
      <path
         sodipodi:nodetypes="ccccccc"
         inkscape:connector-curvature="0"
         id="path5593"
         d="m 720,272.3622 0,-190 15,-15 15,15 0,190 -15,15 z"
         style="fill:url(#linearGradient5609);fill-opacity:1;stroke:none" />
      <path
         style="fill:url(#linearGradient5611);fill-opacity:1;stroke:#000000;stroke-width:0;stroke-linecap:butt;stroke-linejoin:miter;stroke-miterlimit:4;stroke-dasharray:none;stroke-opacity:1"
         d="m 250,72.3622 0,210 10,10 20,-20 0,-190 -20,-20 z"
         id="path5595"
         inkscape:connector-curvature="0"
         sodipodi:nodetypes="ccccccc" />
      <path
         style="fill:url(#linearGradient5613);fill-opacity:1;stroke:#000000;stroke-width:0;stroke-linecap:butt;stroke-linejoin:miter;stroke-miterlimit:4;stroke-dasharray:none;stroke-opacity:1"
         d="m 270,52.3622 -10,10 20,20 440,0 15,-15 -15,-15 z"
         id="path5597"
         inkscape:connector-curvature="0"
         sodipodi:nodetypes="ccccccc" />
      <path
         sodipodi:nodetypes="ccccccc"
         inkscape:connector-curvature="0"
         id="path5599"
         d="m 270,302.3622 -10,-10 20,-20 440,0 15,15 -15,15 z"
         style="fill:url(#linearGradient5615);fill-opacity:1;stroke:none" />
    </g>
    <path
       style="fill:url(#linearGradient5943);fill-opacity:1;stroke:none"
       d="m -3.7757648e-6,1004.0406 48.4999987757648,0 0,0 -4.5,4.4992 -43.9999987757648,0 -1.062011e-7,0 z"
       id="rect5247"
       inkscape:connector-curvature="0"
       sodipodi:nodetypes="ccccccc" />
    <g
       id="g5381"
       transform="matrix(0.05,0,0,0.04999106,-3.8819659e-6,999.92327)">
      <path
         style="fill:url(#linearGradient5407);fill-opacity:1;stroke:none"
         d="m 770,302.3622 -10,-10 20,-20 190,0 15,15 -15,15 z"
         id="path5383"
         inkscape:connector-curvature="0"
         sodipodi:nodetypes="ccccccc" />
      <path
         style="fill:url(#linearGradient5409);fill-opacity:1;stroke:#000000;stroke-width:0;stroke-linecap:butt;stroke-linejoin:miter;stroke-miterlimit:4;stroke-dasharray:none;stroke-opacity:1"
         d="m 750,82.3622 0,200 10,10 20,-20 0,-190 -15,-15 z"
         id="path5385"
         inkscape:connector-curvature="0"
         sodipodi:nodetypes="ccccccc" />
      <path
         style="fill:url(#linearGradient5411);fill-opacity:1;stroke:#000000;stroke-width:0;stroke-linecap:butt;stroke-linejoin:miter;stroke-miterlimit:4;stroke-dasharray:none;stroke-opacity:1"
         d="m 780,52.3622 -15,15 15,15 190,0 15,-15 -15,-15 z"
         id="path5387"
         inkscape:connector-curvature="0"
         sodipodi:nodetypes="ccccccc" />
      <path
         style="fill:url(#linearGradient5525);fill-opacity:1;stroke:none"
         d="m 970,272.3622 0,-190 15,-15 15,15 0,190 -15,15 z"
         id="path5373-9"
         inkscape:connector-curvature="0"
         sodipodi:nodetypes="ccccccc" />
    </g>
    <g
       id="g4101"
       transform="matrix(0.05,0,0,0.04999106,-3.8819659e-6,999.92327)">
      <path
         style="fill:url(#linearGradient6182);fill-opacity:1;stroke:#000000;stroke-width:0;stroke-linecap:butt;stroke-linejoin:miter;stroke-miterlimit:4;stroke-dasharray:none;stroke-opacity:1"
         d="m 0,52.3622 0,30 220,0 15,-15 -15,-15 z"
         id="path4036-0"
         inkscape:connector-curvature="0"
         sodipodi:nodetypes="cccccc" />
      <path
         sodipodi:nodetypes="ccccccc"
         inkscape:connector-curvature="0"
         id="path3777-6"
         d="m 220,272.3622 0,-190 15,-15 15,15 0,200 -10,10 z"
         style="fill:url(#linearGradient6158);fill-opacity:1;stroke:none" />
      <path
         sodipodi:nodetypes="cccccc"
         inkscape:connector-curvature="0"
         id="path3287"
         d="m 0,302.3622 0,-30 220,0 20,20 -10,10 z"
         style="fill:url(#linearGradient6025);fill-opacity:1;stroke:none" />
    </g>
    <g
       id="g4106"
       transform="matrix(0.05,0,0,0.04999106,-3.8819659e-6,999.92327)">
      <path
         style="fill:url(#linearGradient6179);fill-opacity:1;stroke:none"
         d="m 720,272.3622 0,-190 15,-15 15,15 0,200 -10,10 z"
         id="path6177"
         inkscape:connector-curvature="0"
         sodipodi:nodetypes="ccccccc" />
      <path
         sodipodi:nodetypes="ccccccc"
         inkscape:connector-curvature="0"
         id="path6213"
         d="m 250,82.3622 0,200 10,10 20,-20 0,-190 -15,-15 z"
         style="fill:url(#linearGradient6215);fill-opacity:1;stroke:#000000;stroke-width:0;stroke-linecap:butt;stroke-linejoin:miter;stroke-miterlimit:4;stroke-dasharray:none;stroke-opacity:1" />
      <path
         sodipodi:nodetypes="ccccccc"
         inkscape:connector-curvature="0"
         id="path4681"
         d="m 280,52.3622 -15,15 15,15 440,0 15,-15 -15,-15 z"
         style="fill:url(#linearGradient4683);fill-opacity:1;stroke:#000000;stroke-width:0;stroke-linecap:butt;stroke-linejoin:miter;stroke-miterlimit:4;stroke-dasharray:none;stroke-opacity:1" />
      <path
         style="fill:url(#linearGradient6211);fill-opacity:1;stroke:none"
         d="m 270,302.3622 -10,-10 20,-20 440,0 20,20 -10,10 z"
         id="path3289"
         inkscape:connector-curvature="0"
         sodipodi:nodetypes="ccccccc" />
    </g>
  </g>
</svg>
