<?xml version="1.0" encoding="UTF-8" standalone="no"?>
<!-- Created with Inkscape (http://www.inkscape.org/) -->

<svg
   xmlns:dc="http://purl.org/dc/elements/1.1/"
   xmlns:cc="http://creativecommons.org/ns#"
   xmlns:rdf="http://www.w3.org/1999/02/22-rdf-syntax-ns#"
   xmlns:svg="http://www.w3.org/2000/svg"
   xmlns="http://www.w3.org/2000/svg"
   xmlns:xlink="http://www.w3.org/1999/xlink"
   xmlns:sodipodi="http://sodipodi.sourceforge.net/DTD/sodipodi-0.dtd"
   xmlns:inkscape="http://www.inkscape.org/namespaces/inkscape"
   width="50.000019"
   height="50.000015"
   id="svg6028"
   version="1.1"
   inkscape:version="0.91 r13725"
   sodipodi:docname="wall_top_left.svg"
   inkscape:export-filename="/home/silwol/Projects/Freenukum/graphics/wall_top_left.png"
   inkscape:export-xdpi="9"
   inkscape:export-ydpi="9">
  <defs
     id="defs6030">
    <linearGradient
       inkscape:collect="always"
       xlink:href="#linearGradient4038"
       id="linearGradient7653"
       gradientUnits="userSpaceOnUse"
       gradientTransform="translate(-120,630)"
       x1="120"
       y1="292.36221"
       x2="140"
       y2="292.36221" />
    <linearGradient
       id="linearGradient4038">
      <stop
         id="stop4040"
         offset="0"
         style="stop-color:#838383;stop-opacity:1;" />
      <stop
         id="stop4042"
         offset="1"
         style="stop-color:#c6c6c6;stop-opacity:1;" />
    </linearGradient>
    <linearGradient
       gradientTransform="translate(-630,630.00002)"
       y2="292.36218"
       x2="880"
       y1="292.36218"
       x1="860"
       gradientUnits="userSpaceOnUse"
       id="linearGradient6158"
       xlink:href="#linearGradient4020-8"
       inkscape:collect="always" />
    <linearGradient
       id="linearGradient4020-8">
      <stop
         id="stop4022-1"
         offset="0"
         style="stop-color:#666666;stop-opacity:1;" />
      <stop
         id="stop4024-7"
         offset="1"
         style="stop-color:#4a4a4a;stop-opacity:1;" />
    </linearGradient>
    <linearGradient
       inkscape:collect="always"
       xlink:href="#linearGradient4020"
       id="linearGradient7649"
       gradientUnits="userSpaceOnUse"
       gradientTransform="translate(-70,-412.3622)"
       x1="295"
       y1="892.36218"
       x2="295"
       y2="912.36218" />
    <linearGradient
       id="linearGradient4020">
      <stop
         id="stop4022"
         offset="0"
         style="stop-color:#666666;stop-opacity:1;" />
      <stop
         id="stop4024"
         offset="1"
         style="stop-color:#4a4a4a;stop-opacity:1;" />
    </linearGradient>
    <linearGradient
       y2="20"
       x2="266.66666"
       y1="0"
       x1="266.66666"
       gradientTransform="matrix(0.75,0,0,1,0,500)"
       gradientUnits="userSpaceOnUse"
       id="linearGradient7628"
       xlink:href="#linearGradient4038-0-3"
       inkscape:collect="always" />
    <linearGradient
       id="linearGradient4038-0-3">
      <stop
         id="stop4040-2-0"
         offset="0"
         style="stop-color:#838383;stop-opacity:1;" />
      <stop
         id="stop4042-3-7"
         offset="1"
         style="stop-color:#c6c6c6;stop-opacity:1;" />
    </linearGradient>
    <linearGradient
       inkscape:collect="always"
       xlink:href="#linearGradient4038-0-3"
       id="linearGradient7657"
       gradientUnits="userSpaceOnUse"
       gradientTransform="scale(0.75,1)"
       x1="266.66666"
       y1="0"
       x2="266.66666"
       y2="20" />
    <linearGradient
       id="linearGradient13683">
      <stop
         id="stop13685"
         offset="0"
         style="stop-color:#838383;stop-opacity:1;" />
      <stop
         id="stop13687"
         offset="1"
         style="stop-color:#c6c6c6;stop-opacity:1;" />
    </linearGradient>
    <linearGradient
       inkscape:collect="always"
       xlink:href="#linearGradient4038"
       id="linearGradient6219"
       gradientUnits="userSpaceOnUse"
       gradientTransform="translate(630,577.6378)"
       x1="120"
       y1="292.36221"
       x2="140"
       y2="292.36221" />
    <linearGradient
       id="linearGradient13690">
      <stop
         id="stop13692"
         offset="0"
         style="stop-color:#838383;stop-opacity:1;" />
      <stop
         id="stop13694"
         offset="1"
         style="stop-color:#c6c6c6;stop-opacity:1;" />
    </linearGradient>
    <linearGradient
       inkscape:collect="always"
       xlink:href="#linearGradient4038"
       id="linearGradient6215"
       gradientUnits="userSpaceOnUse"
       gradientTransform="translate(130,577.6378)"
       x1="120"
       y1="292.36221"
       x2="140"
       y2="292.36221" />
    <linearGradient
       id="linearGradient13697">
      <stop
         id="stop13699"
         offset="0"
         style="stop-color:#838383;stop-opacity:1;" />
      <stop
         id="stop13701"
         offset="1"
         style="stop-color:#c6c6c6;stop-opacity:1;" />
    </linearGradient>
    <linearGradient
       inkscape:collect="always"
       xlink:href="#linearGradient4020-8"
       id="linearGradient6179"
       gradientUnits="userSpaceOnUse"
       gradientTransform="translate(-130,577.63782)"
       x1="860"
       y1="292.36218"
       x2="880"
       y2="292.36218" />
    <linearGradient
       id="linearGradient13704">
      <stop
         id="stop13706"
         offset="0"
         style="stop-color:#666666;stop-opacity:1;" />
      <stop
         id="stop13708"
         offset="1"
         style="stop-color:#4a4a4a;stop-opacity:1;" />
    </linearGradient>
    <linearGradient
       inkscape:collect="always"
       xlink:href="#linearGradient4020"
       id="linearGradient6211"
       gradientUnits="userSpaceOnUse"
       gradientTransform="translate(-68,87.6378)"
       x1="520"
       y1="892.36218"
       x2="520"
       y2="912.36218" />
    <linearGradient
       id="linearGradient13711">
      <stop
         id="stop13713"
         offset="0"
         style="stop-color:#666666;stop-opacity:1;" />
      <stop
         id="stop13715"
         offset="1"
         style="stop-color:#4a4a4a;stop-opacity:1;" />
    </linearGradient>
    <linearGradient
       y2="20"
       x2="540"
       y1="0"
       x1="540"
       gradientUnits="userSpaceOnUse"
       id="linearGradient6969"
       xlink:href="#linearGradient4038-0"
       inkscape:collect="always"
       gradientTransform="matrix(0.75,0,0,1,248,802.3622)" />
    <linearGradient
       id="linearGradient4038-0">
      <stop
         id="stop4040-2"
         offset="0"
         style="stop-color:#838383;stop-opacity:1;" />
      <stop
         id="stop4042-3"
         offset="1"
         style="stop-color:#c6c6c6;stop-opacity:1;" />
    </linearGradient>
    <linearGradient
       y2="20"
       x2="540"
       y1="0"
       x1="540"
       gradientTransform="matrix(0.75,0,0,1,250,52.3622)"
       gradientUnits="userSpaceOnUse"
       id="linearGradient13731"
       xlink:href="#linearGradient4038-0"
       inkscape:collect="always" />
    <linearGradient
       inkscape:collect="always"
       xlink:href="#linearGradient4020"
       id="linearGradient13840"
       gradientUnits="userSpaceOnUse"
       gradientTransform="translate(-68,-610)"
       x1="520"
       y1="892.36218"
       x2="520"
       y2="912.36218" />
    <linearGradient
       inkscape:collect="always"
       xlink:href="#linearGradient4020-8"
       id="linearGradient13842"
       gradientUnits="userSpaceOnUse"
       gradientTransform="translate(-130,-119.99998)"
       x1="860"
       y1="292.36218"
       x2="880"
       y2="292.36218" />
    <linearGradient
       inkscape:collect="always"
       xlink:href="#linearGradient4038"
       id="linearGradient13844"
       gradientUnits="userSpaceOnUse"
       gradientTransform="translate(130,-120)"
       x1="120"
       y1="292.36221"
       x2="140"
       y2="292.36221" />
    <linearGradient
       inkscape:collect="always"
       xlink:href="#linearGradient4038"
       id="linearGradient13846"
       gradientUnits="userSpaceOnUse"
       gradientTransform="translate(630,-120)"
       x1="120"
       y1="292.36221"
       x2="140"
       y2="292.36221" />
    <linearGradient
       inkscape:collect="always"
       xlink:href="#linearGradient4038-0-3"
       id="linearGradient13848"
       gradientUnits="userSpaceOnUse"
       gradientTransform="matrix(0.75,0,0,1,0,52.3622)"
       x1="266.66666"
       y1="0"
       x2="266.66666"
       y2="20" />
    <linearGradient
       inkscape:collect="always"
       xlink:href="#linearGradient4038-0-3"
       id="linearGradient13850"
       gradientUnits="userSpaceOnUse"
       gradientTransform="matrix(0.75,0,0,1,0,552.3622)"
       x1="266.66666"
       y1="0"
       x2="266.66666"
       y2="20" />
    <linearGradient
       inkscape:collect="always"
       xlink:href="#linearGradient4020"
       id="linearGradient13852"
       gradientUnits="userSpaceOnUse"
       gradientTransform="translate(-70,-360)"
       x1="295"
       y1="892.36218"
       x2="295"
       y2="912.36218" />
    <linearGradient
       inkscape:collect="always"
       xlink:href="#linearGradient4020"
       id="linearGradient13856"
       gradientUnits="userSpaceOnUse"
       gradientTransform="translate(-70,140)"
       x1="295"
       y1="892.36218"
       x2="295"
       y2="912.36218" />
    <linearGradient
       inkscape:collect="always"
       xlink:href="#linearGradient4020-7"
       id="linearGradient6889"
       gradientUnits="userSpaceOnUse"
       gradientTransform="matrix(-0.008,0,0,0.05,50.559991,969.24409)"
       x1="520"
       y1="882.36218"
       x2="520"
       y2="912.36218" />
    <linearGradient
       id="linearGradient4020-7">
      <stop
         id="stop4022-18"
         offset="0"
         style="stop-color:#666666;stop-opacity:1;" />
      <stop
         id="stop4024-8"
         offset="1"
         style="stop-color:#4a4a4a;stop-opacity:1;" />
    </linearGradient>
    <linearGradient
       inkscape:collect="always"
       xlink:href="#linearGradient4020-7"
       id="linearGradient6891"
       gradientUnits="userSpaceOnUse"
       gradientTransform="matrix(0.017,0,0,0.05,14.809988,969.24409)"
       x1="520"
       y1="882.36218"
       x2="520"
       y2="912.36218" />
    <linearGradient
       id="linearGradient17489">
      <stop
         id="stop17491"
         offset="0"
         style="stop-color:#666666;stop-opacity:1;" />
      <stop
         id="stop17493"
         offset="1"
         style="stop-color:#4a4a4a;stop-opacity:1;" />
    </linearGradient>
    <linearGradient
       inkscape:collect="always"
       xlink:href="#linearGradient4038-0-4"
       id="linearGradient4683-0"
       gradientUnits="userSpaceOnUse"
       gradientTransform="matrix(0.05000001,0,0,0.05,24.999992,1002.3622)"
       x1="180"
       y1="1.4901161e-05"
       x2="180"
       y2="30" />
    <linearGradient
       id="linearGradient4038-0-4">
      <stop
         id="stop4040-2-5"
         offset="0"
         style="stop-color:#838383;stop-opacity:1;" />
      <stop
         id="stop4042-3-3"
         offset="1"
         style="stop-color:#dcdcdc;stop-opacity:1;" />
    </linearGradient>
    <linearGradient
       inkscape:collect="always"
       xlink:href="#linearGradient4038-2"
       id="linearGradient6215-30"
       gradientUnits="userSpaceOnUse"
       gradientTransform="matrix(0.05000001,0,0,0.05,6.4999878,993.74409)"
       x1="120"
       y1="292.36221"
       x2="140"
       y2="292.36221" />
    <linearGradient
       id="linearGradient4038-2">
      <stop
         id="stop4040-9"
         offset="0"
         style="stop-color:#838383;stop-opacity:1;" />
      <stop
         id="stop4042-9"
         offset="1"
         style="stop-color:#c6c6c6;stop-opacity:1;" />
    </linearGradient>
    <linearGradient
       inkscape:collect="always"
       xlink:href="#linearGradient4020-8-7"
       id="linearGradient6883"
       gradientUnits="userSpaceOnUse"
       gradientTransform="translate(1650,-169.99998)"
       x1="860"
       y1="292.36218"
       x2="880"
       y2="292.36218" />
    <linearGradient
       id="linearGradient4020-8-7">
      <stop
         id="stop4022-1-9"
         offset="0"
         style="stop-color:#666666;stop-opacity:1;" />
      <stop
         id="stop4024-7-9"
         offset="1"
         style="stop-color:#4a4a4a;stop-opacity:1;" />
    </linearGradient>
    <linearGradient
       y2="30"
       x2="180"
       y1="1.4901161e-05"
       x1="180"
       gradientUnits="userSpaceOnUse"
       id="linearGradient6794"
       xlink:href="#linearGradient4038-0-4"
       inkscape:collect="always"
       gradientTransform="translate(0,52.3622)" />
    <linearGradient
       id="linearGradient17508">
      <stop
         id="stop17510"
         offset="0"
         style="stop-color:#838383;stop-opacity:1;" />
      <stop
         id="stop17512"
         offset="1"
         style="stop-color:#dcdcdc;stop-opacity:1;" />
    </linearGradient>
    <linearGradient
       inkscape:collect="always"
       xlink:href="#linearGradient4020-7"
       id="linearGradient6911"
       gradientUnits="userSpaceOnUse"
       gradientTransform="matrix(0.009,0,0,0.05,2.8699868,1006.7441)"
       x1="520"
       y1="882.36218"
       x2="520"
       y2="912.36218" />
    <linearGradient
       id="linearGradient17515">
      <stop
         id="stop17517"
         offset="0"
         style="stop-color:#666666;stop-opacity:1;" />
      <stop
         id="stop17519"
         offset="1"
         style="stop-color:#4a4a4a;stop-opacity:1;" />
    </linearGradient>
    <linearGradient
       inkscape:collect="always"
       xlink:href="#linearGradient4020-8-7"
       id="linearGradient6907"
       gradientUnits="userSpaceOnUse"
       gradientTransform="matrix(0.05000001,0,0,0.05,-31.500016,1018.7441)"
       x1="850"
       y1="292.36218"
       x2="880"
       y2="292.36218" />
    <linearGradient
       id="linearGradient17522">
      <stop
         id="stop17524"
         offset="0"
         style="stop-color:#666666;stop-opacity:1;" />
      <stop
         id="stop17526"
         offset="1"
         style="stop-color:#4a4a4a;stop-opacity:1;" />
    </linearGradient>
    <linearGradient
       inkscape:collect="always"
       xlink:href="#linearGradient4038-0-4"
       id="linearGradient6903"
       gradientUnits="userSpaceOnUse"
       gradientTransform="matrix(0.05000001,0,0,0.05,12.499989,1027.3622)"
       x1="-110"
       y1="2.8421709e-14"
       x2="-110"
       y2="30" />
    <linearGradient
       id="linearGradient17529">
      <stop
         id="stop17531"
         offset="0"
         style="stop-color:#838383;stop-opacity:1;" />
      <stop
         id="stop17533"
         offset="1"
         style="stop-color:#dcdcdc;stop-opacity:1;" />
    </linearGradient>
    <linearGradient
       inkscape:collect="always"
       xlink:href="#linearGradient4020-8-7"
       id="linearGradient6899"
       gradientUnits="userSpaceOnUse"
       gradientTransform="matrix(0.05000001,0,0,0.05,-31.500016,993.74409)"
       x1="850"
       y1="292.36218"
       x2="880"
       y2="292.36218" />
    <linearGradient
       id="linearGradient17536">
      <stop
         id="stop17538"
         offset="0"
         style="stop-color:#666666;stop-opacity:1;" />
      <stop
         id="stop17540"
         offset="1"
         style="stop-color:#4a4a4a;stop-opacity:1;" />
    </linearGradient>
    <linearGradient
       inkscape:collect="always"
       xlink:href="#linearGradient4038-2"
       id="linearGradient6895"
       gradientUnits="userSpaceOnUse"
       gradientTransform="matrix(0.05000001,0,0,0.05,-6.0000147,1018.7441)"
       x1="120"
       y1="292.36221"
       x2="140"
       y2="292.36221" />
    <linearGradient
       id="linearGradient17543">
      <stop
         id="stop17545"
         offset="0"
         style="stop-color:#838383;stop-opacity:1;" />
      <stop
         id="stop17547"
         offset="1"
         style="stop-color:#c6c6c6;stop-opacity:1;" />
    </linearGradient>
    <linearGradient
       inkscape:collect="always"
       xlink:href="#linearGradient4038-0-4"
       id="linearGradient4687-7"
       gradientUnits="userSpaceOnUse"
       gradientTransform="matrix(0.05000001,0,0,0.05,12.499989,1002.3622)"
       x1="-110"
       y1="2.8421709e-14"
       x2="-110"
       y2="30" />
    <linearGradient
       id="linearGradient17550">
      <stop
         id="stop17552"
         offset="0"
         style="stop-color:#838383;stop-opacity:1;" />
      <stop
         id="stop17554"
         offset="1"
         style="stop-color:#dcdcdc;stop-opacity:1;" />
    </linearGradient>
    <linearGradient
       inkscape:collect="always"
       xlink:href="#linearGradient4038-2"
       id="linearGradient6219-7"
       gradientUnits="userSpaceOnUse"
       gradientTransform="matrix(0.05000001,0,0,0.05,-6.0000147,993.74409)"
       x1="120"
       y1="292.36221"
       x2="140"
       y2="292.36221" />
    <linearGradient
       id="linearGradient17557">
      <stop
         id="stop17559"
         offset="0"
         style="stop-color:#838383;stop-opacity:1;" />
      <stop
         id="stop17561"
         offset="1"
         style="stop-color:#c6c6c6;stop-opacity:1;" />
    </linearGradient>
    <linearGradient
       inkscape:collect="always"
       xlink:href="#linearGradient4020-8-7"
       id="linearGradient6179-2"
       gradientUnits="userSpaceOnUse"
       gradientTransform="matrix(0.05000001,0,0,0.05,-6.500014,993.74409)"
       x1="850"
       y1="292.36218"
       x2="880"
       y2="292.36218" />
    <linearGradient
       id="linearGradient17564">
      <stop
         id="stop17566"
         offset="0"
         style="stop-color:#666666;stop-opacity:1;" />
      <stop
         id="stop17568"
         offset="1"
         style="stop-color:#4a4a4a;stop-opacity:1;" />
    </linearGradient>
    <linearGradient
       inkscape:collect="always"
       xlink:href="#linearGradient4020-7"
       id="linearGradient6211-7"
       gradientUnits="userSpaceOnUse"
       gradientTransform="matrix(0.009,0,0,0.05,2.8699868,981.74409)"
       x1="520"
       y1="882.36218"
       x2="520"
       y2="912.36218" />
    <linearGradient
       id="linearGradient17571">
      <stop
         id="stop17573"
         offset="0"
         style="stop-color:#666666;stop-opacity:1;" />
      <stop
         id="stop17575"
         offset="1"
         style="stop-color:#4a4a4a;stop-opacity:1;" />
    </linearGradient>
    <linearGradient
       y2="30"
       x2="180"
       y1="1.4901161e-05"
       x1="180"
       gradientUnits="userSpaceOnUse"
       id="linearGradient17592"
       xlink:href="#linearGradient4038-0-4"
       inkscape:collect="always"
       gradientTransform="matrix(-0.05000001,0,0,0.05,49.999997,1002.3622)" />
    <linearGradient
       inkscape:collect="always"
       xlink:href="#linearGradient4038-2"
       id="linearGradient17753"
       gradientUnits="userSpaceOnUse"
       gradientTransform="matrix(0.05000001,0,0,0.05,31.499993,993.74409)"
       x1="120"
       y1="292.36221"
       x2="140"
       y2="292.36221" />
  </defs>
  <sodipodi:namedview
     id="base"
     pagecolor="#ffffff"
     bordercolor="#666666"
     borderopacity="1.0"
     inkscape:pageopacity="0.0"
     inkscape:pageshadow="2"
     inkscape:zoom="0.175"
     inkscape:cx="-352.3506"
     inkscape:cy="796.99681"
     inkscape:document-units="px"
     inkscape:current-layer="layer1"
     showgrid="true"
     showguides="true"
     inkscape:guide-bbox="true"
     inkscape:window-width="1600"
     inkscape:window-height="842"
     inkscape:window-x="0"
     inkscape:window-y="0"
     inkscape:window-maximized="1"
     fit-margin-top="0"
     fit-margin-left="0"
     fit-margin-right="0"
     fit-margin-bottom="0">
    <inkscape:grid
       type="xygrid"
       id="grid6036"
       empspacing="5"
       visible="true"
       enabled="true"
       snapvisiblegridlinesonly="true"
       originx="2.5523876e-05"
       originy="1.2071067e-05" />
    <sodipodi:guide
       orientation="1,0"
       position="1000,3120"
       id="guide6038" />
    <sodipodi:guide
       orientation="0,1"
       position="1520,2000"
       id="guide6042" />
    <sodipodi:guide
       orientation="0,1"
       position="1440,1000"
       id="guide6044" />
    <sodipodi:guide
       orientation="0,1"
       position="2240,3000"
       id="guide6048" />
    <sodipodi:guide
       orientation="1,0"
       position="3000,2640"
       id="guide6050" />
    <sodipodi:guide
       position="2.5523876e-05,1.2071067e-05"
       orientation="0,3000"
       id="guide6052" />
    <sodipodi:guide
       position="3000,1.2071067e-05"
       orientation="-3000,0"
       id="guide6054" />
    <sodipodi:guide
       position="3000,3000"
       orientation="0,-3000"
       id="guide6056" />
    <sodipodi:guide
       position="2.5523876e-05,3000"
       orientation="3000,0"
       id="guide6058" />
    <sodipodi:guide
       orientation="0,1"
       position="-99.999974,2750"
       id="guide6578" />
  </sodipodi:namedview>
  <metadata
     id="metadata6033">
    <rdf:RDF>
      <cc:Work
         rdf:about="">
        <dc:format>image/svg+xml</dc:format>
        <dc:type
           rdf:resource="http://purl.org/dc/dcmitype/StillImage" />
        <dc:title></dc:title>
      </cc:Work>
    </rdf:RDF>
  </metadata>
  <g
     inkscape:label="Ebene 1"
     inkscape:groupmode="layer"
     id="layer1"
     transform="translate(2.5523876e-5,-1002.3622)">
    <rect
       style="fill:#999999;fill-opacity:1;fill-rule:nonzero;stroke:none"
       id="rect6046"
       width="50.000004"
       height="48.5"
       x="-1.2689869e-05"
       y="1003.8622" />
    <path
       sodipodi:nodetypes="cccccc"
       inkscape:connector-curvature="0"
       id="path4036-0-5"
       d="m 49.99999,1002.3622 0,1.5 -11,0 -1,-1 0.5,-0.5 z"
       style="fill:url(#linearGradient17592);fill-opacity:1;stroke:#000000;stroke-width:0;stroke-linecap:butt;stroke-linejoin:miter;stroke-miterlimit:4;stroke-dasharray:none;stroke-opacity:1" />
    <path
       sodipodi:nodetypes="ccccc"
       inkscape:connector-curvature="0"
       id="path6209-4"
       d="m -1.3452808e-5,1027.3622 1.500000052808,-1.5 9.5000014,0 1.5,1.5 z"
       style="fill:url(#linearGradient6211-7);fill-opacity:1;stroke:none" />
    <path
       sodipodi:nodetypes="cccccc"
       inkscape:connector-curvature="0"
       id="path6177-0"
       d="m 35.999989,1013.3622 0,-9.5 1,-1 0.500001,0.5 0,11.5 z"
       style="fill:url(#linearGradient6179-2);fill-opacity:1;stroke:none" />
    <path
       style="fill:url(#linearGradient6215-30);fill-opacity:1;stroke:#000000;stroke-width:0;stroke-linecap:butt;stroke-linejoin:miter;stroke-miterlimit:4;stroke-dasharray:none;stroke-opacity:1"
       d="m 12.499988,1003.3622 0,11.5 1.5,-1.5 0,-9.5 -1,-1 z"
       id="path6213-8"
       inkscape:connector-curvature="0"
       sodipodi:nodetypes="cccccc" />
    <path
       sodipodi:nodetypes="cccccc"
       inkscape:connector-curvature="0"
       id="path6217-3"
       d="m -1.3452808e-5,1003.3622 0,24 1.500000052808,-1.5 0,-22 -1.00000002,-1 z"
       style="fill:url(#linearGradient6219-7);fill-opacity:1;stroke:#000000;stroke-width:0;stroke-linecap:butt;stroke-linejoin:miter;stroke-miterlimit:4;stroke-dasharray:none;stroke-opacity:1" />
    <path
       style="fill:url(#linearGradient4683-0);fill-opacity:1;stroke:#000000;stroke-width:0;stroke-linecap:butt;stroke-linejoin:miter;stroke-miterlimit:4;stroke-dasharray:none;stroke-opacity:1"
       d="m 13.499988,1002.3622 -0.5,0.5 1,1 22.000001,0 1,-1 -0.5,-0.5 z"
       id="path4681"
       inkscape:connector-curvature="0"
       sodipodi:nodetypes="ccccccc" />
    <path
       sodipodi:nodetypes="ccccccc"
       inkscape:connector-curvature="0"
       id="path4685"
       d="m 0.99998663,1002.3622 -0.50000005,0.5 1.00000002,1 9.5000014,0 1,-1 -0.5,-0.5 z"
       style="fill:url(#linearGradient4687-7);fill-opacity:1;stroke:#000000;stroke-width:0;stroke-linecap:butt;stroke-linejoin:miter;stroke-miterlimit:4;stroke-dasharray:none;stroke-opacity:1" />
    <path
       style="fill:url(#linearGradient6891);fill-opacity:1;stroke:none"
       d="m 12.499988,1014.8622 1.5,-1.5 22.000001,0 1.500001,1.5 z"
       id="path6885"
       inkscape:connector-curvature="0"
       sodipodi:nodetypes="ccccc" />
    <path
       sodipodi:nodetypes="ccccc"
       inkscape:connector-curvature="0"
       id="path6887"
       d="m 49.99999,1014.8622 0,-1.5 -11,0 -1.5,1.5 z"
       style="fill:url(#linearGradient6889);fill-opacity:1;stroke:none" />
    <path
       style="fill:url(#linearGradient6895);fill-opacity:1;stroke:#000000;stroke-width:0;stroke-linecap:butt;stroke-linejoin:miter;stroke-miterlimit:4;stroke-dasharray:none;stroke-opacity:1"
       d="m -1.3452808e-5,1027.3622 0,25 1.500000052808,-1.5 0,-22 -1.00000002,-1 z"
       id="path6893"
       inkscape:connector-curvature="0"
       sodipodi:nodetypes="cccccc" />
    <path
       style="fill:url(#linearGradient6899);fill-opacity:1;stroke:none"
       d="m 10.999988,1025.8622 0,-22 1,-1 0.5,0.5 0,24 z"
       id="path6897"
       inkscape:connector-curvature="0"
       sodipodi:nodetypes="cccccc" />
    <path
       style="fill:url(#linearGradient6903);fill-opacity:1;stroke:#000000;stroke-width:0;stroke-linecap:butt;stroke-linejoin:miter;stroke-miterlimit:4;stroke-dasharray:none;stroke-opacity:1"
       d="m -1.3452808e-5,1027.3622 0.500000032808,0.5 1.00000002,1 9.5000014,0 1,-1 0.5,-0.5 z"
       id="path6901"
       inkscape:connector-curvature="0"
       sodipodi:nodetypes="ccccccc" />
    <path
       sodipodi:nodetypes="cccccc"
       inkscape:connector-curvature="0"
       id="path6905"
       d="m 10.999988,1050.8622 0,-22 1,-1 0.5,-0.5 0,25 z"
       style="fill:url(#linearGradient6907);fill-opacity:1;stroke:none" />
    <path
       style="fill:url(#linearGradient6911);fill-opacity:1;stroke:none"
       d="m -1.3452808e-5,1052.3622 1.500000052808,-1.5 9.5000014,0 1.5,1.5 z"
       id="path6909"
       inkscape:connector-curvature="0"
       sodipodi:nodetypes="ccccc" />
    <path
       sodipodi:nodetypes="cccccc"
       inkscape:connector-curvature="0"
       id="path17751"
       d="m 37.49999,1003.3622 0,11.5 1.5,-1.5 0,-9.5 -1,-1 z"
       style="fill:url(#linearGradient17753);fill-opacity:1;stroke:#000000;stroke-width:0;stroke-linecap:butt;stroke-linejoin:miter;stroke-miterlimit:4;stroke-dasharray:none;stroke-opacity:1" />
  </g>
</svg>
