<?xml version="1.0" encoding="UTF-8" standalone="no"?>
<!-- Created with Inkscape (http://www.inkscape.org/) -->

<svg
   xmlns:dc="http://purl.org/dc/elements/1.1/"
   xmlns:cc="http://creativecommons.org/ns#"
   xmlns:rdf="http://www.w3.org/1999/02/22-rdf-syntax-ns#"
   xmlns:svg="http://www.w3.org/2000/svg"
   xmlns="http://www.w3.org/2000/svg"
   xmlns:xlink="http://www.w3.org/1999/xlink"
   xmlns:sodipodi="http://sodipodi.sourceforge.net/DTD/sodipodi-0.dtd"
   xmlns:inkscape="http://www.inkscape.org/namespaces/inkscape"
   width="50.000008"
   height="50.000019"
   id="svg6028"
   version="1.1"
   inkscape:version="0.91 r13725"
   sodipodi:docname="wall_inside_top_right.svg"
   inkscape:export-filename="/home/silwol/Projects/Freenukum/graphics/solid/wall_inside_top_right.png"
   inkscape:export-xdpi="9"
   inkscape:export-ydpi="9">
  <defs
     id="defs6030">
    <linearGradient
       gradientTransform="translate(-630,630.00002)"
       y2="292.36218"
       x2="880"
       y1="292.36218"
       x1="860"
       gradientUnits="userSpaceOnUse"
       id="linearGradient6158"
       xlink:href="#linearGradient4020-8"
       inkscape:collect="always" />
    <linearGradient
       id="linearGradient4020-8">
      <stop
         id="stop4022-1"
         offset="0"
         style="stop-color:#666666;stop-opacity:1;" />
      <stop
         id="stop4024-7"
         offset="1"
         style="stop-color:#4a4a4a;stop-opacity:1;" />
    </linearGradient>
    <linearGradient
       inkscape:collect="always"
       xlink:href="#linearGradient4020"
       id="linearGradient6211"
       gradientUnits="userSpaceOnUse"
       gradientTransform="translate(-70,140)"
       x1="200"
       y1="892.36218"
       x2="200"
       y2="912.36218" />
    <linearGradient
       id="linearGradient4020">
      <stop
         id="stop4022"
         offset="0"
         style="stop-color:#666666;stop-opacity:1;" />
      <stop
         id="stop4024"
         offset="1"
         style="stop-color:#4a4a4a;stop-opacity:1;" />
    </linearGradient>
    <linearGradient
       y2="20"
       x2="120"
       y1="2.8421709e-14"
       x1="120"
       gradientUnits="userSpaceOnUse"
       id="linearGradient10618"
       xlink:href="#linearGradient4038-0"
       inkscape:collect="always"
       gradientTransform="translate(0,52.3622)" />
    <linearGradient
       id="linearGradient4038-0">
      <stop
         id="stop4040-2"
         offset="0"
         style="stop-color:#838383;stop-opacity:1;" />
      <stop
         id="stop4042-3"
         offset="1"
         style="stop-color:#c6c6c6;stop-opacity:1;" />
    </linearGradient>
    <linearGradient
       y2="20"
       x2="120"
       y1="2.8421709e-14"
       x1="120"
       gradientUnits="userSpaceOnUse"
       id="linearGradient10712"
       xlink:href="#linearGradient4038-0"
       inkscape:collect="always"
       gradientTransform="translate(0,802.3622)" />
    <linearGradient
       y2="502.36221"
       x2="870"
       y1="502.36221"
       x1="840"
       gradientTransform="matrix(0.05,0,0,0.05,-31.000009,1019.2441)"
       gradientUnits="userSpaceOnUse"
       id="linearGradient9118"
       xlink:href="#linearGradient4020-8-7-8"
       inkscape:collect="always" />
    <linearGradient
       id="linearGradient4020-8-7-8">
      <stop
         id="stop4022-1-9-6"
         offset="0"
         style="stop-color:#666666;stop-opacity:1;" />
      <stop
         id="stop4024-7-9-6"
         offset="1"
         style="stop-color:#4a4a4a;stop-opacity:1;" />
    </linearGradient>
    <linearGradient
       inkscape:collect="always"
       xlink:href="#linearGradient4020-5-8"
       id="linearGradient5951"
       gradientUnits="userSpaceOnUse"
       gradientTransform="matrix(-0.022,0,0,0.05,23.539994,1006.7441)"
       x1="717.72729"
       y1="882.36218"
       x2="717.72729"
       y2="912.36218" />
    <linearGradient
       id="linearGradient4020-5-8">
      <stop
         id="stop4022-6"
         offset="0"
         style="stop-color:#666666;stop-opacity:1;" />
      <stop
         id="stop4024-1"
         offset="1"
         style="stop-color:#4a4a4a;stop-opacity:1;" />
    </linearGradient>
    <linearGradient
       y2="30"
       x2="-110"
       y1="2.8421709e-14"
       x1="-110"
       gradientTransform="matrix(-1,0,0,1,0,52.3622)"
       gradientUnits="userSpaceOnUse"
       id="linearGradient11219"
       xlink:href="#linearGradient4038-0-9"
       inkscape:collect="always" />
    <linearGradient
       id="linearGradient4038-0-9">
      <stop
         id="stop4040-2-9"
         offset="0"
         style="stop-color:#838383;stop-opacity:1;" />
      <stop
         id="stop4042-3-4"
         offset="1"
         style="stop-color:#dcdcdc;stop-opacity:1;" />
    </linearGradient>
    <linearGradient
       y2="30"
       x2="-110"
       y1="2.8421709e-14"
       x1="-110"
       gradientTransform="matrix(-0.05000001,0,0,0.05,-7.7639319e-6,1039.8622)"
       gradientUnits="userSpaceOnUse"
       id="linearGradient11283"
       xlink:href="#linearGradient4038-0-9"
       inkscape:collect="always" />
  </defs>
  <sodipodi:namedview
     id="base"
     pagecolor="#ffffff"
     bordercolor="#666666"
     borderopacity="1.0"
     inkscape:pageopacity="0.0"
     inkscape:pageshadow="2"
     inkscape:zoom="0.35000001"
     inkscape:cx="-416.59044"
     inkscape:cy="285.75603"
     inkscape:document-units="px"
     inkscape:current-layer="layer1"
     showgrid="true"
     showguides="true"
     inkscape:guide-bbox="true"
     inkscape:window-width="1600"
     inkscape:window-height="842"
     inkscape:window-x="0"
     inkscape:window-y="0"
     inkscape:window-maximized="1"
     fit-margin-top="0"
     fit-margin-left="0"
     fit-margin-right="0"
     fit-margin-bottom="0">
    <inkscape:grid
       type="xygrid"
       id="grid6036"
       empspacing="5"
       visible="true"
       enabled="true"
       snapvisiblegridlinesonly="true"
       originx="1.2763932e-05"
       originy="0" />
    <sodipodi:guide
       orientation="1,0"
       position="1000,3120"
       id="guide6038" />
    <sodipodi:guide
       orientation="1,0"
       position="2000,2560"
       id="guide6040" />
    <sodipodi:guide
       orientation="0,1"
       position="1520,2000"
       id="guide6042" />
    <sodipodi:guide
       orientation="0,1"
       position="1440,1000"
       id="guide6044" />
    <sodipodi:guide
       orientation="0,1"
       position="2240,3000"
       id="guide6048" />
    <sodipodi:guide
       orientation="1,0"
       position="3000,2640"
       id="guide6050" />
    <sodipodi:guide
       position="1.2763932e-05,0"
       orientation="0,3000"
       id="guide6052" />
    <sodipodi:guide
       position="3000,0"
       orientation="-3000,0"
       id="guide6054" />
    <sodipodi:guide
       position="3000,3000"
       orientation="0,-3000"
       id="guide6056" />
    <sodipodi:guide
       position="1.2763932e-05,3000"
       orientation="3000,0"
       id="guide6058" />
    <sodipodi:guide
       orientation="0,1"
       position="-99.999987,2750"
       id="guide6578" />
  </sodipodi:namedview>
  <metadata
     id="metadata6033">
    <rdf:RDF>
      <cc:Work
         rdf:about="">
        <dc:format>image/svg+xml</dc:format>
        <dc:type
           rdf:resource="http://purl.org/dc/dcmitype/StillImage" />
        <dc:title></dc:title>
      </cc:Work>
    </rdf:RDF>
  </metadata>
  <g
     inkscape:label="Ebene 1"
     inkscape:groupmode="layer"
     id="layer1"
     transform="translate(1.2763932e-5,-1002.3622)">
    <rect
       style="fill:#999999;fill-opacity:1;fill-rule:nonzero;stroke:none"
       id="rect6046"
       width="50.000004"
       height="50"
       x="-7.7639315e-06"
       y="1002.3622" />
    <path
       sodipodi:nodetypes="cccccc"
       inkscape:connector-curvature="0"
       id="path4685"
       d="m 12.499993,1039.8622 -0.5,0.5 -1,1 -11.0000007639318,0 0,-1.5 z"
       style="fill:url(#linearGradient11283);fill-opacity:1;stroke:#000000;stroke-width:0;stroke-linecap:butt;stroke-linejoin:miter;stroke-miterlimit:4;stroke-dasharray:none;stroke-opacity:1" />
    <path
       style="fill:url(#linearGradient5951);fill-opacity:1;stroke:none"
       d="m 11.499993,1052.3622 1,0 -1.5,-1.5 -11.0000007639318,0 0,1.5 z"
       id="path5945"
       inkscape:connector-curvature="0"
       sodipodi:nodetypes="cccccc" />
    <path
       sodipodi:nodetypes="ccccccc"
       inkscape:connector-curvature="0"
       id="path6905-6"
       d="m 10.999993,1050.8622 0,-9.5 1,-1 0.5,-0.5 0,11.5 0,1 z"
       style="fill:url(#linearGradient9118);fill-opacity:1;stroke:none" />
  </g>
</svg>
