<?xml version="1.0" encoding="UTF-8" standalone="no"?>
<!-- Created with Inkscape (http://www.inkscape.org/) -->

<svg
   xmlns:dc="http://purl.org/dc/elements/1.1/"
   xmlns:cc="http://creativecommons.org/ns#"
   xmlns:rdf="http://www.w3.org/1999/02/22-rdf-syntax-ns#"
   xmlns:svg="http://www.w3.org/2000/svg"
   xmlns="http://www.w3.org/2000/svg"
   xmlns:xlink="http://www.w3.org/1999/xlink"
   xmlns:sodipodi="http://sodipodi.sourceforge.net/DTD/sodipodi-0.dtd"
   xmlns:inkscape="http://www.inkscape.org/namespaces/inkscape"
   width="50"
   height="50"
   id="svg6028"
   version="1.1"
   inkscape:version="0.91 r13725"
   sodipodi:docname="washed_concrete_bright_horizontal.svg"
   inkscape:export-filename="/home/silwol/Projects/Freenukum/graphics/wall_bottom.png"
   inkscape:export-xdpi="9"
   inkscape:export-ydpi="9">
  <defs
     id="defs6030">
    <linearGradient
       id="linearGradient4036">
      <stop
         id="stop4038"
         offset="0"
         style="stop-color:#757575;stop-opacity:1;" />
      <stop
         id="stop4041"
         offset="1"
         style="stop-color:#585858;stop-opacity:1;" />
    </linearGradient>
    <linearGradient
       id="linearGradient4024">
      <stop
         style="stop-color:#b9b9b9;stop-opacity:1;"
         offset="0"
         id="stop4026" />
      <stop
         style="stop-color:#e7e7e7;stop-opacity:1;"
         offset="1"
         id="stop4028" />
    </linearGradient>
    <linearGradient
       id="linearGradient4038">
      <stop
         id="stop4040"
         offset="0"
         style="stop-color:#838383;stop-opacity:1;" />
      <stop
         id="stop4042"
         offset="1"
         style="stop-color:#c6c6c6;stop-opacity:1;" />
    </linearGradient>
    <linearGradient
       id="linearGradient6236">
      <stop
         id="stop6238"
         offset="0"
         style="stop-color:#838383;stop-opacity:1;" />
      <stop
         id="stop6240"
         offset="1"
         style="stop-color:#c6c6c6;stop-opacity:1;" />
    </linearGradient>
    <linearGradient
       id="linearGradient4020-8">
      <stop
         id="stop4022-1"
         offset="0"
         style="stop-color:#666666;stop-opacity:1;" />
      <stop
         id="stop4024-7"
         offset="1"
         style="stop-color:#4a4a4a;stop-opacity:1;" />
    </linearGradient>
    <linearGradient
       id="linearGradient6247">
      <stop
         id="stop6249"
         offset="0"
         style="stop-color:#666666;stop-opacity:1;" />
      <stop
         id="stop6251"
         offset="1"
         style="stop-color:#4a4a4a;stop-opacity:1;" />
    </linearGradient>
    <linearGradient
       id="linearGradient4020">
      <stop
         id="stop4022"
         offset="0"
         style="stop-color:#666666;stop-opacity:1;" />
      <stop
         id="stop4024"
         offset="1"
         style="stop-color:#4a4a4a;stop-opacity:1;" />
    </linearGradient>
    <linearGradient
       inkscape:collect="always"
       xlink:href="#linearGradient4038-0"
       id="linearGradient6182"
       gradientUnits="userSpaceOnUse"
       gradientTransform="translate(0,52.3622)"
       x1="540"
       y1="0"
       x2="540"
       y2="20" />
    <linearGradient
       id="linearGradient4038-0">
      <stop
         id="stop4040-2"
         offset="0"
         style="stop-color:#838383;stop-opacity:1;" />
      <stop
         id="stop4042-3"
         offset="1"
         style="stop-color:#c6c6c6;stop-opacity:1;" />
    </linearGradient>
    <linearGradient
       inkscape:collect="always"
       xlink:href="#linearGradient4038-0-9"
       id="linearGradient4687"
       gradientUnits="userSpaceOnUse"
       gradientTransform="translate(1000,802.3622)"
       x1="-110"
       y1="2.8421709e-14"
       x2="-110"
       y2="30" />
    <linearGradient
       id="linearGradient4038-0-9">
      <stop
         id="stop4040-2-9"
         offset="0"
         style="stop-color:#838383;stop-opacity:1;" />
      <stop
         id="stop4042-3-4"
         offset="1"
         style="stop-color:#dcdcdc;stop-opacity:1;" />
    </linearGradient>
    <linearGradient
       inkscape:collect="always"
       xlink:href="#linearGradient4038-0-9"
       id="linearGradient4683"
       gradientUnits="userSpaceOnUse"
       gradientTransform="translate(500,802.3622)"
       x1="180"
       y1="1.4901161e-05"
       x2="180"
       y2="30" />
    <linearGradient
       id="linearGradient5809">
      <stop
         id="stop5811"
         offset="0"
         style="stop-color:#838383;stop-opacity:1;" />
      <stop
         id="stop5813"
         offset="1"
         style="stop-color:#dcdcdc;stop-opacity:1;" />
    </linearGradient>
    <linearGradient
       inkscape:collect="always"
       xlink:href="#linearGradient4038-8"
       id="linearGradient6219-9"
       gradientUnits="userSpaceOnUse"
       gradientTransform="translate(630,630)"
       x1="120"
       y1="292.36221"
       x2="140"
       y2="292.36221" />
    <linearGradient
       id="linearGradient4038-8">
      <stop
         id="stop4040-1"
         offset="0"
         style="stop-color:#838383;stop-opacity:1;" />
      <stop
         id="stop4042-6"
         offset="1"
         style="stop-color:#c6c6c6;stop-opacity:1;" />
    </linearGradient>
    <linearGradient
       inkscape:collect="always"
       xlink:href="#linearGradient4038-8"
       id="linearGradient6215-3"
       gradientUnits="userSpaceOnUse"
       gradientTransform="translate(130,630)"
       x1="120"
       y1="292.36221"
       x2="140"
       y2="292.36221" />
    <linearGradient
       id="linearGradient5820">
      <stop
         id="stop5822"
         offset="0"
         style="stop-color:#838383;stop-opacity:1;" />
      <stop
         id="stop5824"
         offset="1"
         style="stop-color:#c6c6c6;stop-opacity:1;" />
    </linearGradient>
    <linearGradient
       inkscape:collect="always"
       xlink:href="#linearGradient4020-8-3"
       id="linearGradient6179-9"
       gradientUnits="userSpaceOnUse"
       gradientTransform="translate(-130,630.00002)"
       x1="850"
       y1="292.36218"
       x2="880"
       y2="292.36218" />
    <linearGradient
       id="linearGradient4020-8-3">
      <stop
         id="stop4022-1-3"
         offset="0"
         style="stop-color:#666666;stop-opacity:1;" />
      <stop
         id="stop4024-7-4"
         offset="1"
         style="stop-color:#4a4a4a;stop-opacity:1;" />
    </linearGradient>
    <linearGradient
       gradientTransform="translate(-630,630.00002)"
       y2="292.36218"
       x2="880"
       y1="292.36218"
       x1="860"
       gradientUnits="userSpaceOnUse"
       id="linearGradient6158-6"
       xlink:href="#linearGradient4020-8-3"
       inkscape:collect="always" />
    <linearGradient
       id="linearGradient5831">
      <stop
         id="stop5833"
         offset="0"
         style="stop-color:#666666;stop-opacity:1;" />
      <stop
         id="stop5835"
         offset="1"
         style="stop-color:#4a4a4a;stop-opacity:1;" />
    </linearGradient>
    <linearGradient
       inkscape:collect="always"
       xlink:href="#linearGradient4020-5"
       id="linearGradient6211-1"
       gradientUnits="userSpaceOnUse"
       gradientTransform="translate(-67.979695,141.41625)"
       x1="520"
       y1="882.36218"
       x2="520"
       y2="912.36218" />
    <linearGradient
       id="linearGradient4020-5">
      <stop
         id="stop4022-6"
         offset="0"
         style="stop-color:#666666;stop-opacity:1;" />
      <stop
         id="stop4024-1"
         offset="1"
         style="stop-color:#4a4a4a;stop-opacity:1;" />
    </linearGradient>
    <linearGradient
       inkscape:collect="always"
       xlink:href="#linearGradient4038-0-9"
       id="linearGradient6182-7"
       gradientUnits="userSpaceOnUse"
       gradientTransform="translate(0,52.3622)"
       x1="180"
       y1="1.4901161e-05"
       x2="180"
       y2="30" />
    <linearGradient
       id="linearGradient5842">
      <stop
         id="stop5844"
         offset="0"
         style="stop-color:#838383;stop-opacity:1;" />
      <stop
         id="stop5846"
         offset="1"
         style="stop-color:#dcdcdc;stop-opacity:1;" />
    </linearGradient>
    <linearGradient
       y2="30"
       x2="180"
       y1="1.4901161e-05"
       x1="180"
       gradientUnits="userSpaceOnUse"
       id="linearGradient5856"
       xlink:href="#linearGradient4038-0-9"
       inkscape:collect="always"
       gradientTransform="translate(0,802.3622)" />
    <linearGradient
       inkscape:collect="always"
       xlink:href="#linearGradient4020-5"
       id="linearGradient5949"
       gradientUnits="userSpaceOnUse"
       gradientTransform="translate(-70,140)"
       x1="280"
       y1="882.36218"
       x2="280"
       y2="912.36218" />
    <linearGradient
       inkscape:collect="always"
       xlink:href="#linearGradient4020-5"
       id="linearGradient5951"
       gradientUnits="userSpaceOnUse"
       gradientTransform="matrix(0.44,0,0,1,529.2,140)"
       x1="717.72729"
       y1="882.36218"
       x2="717.72729"
       y2="912.36218" />
  </defs>
  <sodipodi:namedview
     id="base"
     pagecolor="#ffffff"
     bordercolor="#666666"
     borderopacity="1.0"
     inkscape:pageopacity="0.0"
     inkscape:pageshadow="2"
     inkscape:zoom="0.663"
     inkscape:cx="476.6214"
     inkscape:cy="500"
     inkscape:document-units="px"
     inkscape:current-layer="g7771"
     showgrid="true"
     showguides="true"
     inkscape:guide-bbox="true"
     inkscape:window-width="1600"
     inkscape:window-height="842"
     inkscape:window-x="0"
     inkscape:window-y="0"
     inkscape:window-maximized="1"
     fit-margin-top="0"
     fit-margin-left="0"
     fit-margin-right="0"
     fit-margin-bottom="0">
    <inkscape:grid
       type="xygrid"
       id="grid6036"
       empspacing="5"
       visible="true"
       enabled="true"
       snapvisiblegridlinesonly="true"
       originx="-1.7382813e-05"
       originy="1e-06" />
    <sodipodi:guide
       orientation="1,0"
       position="999.99998,3120"
       id="guide6038" />
    <sodipodi:guide
       orientation="1,0"
       position="2000,2560"
       id="guide6040" />
    <sodipodi:guide
       orientation="0,1"
       position="1520,2000"
       id="guide6042" />
    <sodipodi:guide
       orientation="0,1"
       position="1440,1000"
       id="guide6044" />
    <sodipodi:guide
       orientation="0,1"
       position="2240,3000"
       id="guide6048" />
    <sodipodi:guide
       orientation="1,0"
       position="3000,2640"
       id="guide6050" />
    <sodipodi:guide
       position="-1.7382813e-05,1e-06"
       orientation="0,3000"
       id="guide6052" />
    <sodipodi:guide
       position="3000,1e-06"
       orientation="-3000,0"
       id="guide6054" />
    <sodipodi:guide
       position="3000,3000"
       orientation="0,-3000"
       id="guide6056" />
    <sodipodi:guide
       position="-1.7382813e-05,3000"
       orientation="3000,0"
       id="guide6058" />
    <sodipodi:guide
       orientation="0,1"
       position="-100.00002,2750"
       id="guide6578" />
  </sodipodi:namedview>
  <metadata
     id="metadata6033">
    <rdf:RDF>
      <cc:Work
         rdf:about="">
        <dc:format>image/svg+xml</dc:format>
        <dc:type
           rdf:resource="http://purl.org/dc/dcmitype/StillImage" />
        <dc:title></dc:title>
      </cc:Work>
    </rdf:RDF>
  </metadata>
  <g
     inkscape:label="Ebene 1"
     inkscape:groupmode="layer"
     id="layer1"
     transform="translate(-1.7382813e-5,-1002.3622)">
    <g
       id="g7479">
      <g
         id="g7771"
         transform="matrix(0,1,-1,0,1052.3622,52.362201)">
        <rect
           style="fill:#b3b3b3;fill-opacity:1;fill-rule:nonzero;stroke:none"
           id="rect6046"
           width="50"
           height="50"
           x="950"
           y="1002.3622" />
        <ellipse
           style="fill:#ffffff;fill-opacity:1;stroke:none"
           id="path8870"
           transform="matrix(0,-1,1,0,0,0)"
           cx="-1049.3622"
           cy="952"
           rx="0.99999994"
           ry="1" />
        <use
           id="use8972"
           xlink:href="#path8870"
           x="0"
           y="0"
           width="1000"
           height="1000"
           transform="translate(15.859884,-16.536309)" />
        <use
           id="use8974"
           xlink:href="#path8870"
           x="0"
           y="0"
           width="1000"
           height="1000"
           transform="translate(13.951081,-3.8097969)" />
        <use
           id="use8976"
           xlink:href="#path8870"
           x="0"
           y="0"
           width="1000"
           height="1000"
           transform="translate(4.0556192,-19.068333)" />
        <use
           id="use8978"
           xlink:href="#path8870"
           x="0"
           y="0"
           width="1000"
           height="1000"
           transform="translate(2.2270566,-9.5372809)" />
        <use
           id="use8980"
           xlink:href="#path8870"
           x="0"
           y="0"
           width="1000"
           height="1000"
           transform="translate(15.588045,-6.5591431)" />
        <use
           id="use8982"
           xlink:href="#path8870"
           x="0"
           y="0"
           width="1000"
           height="1000"
           transform="translate(13.773822,-17.779513)" />
        <use
           id="use8984"
           xlink:href="#path8870"
           x="0"
           y="0"
           width="1000"
           height="1000"
           transform="translate(14.039104,-28.667385)" />
        <use
           id="use8986"
           xlink:href="#path8870"
           x="0"
           y="0"
           width="1000"
           height="1000"
           transform="translate(9.9602475,-14.811847)" />
        <use
           id="use8988"
           xlink:href="#path8870"
           x="0"
           y="0"
           width="1000"
           height="1000"
           transform="translate(31.722255,-32.41931)" />
        <use
           id="use8990"
           xlink:href="#path8870"
           x="0"
           y="0"
           width="1000"
           height="1000"
           transform="translate(19.956769,-24.507116)" />
        <use
           id="use8992"
           xlink:href="#path8870"
           x="0"
           y="0"
           width="1000"
           height="1000"
           transform="translate(20.592432,-12.669456)" />
        <use
           id="use8994"
           xlink:href="#path8870"
           x="0"
           y="0"
           width="1000"
           height="1000"
           transform="translate(33.562201,-38.40522)" />
        <use
           id="use8996"
           xlink:href="#path8870"
           x="0"
           y="0"
           width="1000"
           height="1000"
           transform="translate(28.482518,-21.143761)" />
        <use
           id="use8998"
           xlink:href="#path8870"
           x="0"
           y="0"
           width="1000"
           height="1000"
           transform="translate(30.591141,-29.442443)" />
        <use
           id="use9000"
           xlink:href="#path8870"
           x="0"
           y="0"
           width="1000"
           height="1000"
           transform="translate(5.0645745,-21.14804)" />
        <use
           id="use9002"
           xlink:href="#path8870"
           x="0"
           y="0"
           width="1000"
           height="1000"
           transform="translate(24.08929,-30.056207)" />
        <use
           id="use9004"
           xlink:href="#path8870"
           x="0"
           y="0"
           width="1000"
           height="1000"
           transform="translate(22.569219,-39.562732)" />
        <use
           id="use9006"
           xlink:href="#path8870"
           x="0"
           y="0"
           width="1000"
           height="1000"
           transform="translate(9.907745,-26.891294)" />
        <use
           id="use9008"
           xlink:href="#path8870"
           x="0"
           y="0"
           width="1000"
           height="1000"
           transform="translate(18.702958,-45.242553)" />
        <use
           id="use9010"
           xlink:href="#path8870"
           x="0"
           y="0"
           width="1000"
           height="1000"
           transform="translate(38.716749,-22.522642)" />
        <use
           id="use9012"
           xlink:href="#path8870"
           x="0"
           y="0"
           width="1000"
           height="1000"
           transform="translate(10.699286,-35.936911)" />
        <use
           id="use9014"
           xlink:href="#path8870"
           x="0"
           y="0"
           width="1000"
           height="1000"
           transform="translate(12.237153,-29.315799)" />
        <use
           id="use9016"
           xlink:href="#path8870"
           x="0"
           y="0"
           width="1000"
           height="1000"
           transform="translate(23.294361,-30.425913)" />
        <use
           id="use9018"
           xlink:href="#path8870"
           x="0"
           y="0"
           width="1000"
           height="1000"
           transform="translate(5.6339385,-34.817566)" />
        <use
           id="use9020"
           xlink:href="#path8870"
           x="0"
           y="0"
           width="1000"
           height="1000"
           transform="translate(5.1117565,-32.553882)" />
        <use
           id="use9022"
           xlink:href="#path8870"
           x="0"
           y="0"
           width="1000"
           height="1000"
           transform="translate(16.157444,-43.889284)" />
        <use
           id="use9024"
           xlink:href="#path8870"
           x="0"
           y="0"
           width="1000"
           height="1000"
           transform="translate(13.10924,-28.427782)" />
        <use
           id="use9026"
           xlink:href="#path8870"
           x="0"
           y="0"
           width="1000"
           height="1000"
           transform="translate(33.729842,-25.31622)" />
        <use
           id="use9028"
           xlink:href="#path8870"
           x="0"
           y="0"
           width="1000"
           height="1000"
           transform="translate(18.594356,-29.054202)" />
        <use
           id="use9030"
           xlink:href="#path8870"
           x="0"
           y="0"
           width="1000"
           height="1000"
           transform="translate(28.437931,-25.829223)" />
        <use
           id="use9032"
           xlink:href="#path8870"
           x="0"
           y="0"
           width="1000"
           height="1000"
           transform="translate(25.621539,-19.853537)" />
        <use
           id="use9034"
           xlink:href="#path8870"
           x="0"
           y="0"
           width="1000"
           height="1000"
           transform="translate(36.188137,-29.79945)" />
        <use
           id="use9036"
           xlink:href="#path8870"
           x="0"
           y="0"
           width="1000"
           height="1000"
           transform="translate(41.938805,-16.767293)" />
        <use
           id="use9038"
           xlink:href="#path8870"
           x="0"
           y="0"
           width="1000"
           height="1000"
           transform="translate(28.80889,-18.388514)" />
        <use
           id="use9040"
           xlink:href="#path8870"
           x="0"
           y="0"
           width="1000"
           height="1000"
           transform="translate(19.655806,0.7304308)" />
        <use
           id="use9042"
           xlink:href="#path8870"
           x="0"
           y="0"
           width="1000"
           height="1000"
           transform="translate(32.346266,-27.274059)" />
        <use
           id="use9044"
           xlink:href="#path8870"
           x="0"
           y="0"
           width="1000"
           height="1000"
           transform="translate(40.916989,-14.303094)" />
        <use
           id="use9046"
           xlink:href="#path8870"
           x="0"
           y="0"
           width="1000"
           height="1000"
           transform="translate(34.924095,-15.238855)" />
        <use
           id="use9048"
           xlink:href="#path8870"
           x="0"
           y="0"
           width="1000"
           height="1000"
           transform="translate(45.69807,-1.6793455)" />
        <use
           id="use9050"
           xlink:href="#path8870"
           x="0"
           y="0"
           width="1000"
           height="1000"
           transform="translate(42.005061,-3.1400305)" />
        <use
           id="use9052"
           xlink:href="#path8870"
           x="0"
           y="0"
           width="1000"
           height="1000"
           transform="translate(39.492631,-6.864516)" />
        <use
           id="use9054"
           xlink:href="#path8870"
           x="0"
           y="0"
           width="1000"
           height="1000"
           transform="translate(31.066575,-4.7734747)" />
        <use
           id="use9056"
           xlink:href="#path8870"
           x="0"
           y="0"
           width="1000"
           height="1000"
           transform="translate(30.222294,-10.823479)" />
        <use
           id="use9058"
           xlink:href="#path8870"
           x="0"
           y="0"
           width="1000"
           height="1000"
           transform="translate(37.91599,-16.89464)" />
        <use
           id="use9060"
           xlink:href="#path8870"
           x="0"
           y="0"
           width="1000"
           height="1000"
           transform="translate(26.414864,-17.926503)" />
        <use
           id="use9062"
           xlink:href="#path8870"
           x="0"
           y="0"
           width="1000"
           height="1000"
           transform="translate(6.2281575,-6.5549169)" />
        <use
           id="use9064"
           xlink:href="#path8870"
           x="0"
           y="0"
           width="1000"
           height="1000"
           transform="translate(17.942824,-15.252889)" />
        <use
           id="use9066"
           xlink:href="#path8870"
           x="0"
           y="0"
           width="1000"
           height="1000"
           transform="translate(12.440674,-7.3422459)" />
        <use
           id="use9068"
           xlink:href="#path8870"
           x="0"
           y="0"
           width="1000"
           height="1000"
           transform="translate(22,2)" />
        <use
           id="use9070"
           xlink:href="#path8870"
           x="0"
           y="0"
           width="1000"
           height="1000"
           transform="translate(12.753494,-16.429319)" />
        <use
           id="use9072"
           xlink:href="#path8870"
           x="0"
           y="0"
           width="1000"
           height="1000"
           transform="translate(13.130358,1.3919437)" />
        <use
           id="use9074"
           xlink:href="#path8870"
           x="0"
           y="0"
           width="1000"
           height="1000"
           transform="translate(10.631778,-10.150917)" />
        <use
           id="use9076"
           xlink:href="#path8870"
           x="0"
           y="0"
           width="1000"
           height="1000"
           transform="translate(0.3509976,-20.597483)" />
        <use
           id="use9102"
           xlink:href="#path8870"
           x="0"
           y="0"
           width="1000"
           height="1000"
           transform="translate(27.941852,-33.414864)" />
        <use
           id="use9104"
           xlink:href="#path8870"
           x="0"
           y="0"
           width="1000"
           height="1000"
           transform="translate(24.21543,-36.832039)" />
        <use
           id="use9106"
           xlink:href="#path8870"
           x="0"
           y="0"
           width="1000"
           height="1000"
           transform="translate(36.223846,-36.178541)" />
        <use
           id="use9108"
           xlink:href="#path8870"
           x="0"
           y="0"
           width="1000"
           height="1000"
           transform="translate(40.817286,-33.068885)" />
        <use
           id="use9110"
           xlink:href="#path8870"
           x="0"
           y="0"
           width="1000"
           height="1000"
           transform="translate(33.240529,-34.65619)" />
        <use
           id="use9112"
           xlink:href="#path8870"
           x="0"
           y="0"
           width="1000"
           height="1000"
           transform="translate(46.795408,-37.74413)" />
        <use
           id="use9114"
           xlink:href="#path8870"
           x="0"
           y="0"
           width="1000"
           height="1000"
           transform="translate(40.689163,-34.469881)" />
        <use
           id="use9116"
           xlink:href="#path8870"
           x="0"
           y="0"
           width="1000"
           height="1000"
           transform="translate(39.621344,-37.247479)" />
        <use
           id="use9118"
           xlink:href="#path8870"
           x="0"
           y="0"
           width="1000"
           height="1000"
           transform="translate(44.287373,-34.653581)" />
        <use
           id="use9120"
           xlink:href="#path8870"
           x="0"
           y="0"
           width="1000"
           height="1000"
           transform="translate(35.098404,-30.487304)" />
        <use
           id="use9122"
           xlink:href="#path8870"
           x="0"
           y="0"
           width="1000"
           height="1000"
           transform="translate(40.21624,-30.031355)" />
        <use
           id="use9124"
           xlink:href="#path8870"
           x="0"
           y="0"
           width="1000"
           height="1000"
           transform="translate(34.690977,-32.740212)" />
        <use
           id="use9126"
           xlink:href="#path8870"
           x="0"
           y="0"
           width="1000"
           height="1000"
           transform="translate(42.783986,-9.1803128)" />
        <use
           id="use9128"
           xlink:href="#path8870"
           x="0"
           y="0"
           width="1000"
           height="1000"
           transform="translate(29.362434,-45.828363)" />
        <use
           id="use9130"
           xlink:href="#path8870"
           x="0"
           y="0"
           width="1000"
           height="1000"
           transform="translate(32.548504,-20.033368)" />
        <use
           id="use9132"
           xlink:href="#path8870"
           x="0"
           y="0"
           width="1000"
           height="1000"
           transform="translate(36.169215,-38.804944)" />
        <use
           id="use9134"
           xlink:href="#path8870"
           x="0"
           y="0"
           width="1000"
           height="1000"
           transform="translate(42.229216,-26.873959)" />
        <use
           id="use9136"
           xlink:href="#path8870"
           x="0"
           y="0"
           width="1000"
           height="1000"
           transform="translate(36.598864,-28.285741)" />
        <use
           id="use9138"
           xlink:href="#path8870"
           x="0"
           y="0"
           width="1000"
           height="1000"
           transform="translate(36.396458,-29.735885)" />
        <use
           id="use9140"
           xlink:href="#path8870"
           x="0"
           y="0"
           width="1000"
           height="1000"
           transform="translate(38.890088,-41.924111)" />
        <use
           id="use9142"
           xlink:href="#path8870"
           x="0"
           y="0"
           width="1000"
           height="1000"
           transform="translate(44.686121,-42.723112)" />
        <use
           id="use9144"
           xlink:href="#path8870"
           x="0"
           y="0"
           width="1000"
           height="1000"
           transform="translate(46,-26.999999)" />
        <use
           id="use9146"
           xlink:href="#path8870"
           x="0"
           y="0"
           width="1000"
           height="1000"
           transform="translate(42.653376,-38.275238)" />
        <use
           id="use9148"
           xlink:href="#path8870"
           x="0"
           y="0"
           width="1000"
           height="1000"
           transform="translate(36.558285,-33.293191)" />
        <use
           id="use9150"
           xlink:href="#path8870"
           x="0"
           y="0"
           width="1000"
           height="1000"
           transform="translate(24,-41.999999)" />
        <use
           id="use9152"
           xlink:href="#path8870"
           x="0"
           y="0"
           width="1000"
           height="1000"
           transform="translate(15.478116,-42.154179)" />
        <use
           id="use9154"
           xlink:href="#path8870"
           x="0"
           y="0"
           width="1000"
           height="1000"
           transform="translate(6.639129,-30.076742)" />
        <use
           id="use9156"
           xlink:href="#path8870"
           x="0"
           y="0"
           width="1000"
           height="1000"
           transform="translate(15.94027,-26.576382)" />
        <use
           id="use9158"
           xlink:href="#path8870"
           x="0"
           y="0"
           width="1000"
           height="1000"
           transform="translate(15.081629,-38.162548)" />
        <use
           id="use9160"
           xlink:href="#path8870"
           x="0"
           y="0"
           width="1000"
           height="1000"
           transform="translate(45.217487,-19.778774)" />
        <use
           id="use9162"
           xlink:href="#path8870"
           x="0"
           y="0"
           width="1000"
           height="1000"
           transform="translate(12.234693,-24.580054)" />
        <use
           id="use9164"
           xlink:href="#path8870"
           x="0"
           y="0"
           width="1000"
           height="1000"
           transform="translate(4.2496924,-32.502813)" />
        <use
           id="use9166"
           xlink:href="#path8870"
           x="0"
           y="0"
           width="1000"
           height="1000"
           transform="translate(25.714286,-13.571428)" />
        <use
           id="use9168"
           xlink:href="#path8870"
           x="0"
           y="0"
           width="1000"
           height="1000"
           transform="translate(10.212162,-33.894585)" />
        <use
           id="use9170"
           xlink:href="#path8870"
           x="0"
           y="0"
           width="1000"
           height="1000"
           transform="translate(21.35012,-43.414677)" />
        <use
           id="use9172"
           xlink:href="#path8870"
           x="0"
           y="0"
           width="1000"
           height="1000"
           transform="translate(16.195491,-38.175614)" />
        <use
           id="use9174"
           xlink:href="#path8870"
           x="0"
           y="0"
           width="1000"
           height="1000"
           transform="translate(21.026943,-33.235556)" />
        <use
           id="use9176"
           xlink:href="#path8870"
           x="0"
           y="0"
           width="1000"
           height="1000"
           transform="translate(9.622497,-28.702878)" />
        <use
           id="use9178"
           xlink:href="#path8870"
           x="0"
           y="0"
           width="1000"
           height="1000"
           transform="translate(35.013022,-43.385078)" />
        <use
           id="use9180"
           xlink:href="#path8870"
           x="0"
           y="0"
           width="1000"
           height="1000"
           transform="translate(10.627793,-45.83677)" />
        <use
           id="use9182"
           xlink:href="#path8870"
           x="0"
           y="0"
           width="1000"
           height="1000"
           transform="translate(14.499916,-36.946734)" />
        <use
           id="use9184"
           xlink:href="#path8870"
           x="0"
           y="0"
           width="1000"
           height="1000"
           transform="translate(2.4111939,-31.540644)" />
        <use
           id="use9186"
           xlink:href="#path8870"
           x="0"
           y="0"
           width="1000"
           height="1000"
           transform="translate(16.288765,-21.261875)" />
        <use
           id="use9188"
           xlink:href="#path8870"
           x="0"
           y="0"
           width="1000"
           height="1000"
           transform="translate(3.6745091,-35.555119)" />
        <use
           id="use9190"
           xlink:href="#path8870"
           x="0"
           y="0"
           width="1000"
           height="1000"
           transform="translate(13.818133,-39.974434)" />
        <use
           id="use9192"
           xlink:href="#path8870"
           x="0"
           y="0"
           width="1000"
           height="1000"
           transform="translate(18.424436,-36.987331)" />
        <use
           id="use9194"
           xlink:href="#path8870"
           x="0"
           y="0"
           width="1000"
           height="1000"
           transform="translate(4,-27.999999)" />
        <use
           id="use9196"
           xlink:href="#path8870"
           x="0"
           y="0"
           width="1000"
           height="1000"
           transform="translate(10.417015,-28.251812)" />
        <use
           id="use9198"
           xlink:href="#path8870"
           x="0"
           y="0"
           width="1000"
           height="1000"
           transform="translate(6.3843,-34.681015)" />
        <use
           id="use9200"
           xlink:href="#path8870"
           x="0"
           y="0"
           width="1000"
           height="1000"
           transform="translate(5.839672,-39.572156)" />
        <use
           id="use9202"
           xlink:href="#path8870"
           x="0"
           y="0"
           width="1000"
           height="1000"
           transform="translate(0.43461062,-14.628029)" />
        <use
           id="use9204"
           xlink:href="#path8870"
           x="0"
           y="0"
           width="1000"
           height="1000"
           transform="translate(2.436034,-41.967841)" />
        <use
           id="use9206"
           xlink:href="#path8870"
           x="0"
           y="0"
           width="1000"
           height="1000"
           transform="translate(8.872045,-31.292748)" />
        <use
           id="use9208"
           xlink:href="#path8870"
           x="0"
           y="0"
           width="1000"
           height="1000"
           transform="translate(2.6284705,-45.842576)" />
        <use
           id="use9210"
           xlink:href="#path8870"
           x="0"
           y="0"
           width="1000"
           height="1000"
           transform="translate(15.229341,-32.683355)" />
        <use
           id="use9212"
           xlink:href="#path8870"
           x="0"
           y="0"
           width="1000"
           height="1000"
           transform="translate(7.2449065,-44.90833)" />
        <use
           id="use9214"
           xlink:href="#path8870"
           x="0"
           y="0"
           width="1000"
           height="1000"
           transform="translate(8.074354,-38.433261)" />
        <use
           id="use9216"
           xlink:href="#path8870"
           x="0"
           y="0"
           width="1000"
           height="1000"
           transform="translate(2.0404029,-26.558836)" />
        <use
           id="use9218"
           xlink:href="#path8870"
           x="0"
           y="0"
           width="1000"
           height="1000"
           transform="translate(13.445473,-11.582637)" />
        <use
           id="use9220"
           xlink:href="#path8870"
           x="0"
           y="0"
           width="1000"
           height="1000"
           transform="translate(17.582017,-39.320408)" />
        <use
           id="use9222"
           xlink:href="#path8870"
           x="0"
           y="0"
           width="1000"
           height="1000"
           transform="translate(5.2006305,-15.158535)" />
        <use
           id="use9224"
           xlink:href="#path8870"
           x="0"
           y="0"
           width="1000"
           height="1000"
           transform="translate(20.82382,-20.364679)" />
        <use
           id="use9226"
           xlink:href="#path8870"
           x="0"
           y="0"
           width="1000"
           height="1000"
           transform="translate(26.352979,-7.6507952)" />
        <use
           id="use9228"
           xlink:href="#path8870"
           x="0"
           y="0"
           width="1000"
           height="1000"
           transform="translate(32.713689,-6.927015)" />
        <use
           id="use9230"
           xlink:href="#path8870"
           x="0"
           y="0"
           width="1000"
           height="1000"
           transform="translate(4,-0.99999998)" />
        <use
           id="use9232"
           xlink:href="#path8870"
           x="0"
           y="0"
           width="1000"
           height="1000"
           transform="translate(7.6447815,-3.708505)" />
        <use
           id="use9234"
           xlink:href="#path8870"
           x="0"
           y="0"
           width="1000"
           height="1000"
           transform="translate(20.596624,-2.3406451)" />
        <use
           id="use9236"
           xlink:href="#path8870"
           x="0"
           y="0"
           width="1000"
           height="1000"
           transform="translate(16.206344,1.7255164)" />
        <use
           id="use9238"
           xlink:href="#path8870"
           x="0"
           y="0"
           width="1000"
           height="1000"
           transform="translate(10.492473,-4.8034932)" />
        <use
           id="use9240"
           xlink:href="#path8870"
           x="0"
           y="0"
           width="1000"
           height="1000"
           transform="translate(28,0)" />
        <use
           id="use9242"
           xlink:href="#path8870"
           x="0"
           y="0"
           width="1000"
           height="1000"
           transform="translate(37.382179,-11.896909)" />
        <use
           id="use9244"
           xlink:href="#path8870"
           x="0"
           y="0"
           width="1000"
           height="1000"
           transform="translate(26.366445,-8.2692945)" />
        <use
           id="use9246"
           xlink:href="#path8870"
           x="0"
           y="0"
           width="1000"
           height="1000"
           transform="translate(27.114338,-23.025844)" />
        <ellipse
           transform="matrix(0,-1,1,0,0,0)"
           style="fill:#404040;fill-opacity:1;stroke:none"
           id="path8870-9"
           cx="-1044.3622"
           cy="955"
           rx="0.99999994"
           ry="1" />
        <use
           id="use9266"
           xlink:href="#path8870-9"
           x="0"
           y="0"
           width="1000"
           height="1000"
           transform="translate(9.065027,-27.40872)" />
        <use
           id="use9268"
           xlink:href="#path8870-9"
           x="0"
           y="0"
           width="1000"
           height="1000"
           transform="translate(11.78528,-24.017534)" />
        <use
           id="use9270"
           xlink:href="#path8870-9"
           x="0"
           y="0"
           width="1000"
           height="1000"
           transform="translate(16.306832,6.4399634)" />
        <use
           id="use9272"
           xlink:href="#path8870-9"
           x="0"
           y="0"
           width="1000"
           height="1000"
           transform="translate(24.955766,-5.8305293)" />
        <use
           id="use9274"
           xlink:href="#path8870-9"
           x="0"
           y="0"
           width="1000"
           height="1000"
           transform="translate(6.669779,-23.096527)" />
        <use
           id="use9276"
           xlink:href="#path8870-9"
           x="0"
           y="0"
           width="1000"
           height="1000"
           transform="translate(0.7521825,-20.425439)" />
        <use
           id="use9278"
           xlink:href="#path8870-9"
           x="0"
           y="0"
           width="1000"
           height="1000"
           transform="translate(13.710396,-2.0679956)" />
        <use
           id="use9280"
           xlink:href="#path8870-9"
           x="0"
           y="0"
           width="1000"
           height="1000"
           transform="translate(17.716692,-1.6048235)" />
        <use
           id="use9282"
           xlink:href="#path8870-9"
           x="0"
           y="0"
           width="1000"
           height="1000"
           transform="translate(27.379773,-0.04726326)" />
        <use
           id="use9284"
           xlink:href="#path8870-9"
           x="0"
           y="0"
           width="1000"
           height="1000"
           transform="translate(32.896036,-25.413662)" />
        <use
           id="use9286"
           xlink:href="#path8870-9"
           x="0"
           y="0"
           width="1000"
           height="1000"
           transform="translate(42.303925,-10.675185)" />
        <use
           id="use9288"
           xlink:href="#path8870-9"
           x="0"
           y="0"
           width="1000"
           height="1000"
           transform="translate(36.149727,-24.114776)" />
        <use
           id="use9290"
           xlink:href="#path8870-9"
           x="0"
           y="0"
           width="1000"
           height="1000"
           transform="translate(16.446121,-8.621953)" />
        <use
           id="use9292"
           xlink:href="#path8870-9"
           x="0"
           y="0"
           width="1000"
           height="1000"
           transform="translate(13.204869,-33.27537)" />
        <use
           id="use9294"
           xlink:href="#path8870-9"
           x="0"
           y="0"
           width="1000"
           height="1000"
           transform="translate(31.623908,-14.569248)" />
        <use
           id="use9296"
           xlink:href="#path8870-9"
           x="0"
           y="0"
           width="1000"
           height="1000"
           transform="translate(20.615149,-15.34132)" />
        <use
           id="use9298"
           xlink:href="#path8870-9"
           x="0"
           y="0"
           width="1000"
           height="1000"
           transform="translate(43.058432,-6.8659237)" />
        <use
           id="use9300"
           xlink:href="#path8870-9"
           x="0"
           y="0"
           width="1000"
           height="1000"
           transform="translate(30.898186,-19.787605)" />
        <use
           id="use9302"
           xlink:href="#path8870-9"
           x="0"
           y="0"
           width="1000"
           height="1000"
           transform="translate(14.946874,-18.26322)" />
        <use
           id="use9304"
           xlink:href="#path8870-9"
           x="0"
           y="0"
           width="1000"
           height="1000"
           transform="translate(4.8065473,-13.915911)" />
        <use
           id="use9306"
           xlink:href="#path8870-9"
           x="0"
           y="0"
           width="1000"
           height="1000"
           transform="translate(19.484174,-17.987871)" />
        <use
           id="use9308"
           xlink:href="#path8870-9"
           x="0"
           y="0"
           width="1000"
           height="1000"
           transform="translate(26.214987,-35.102653)" />
        <use
           id="use9310"
           xlink:href="#path8870-9"
           x="0"
           y="0"
           width="1000"
           height="1000"
           transform="translate(43.632696,-37.130949)" />
        <use
           id="use9312"
           xlink:href="#path8870-9"
           x="0"
           y="0"
           width="1000"
           height="1000"
           transform="translate(18.358405,-23.288668)" />
        <use
           id="use9314"
           xlink:href="#path8870-9"
           x="0"
           y="0"
           width="1000"
           height="1000"
           transform="translate(32.238928,-36.566911)" />
        <use
           id="use9316"
           xlink:href="#path8870-9"
           x="0"
           y="0"
           width="1000"
           height="1000"
           transform="translate(40,-16)" />
        <use
           id="use9318"
           xlink:href="#path8870-9"
           x="0"
           y="0"
           width="1000"
           height="1000"
           transform="translate(23,-40.999999)" />
        <use
           id="use9320"
           xlink:href="#path8870-9"
           x="0"
           y="0"
           width="1000"
           height="1000"
           transform="translate(14.697705,-7.596899)" />
        <use
           id="use9322"
           xlink:href="#path8870-9"
           x="0"
           y="0"
           width="1000"
           height="1000"
           transform="translate(24.429604,-30.266815)" />
        <use
           id="use9324"
           xlink:href="#path8870-9"
           x="0"
           y="0"
           width="1000"
           height="1000"
           transform="translate(16.455946,-25.623053)" />
        <use
           id="use9326"
           xlink:href="#path8870-9"
           x="0"
           y="0"
           width="1000"
           height="1000"
           transform="translate(25.266783,-22.286574)" />
        <use
           id="use9328"
           xlink:href="#path8870-9"
           x="0"
           y="0"
           width="1000"
           height="1000"
           transform="translate(39,-6.9999999)" />
        <use
           id="use9330"
           xlink:href="#path8870-9"
           x="0"
           y="0"
           width="1000"
           height="1000"
           transform="translate(22.953343,-23.491781)" />
        <use
           id="use9332"
           xlink:href="#path8870-9"
           x="0"
           y="0"
           width="1000"
           height="1000"
           transform="translate(19.678096,-1.7563798)" />
        <use
           id="use9334"
           xlink:href="#path8870-9"
           x="0"
           y="0"
           width="1000"
           height="1000"
           transform="translate(44,-13)" />
        <use
           id="use9336"
           xlink:href="#path8870-9"
           x="0"
           y="0"
           width="1000"
           height="1000"
           transform="translate(33.315177,-7.9473749)" />
        <use
           id="use9338"
           xlink:href="#path8870-9"
           x="0"
           y="0"
           width="1000"
           height="1000"
           transform="translate(34.489062,-9.9380497)" />
        <use
           id="use9340"
           xlink:href="#path8870-9"
           x="0"
           y="0"
           width="1000"
           height="1000"
           transform="translate(36.915464,5.5430553)" />
        <use
           id="use9342"
           xlink:href="#path8870-9"
           x="0"
           y="0"
           width="1000"
           height="1000"
           transform="translate(26.988762,-19.836856)" />
        <use
           id="use9344"
           xlink:href="#path8870-9"
           x="0"
           y="0"
           width="1000"
           height="1000"
           transform="translate(25.420486,-4.3416686)" />
        <use
           id="use9346"
           xlink:href="#path8870-9"
           x="0"
           y="0"
           width="1000"
           height="1000"
           transform="translate(27.158093,-14.685935)" />
        <use
           id="use9348"
           xlink:href="#path8870-9"
           x="0"
           y="0"
           width="1000"
           height="1000"
           transform="translate(15.68612,-12.793753)" />
        <use
           id="use9350"
           xlink:href="#path8870-9"
           x="0"
           y="0"
           width="1000"
           height="1000"
           transform="translate(29.511238,-33.450549)" />
        <use
           id="use9352"
           xlink:href="#path8870-9"
           x="0"
           y="0"
           width="1000"
           height="1000"
           transform="translate(39.789349,-39.508225)" />
        <use
           id="use9354"
           xlink:href="#path8870-9"
           x="0"
           y="0"
           width="1000"
           height="1000"
           transform="translate(33.963875,-23.408121)" />
        <use
           id="use9356"
           xlink:href="#path8870-9"
           x="0"
           y="0"
           width="1000"
           height="1000"
           transform="translate(29.659883,-11.133489)" />
        <use
           id="use9358"
           xlink:href="#path8870-9"
           x="0"
           y="0"
           width="1000"
           height="1000"
           transform="translate(26.139477,-39.229301)" />
        <use
           id="use9360"
           xlink:href="#path8870-9"
           x="0"
           y="0"
           width="1000"
           height="1000"
           transform="translate(34.673826,0.78105592)" />
        <use
           id="use9362"
           xlink:href="#path8870-9"
           x="0"
           y="0"
           width="1000"
           height="1000"
           transform="translate(10,-21.999999)" />
        <use
           id="use9364"
           xlink:href="#path8870-9"
           x="0"
           y="0"
           width="1000"
           height="1000"
           transform="translate(35,-19)" />
        <use
           id="use9366"
           xlink:href="#path8870-9"
           x="0"
           y="0"
           width="1000"
           height="1000"
           transform="translate(40,-35.999999)" />
        <use
           id="use9368"
           xlink:href="#path8870-9"
           x="0"
           y="0"
           width="1000"
           height="1000"
           transform="translate(1.7255894,-26.74523)" />
        <use
           id="use9370"
           xlink:href="#path8870-9"
           x="0"
           y="0"
           width="1000"
           height="1000"
           transform="translate(20.259541,-8.2818765)" />
        <use
           id="use9372"
           xlink:href="#path8870-9"
           x="0"
           y="0"
           width="1000"
           height="1000"
           transform="translate(15.38284,-30.100006)" />
        <use
           id="use9374"
           xlink:href="#path8870-9"
           x="0"
           y="0"
           width="1000"
           height="1000"
           transform="translate(9.0191805,-17.192018)" />
        <use
           id="use9376"
           xlink:href="#path8870-9"
           x="0"
           y="0"
           width="1000"
           height="1000"
           transform="translate(1.7493043,-39.321033)" />
        <use
           id="use9378"
           xlink:href="#path8870-9"
           x="0"
           y="0"
           width="1000"
           height="1000"
           transform="translate(15.23964,-37.014422)" />
        <use
           id="use9380"
           xlink:href="#path8870-9"
           x="0"
           y="0"
           width="1000"
           height="1000"
           transform="translate(10.512991,-2.7870859)" />
        <use
           id="use9382"
           xlink:href="#path8870-9"
           x="0"
           y="0"
           width="1000"
           height="1000"
           transform="translate(-1.8870038,-31.48744)" />
        <use
           id="use9384"
           xlink:href="#path8870-9"
           x="0"
           y="0"
           width="1000"
           height="1000"
           transform="translate(-2.0544226,-38.931553)" />
        <use
           id="use9386"
           xlink:href="#path8870-9"
           x="0"
           y="0"
           width="1000"
           height="1000"
           transform="translate(-2.0267721,-3.7476396)" />
        <use
           id="use9388"
           xlink:href="#path8870-9"
           x="0"
           y="0"
           width="1000"
           height="1000"
           transform="translate(23.533387,0.75395165)" />
        <use
           id="use9390"
           xlink:href="#path8870-9"
           x="0"
           y="0"
           width="1000"
           height="1000"
           transform="translate(21.763061,-29.626501)" />
        <use
           id="use9392"
           xlink:href="#path8870-9"
           x="0"
           y="0"
           width="1000"
           height="1000"
           transform="translate(14.468071,-27.539029)" />
        <use
           id="use9394"
           xlink:href="#path8870-9"
           x="0"
           y="0"
           width="1000"
           height="1000"
           transform="translate(-3,0.99999998)" />
        <use
           id="use9396"
           xlink:href="#path8870-9"
           x="0"
           y="0"
           width="1000"
           height="1000"
           transform="translate(3.8541809,5.7931353)" />
        <use
           id="use9398"
           xlink:href="#path8870-9"
           x="0"
           y="0"
           width="1000"
           height="1000"
           transform="translate(0.09413964,-6.0711002)" />
        <use
           id="use9400"
           xlink:href="#path8870-9"
           x="0"
           y="0"
           width="1000"
           height="1000"
           transform="translate(13.077365,-13.017143)" />
        <use
           id="use9402"
           xlink:href="#path8870-9"
           x="0"
           y="0"
           width="1000"
           height="1000"
           transform="translate(27.127743,-28.241647)" />
        <use
           id="use9404"
           xlink:href="#path8870-9"
           x="0"
           y="0"
           width="1000"
           height="1000"
           transform="translate(31,6.9999999)" />
        <use
           id="use9406"
           xlink:href="#path8870-9"
           x="0"
           y="0"
           width="1000"
           height="1000"
           transform="translate(24.867229,-1.9917351)" />
        <use
           id="use9408"
           xlink:href="#path8870-9"
           x="0"
           y="0"
           width="1000"
           height="1000"
           transform="translate(2.4211874,-6.0016986)" />
        <use
           id="use9410"
           xlink:href="#path8870-9"
           x="0"
           y="0"
           width="1000"
           height="1000"
           transform="translate(-2.2557777,-24.364201)" />
        <use
           id="use9412"
           xlink:href="#path8870-9"
           x="0"
           y="0"
           width="1000"
           height="1000"
           transform="translate(26.614618,-9.9108087)" />
        <use
           id="use9414"
           xlink:href="#path8870-9"
           x="0"
           y="0"
           width="1000"
           height="1000"
           transform="translate(27.107817,5.2815726)" />
        <use
           id="use9416"
           xlink:href="#path8870-9"
           x="0"
           y="0"
           width="1000"
           height="1000"
           transform="translate(21,4.9999999)" />
        <use
           id="use9418"
           xlink:href="#path8870-9"
           x="0"
           y="0"
           width="1000"
           height="1000"
           transform="translate(4.8714388,-22.614992)" />
        <use
           id="use9420"
           xlink:href="#path8870-9"
           x="0"
           y="0"
           width="1000"
           height="1000"
           transform="translate(7.0409865,-24.026022)" />
        <use
           id="use9422"
           xlink:href="#path8870-9"
           x="0"
           y="0"
           width="1000"
           height="1000"
           transform="translate(0.8827148,-0.07676089)" />
        <use
           id="use9424"
           xlink:href="#path8870-9"
           x="0"
           y="0"
           width="1000"
           height="1000"
           transform="translate(38.152516,2.1690652)" />
        <ellipse
           transform="matrix(0,-1,1,0,0,0)"
           style="fill:#1e621f;fill-opacity:1;stroke:none"
           id="path8870-9-3"
           cx="-1036.3622"
           cy="959"
           rx="0.99999994"
           ry="1" />
        <use
           id="use9444"
           xlink:href="#path8870-9-3"
           x="0"
           y="0"
           width="1000"
           height="1000"
           transform="translate(32.074051,-6.4057432)" />
        <use
           id="use9446"
           xlink:href="#path8870-9-3"
           x="0"
           y="0"
           width="1000"
           height="1000"
           transform="translate(5.6738985,9.1397789)" />
        <use
           id="use9448"
           xlink:href="#path8870-9-3"
           x="0"
           y="0"
           width="1000"
           height="1000"
           transform="translate(16.694866,-4.7441394)" />
        <use
           id="use9450"
           xlink:href="#path8870-9-3"
           x="0"
           y="0"
           width="1000"
           height="1000"
           transform="translate(-2.9914001,-17.831185)" />
        <use
           id="use9452"
           xlink:href="#path8870-9-3"
           x="0"
           y="0"
           width="1000"
           height="1000"
           transform="translate(-6.703051,-27.491052)" />
        <use
           id="use9454"
           xlink:href="#path8870-9-3"
           x="0"
           y="0"
           width="1000"
           height="1000"
           transform="translate(8.517534,-10.434332)" />
        <use
           id="use9456"
           xlink:href="#path8870-9-3"
           x="0"
           y="0"
           width="1000"
           height="1000"
           transform="translate(14.607445,-4.7110977)" />
        <use
           id="use9458"
           xlink:href="#path8870-9-3"
           x="0"
           y="0"
           width="1000"
           height="1000"
           transform="translate(32.234104,-19.011888)" />
        <use
           id="use9460"
           xlink:href="#path8870-9-3"
           x="0"
           y="0"
           width="1000"
           height="1000"
           transform="translate(27.934626,9.204083)" />
        <use
           id="use9462"
           xlink:href="#path8870-9-3"
           x="0"
           y="0"
           width="1000"
           height="1000"
           transform="translate(9.49311,-16.538209)" />
        <use
           id="use9464"
           xlink:href="#path8870-9-3"
           x="0"
           y="0"
           width="1000"
           height="1000"
           transform="translate(16.415681,-18.588355)" />
        <use
           id="use9466"
           xlink:href="#path8870-9-3"
           x="0"
           y="0"
           width="1000"
           height="1000"
           transform="translate(28.050537,-16.647285)" />
        <use
           id="use9468"
           xlink:href="#path8870-9-3"
           x="0"
           y="0"
           width="1000"
           height="1000"
           transform="translate(28.40927,5.1410427)" />
        <use
           id="use9470"
           xlink:href="#path8870-9-3"
           x="0"
           y="0"
           width="1000"
           height="1000"
           transform="translate(11.94074,-14.559471)" />
        <use
           id="use9472"
           xlink:href="#path8870-9-3"
           x="0"
           y="0"
           width="1000"
           height="1000"
           transform="translate(39.714286,-32.714285)" />
        <use
           id="use9474"
           xlink:href="#path8870-9-3"
           x="0"
           y="0"
           width="1000"
           height="1000"
           transform="translate(17.991493,-11.076396)" />
        <use
           id="use9476"
           xlink:href="#path8870-9-3"
           x="0"
           y="0"
           width="1000"
           height="1000"
           transform="translate(36.030799,11.95967)" />
        <use
           id="use9478"
           xlink:href="#path8870-9-3"
           x="0"
           y="0"
           width="1000"
           height="1000"
           transform="translate(12.181133,2.2079385)" />
        <use
           id="use9480"
           xlink:href="#path8870-9-3"
           x="0"
           y="0"
           width="1000"
           height="1000"
           transform="translate(37.465441,-11.196613)" />
        <use
           id="use9482"
           xlink:href="#path8870-9-3"
           x="0"
           y="0"
           width="1000"
           height="1000"
           transform="translate(21.223181,-18.311468)" />
        <use
           id="use9484"
           xlink:href="#path8870-9-3"
           x="0"
           y="0"
           width="1000"
           height="1000"
           transform="translate(11.125491,12.978741)" />
        <use
           id="use9486"
           xlink:href="#path8870-9-3"
           x="0"
           y="0"
           width="1000"
           height="1000"
           transform="translate(25,2.9999999)" />
        <use
           id="use9488"
           xlink:href="#path8870-9-3"
           x="0"
           y="0"
           width="1000"
           height="1000"
           transform="translate(6.863633,11.142278)" />
        <use
           id="use9490"
           xlink:href="#path8870-9-3"
           x="0"
           y="0"
           width="1000"
           height="1000"
           transform="translate(-8,2)" />
        <use
           id="use9492"
           xlink:href="#path8870-9-3"
           x="0"
           y="0"
           width="1000"
           height="1000"
           transform="translate(30,-32.999999)" />
        <use
           id="use9494"
           xlink:href="#path8870-9-3"
           x="0"
           y="0"
           width="1000"
           height="1000"
           transform="translate(3.9978446,6.8040546)" />
        <use
           id="use9496"
           xlink:href="#path8870-9-3"
           x="0"
           y="0"
           width="1000"
           height="1000"
           transform="translate(-7.4454535,-11.102326)" />
        <use
           id="use9498"
           xlink:href="#path8870-9-3"
           x="0"
           y="0"
           width="1000"
           height="1000"
           transform="translate(15.404615,-32.42367)" />
        <use
           id="use9500"
           xlink:href="#path8870-9-3"
           x="0"
           y="0"
           width="1000"
           height="1000"
           transform="translate(25.417878,-29.54525)" />
        <use
           id="use9502"
           xlink:href="#path8870-9-3"
           x="0"
           y="0"
           width="1000"
           height="1000"
           transform="translate(0.944344,-17.464409)" />
        <use
           id="use9504"
           xlink:href="#path8870-9-3"
           x="0"
           y="0"
           width="1000"
           height="1000"
           transform="translate(21,-24.999999)" />
        <use
           id="use9506"
           xlink:href="#path8870-9-3"
           x="0"
           y="0"
           width="1000"
           height="1000"
           transform="translate(2.3141112,-30.962837)" />
        <use
           id="use9508"
           xlink:href="#use9394"
           x="0"
           y="0"
           width="1000"
           height="1000"
           transform="translate(40.714286,-20.571428)" />
        <use
           id="use9510"
           xlink:href="#use9394"
           x="0"
           y="0"
           width="1000"
           height="1000"
           transform="translate(14.902961,1.2273962)" />
        <use
           id="use9512"
           xlink:href="#use9394"
           x="0"
           y="0"
           width="1000"
           height="1000"
           transform="translate(8.9791555,-18.109133)" />
        <use
           id="use9514"
           xlink:href="#use9394"
           x="0"
           y="0"
           width="1000"
           height="1000"
           transform="translate(32,-41.999999)" />
        <use
           id="use9516"
           xlink:href="#use9394"
           x="0"
           y="0"
           width="1000"
           height="1000"
           transform="translate(10.32418,-0.8944105)" />
        <use
           id="use9518"
           xlink:href="#use9394"
           x="0"
           y="0"
           width="1000"
           height="1000"
           transform="translate(9.2557365,-32.981668)" />
        <use
           id="use9520"
           xlink:href="#use9394"
           x="0"
           y="0"
           width="1000"
           height="1000"
           transform="translate(25.326663,-35.263636)" />
        <use
           id="use9522"
           xlink:href="#use9394"
           x="0"
           y="0"
           width="1000"
           height="1000"
           transform="translate(6.520192,4.5950702)" />
        <use
           id="use9524"
           xlink:href="#use9394"
           x="0"
           y="0"
           width="1000"
           height="1000"
           transform="translate(32.366424,-7.1527393)" />
        <use
           id="use9526"
           xlink:href="#use9394"
           x="0"
           y="0"
           width="1000"
           height="1000"
           transform="translate(2,5.9999999)" />
        <use
           id="use9528"
           xlink:href="#use9394"
           x="0"
           y="0"
           width="1000"
           height="1000"
           transform="translate(0.4677385,-3.2232037)" />
        <use
           id="use9530"
           xlink:href="#use9394"
           x="0"
           y="0"
           width="1000"
           height="1000"
           transform="translate(10,3.9999999)" />
        <use
           id="use9532"
           xlink:href="#use9394"
           x="0"
           y="0"
           width="1000"
           height="1000"
           transform="translate(12.888278,-31.829968)" />
        <use
           id="use9534"
           xlink:href="#use9394"
           x="0"
           y="0"
           width="1000"
           height="1000"
           transform="translate(13.912181,-41.635794)" />
        <use
           id="use9536"
           xlink:href="#use9394"
           x="0"
           y="0"
           width="1000"
           height="1000"
           transform="translate(12.816526,-13.500532)" />
        <use
           id="use9538"
           xlink:href="#use9394"
           x="0"
           y="0"
           width="1000"
           height="1000"
           transform="translate(9.716881,-8.2792775)" />
        <use
           id="use9540"
           xlink:href="#use9394"
           x="0"
           y="0"
           width="1000"
           height="1000"
           transform="translate(8.1913825,-4.9705535)" />
        <use
           id="use9542"
           xlink:href="#use9394"
           x="0"
           y="0"
           width="1000"
           height="1000"
           transform="translate(32.366829,-31.672855)" />
        <use
           id="use9544"
           xlink:href="#use9394"
           x="0"
           y="0"
           width="1000"
           height="1000"
           transform="translate(7.566272,-38.521863)" />
        <use
           id="use9546"
           xlink:href="#use9394"
           x="0"
           y="0"
           width="1000"
           height="1000"
           transform="translate(32,-18)" />
        <use
           id="use9548"
           xlink:href="#use9394"
           x="0"
           y="0"
           width="1000"
           height="1000"
           transform="translate(25,-6.9999999)" />
        <use
           id="use9550"
           xlink:href="#use9394"
           x="0"
           y="0"
           width="1000"
           height="1000"
           transform="translate(21.25689,-33.019585)" />
        <use
           id="use9552"
           xlink:href="#use9394"
           x="0"
           y="0"
           width="1000"
           height="1000"
           transform="translate(38.132867,-16.343754)" />
        <use
           id="use9554"
           xlink:href="#use9394"
           x="0"
           y="0"
           width="1000"
           height="1000"
           transform="translate(5.179372,-36.155334)" />
        <use
           id="use9556"
           xlink:href="#use9394"
           x="0"
           y="0"
           width="1000"
           height="1000"
           transform="translate(15.935194,-8.6060576)" />
        <use
           id="use9558"
           xlink:href="#use9394"
           x="0"
           y="0"
           width="1000"
           height="1000"
           transform="translate(42.821225,-24.115928)" />
        <use
           id="use9560"
           xlink:href="#use9394"
           x="0"
           y="0"
           width="1000"
           height="1000"
           transform="translate(1.6353092,-12.855994)" />
        <use
           id="use9562"
           xlink:href="#use9394"
           x="0"
           y="0"
           width="1000"
           height="1000"
           transform="translate(34.589196,-23.42688)" />
        <use
           id="use9564"
           xlink:href="#use9394"
           x="0"
           y="0"
           width="1000"
           height="1000"
           transform="translate(46,0)" />
        <use
           id="use9566"
           xlink:href="#use9394"
           x="0"
           y="0"
           width="1000"
           height="1000"
           transform="translate(5,4.9999999)" />
        <use
           id="use9568"
           xlink:href="#use9394"
           x="0"
           y="0"
           width="1000"
           height="1000"
           transform="translate(14.962897,-10.800563)" />
        <use
           id="use9570"
           xlink:href="#use9394"
           x="0"
           y="0"
           width="1000"
           height="1000"
           transform="translate(46.364214,5.4558452)" />
        <use
           id="use9572"
           xlink:href="#use9394"
           x="0"
           y="0"
           width="1000"
           height="1000"
           transform="translate(26.716213,-21.407132)" />
        <use
           id="use9574"
           xlink:href="#use9394"
           x="0"
           y="0"
           width="1000"
           height="1000"
           transform="translate(0.28151272,-29.97821)" />
        <use
           id="use9576"
           xlink:href="#use9394"
           x="0"
           y="0"
           width="1000"
           height="1000"
           transform="translate(6.2499815,-32.149956)" />
        <use
           id="use9578"
           xlink:href="#use9394"
           x="0"
           y="0"
           width="1000"
           height="1000"
           transform="translate(39.696356,-30.169389)" />
        <use
           id="use9580"
           xlink:href="#use9394"
           x="0"
           y="0"
           width="1000"
           height="1000"
           transform="translate(20.945249,-35.816595)" />
        <use
           id="use9582"
           xlink:href="#use9394"
           x="0"
           y="0"
           width="1000"
           height="1000"
           transform="translate(10.484448,-21.192181)" />
        <use
           id="use9584"
           xlink:href="#use9394"
           x="0"
           y="0"
           width="1000"
           height="1000"
           transform="translate(26.59745,-13.230293)" />
        <use
           id="use9586"
           xlink:href="#use9394"
           x="0"
           y="0"
           width="1000"
           height="1000"
           transform="translate(45.693411,-26.972421)" />
        <use
           id="use9588"
           xlink:href="#use9394"
           x="0"
           y="0"
           width="1000"
           height="1000"
           transform="translate(13.352979,-34.07863)" />
        <use
           id="use9590"
           xlink:href="#use9394"
           x="0"
           y="0"
           width="1000"
           height="1000"
           transform="translate(38,-35.999999)" />
        <use
           id="use9592"
           xlink:href="#use9394"
           x="0"
           y="0"
           width="1000"
           height="1000"
           transform="translate(24,-39.999999)" />
        <use
           id="use9594"
           xlink:href="#use9394"
           x="0"
           y="0"
           width="1000"
           height="1000"
           transform="translate(45,-2.9999999)" />
        <use
           id="use9596"
           xlink:href="#use9394"
           x="0"
           y="0"
           width="1000"
           height="1000"
           transform="translate(11.638734,-38.576128)" />
      </g>
    </g>
  </g>
</svg>
