<?xml version="1.0" encoding="UTF-8" standalone="no"?>
<!-- Created with Inkscape (http://www.inkscape.org/) -->

<svg
   xmlns:dc="http://purl.org/dc/elements/1.1/"
   xmlns:cc="http://creativecommons.org/ns#"
   xmlns:rdf="http://www.w3.org/1999/02/22-rdf-syntax-ns#"
   xmlns:svg="http://www.w3.org/2000/svg"
   xmlns="http://www.w3.org/2000/svg"
   xmlns:xlink="http://www.w3.org/1999/xlink"
   xmlns:sodipodi="http://sodipodi.sourceforge.net/DTD/sodipodi-0.dtd"
   xmlns:inkscape="http://www.inkscape.org/namespaces/inkscape"
   width="50"
   height="300"
   id="svg2"
   version="1.1"
   inkscape:version="0.91 r13725"
   sodipodi:docname="blinking_blue_wall_light.svg">
  <defs
     id="defs4">
    <linearGradient
       id="linearGradient4167">
      <stop
         style="stop-color:#000000;stop-opacity:0.92363638;"
         offset="0"
         id="stop4169" />
      <stop
         style="stop-color:#4940e1;stop-opacity:0;"
         offset="1"
         id="stop4171" />
    </linearGradient>
    <linearGradient
       inkscape:collect="always"
       xlink:href="#linearGradient4167"
       id="linearGradient4173"
       x1="80"
       y1="500"
       x2="140"
       y2="500"
       gradientUnits="userSpaceOnUse" />
    <linearGradient
       id="linearGradient3279">
      <stop
         style="stop-color:#333333;stop-opacity:1;"
         offset="0"
         id="stop3281" />
      <stop
         style="stop-color:#2a2a2a;stop-opacity:0;"
         offset="1"
         id="stop3283" />
    </linearGradient>
    <linearGradient
       inkscape:collect="always"
       xlink:href="#linearGradient3279"
       id="linearGradient4174"
       gradientUnits="userSpaceOnUse"
       gradientTransform="translate(80,-47.6378)"
       x1="80"
       y1="560"
       x2="140"
       y2="560" />
    <linearGradient
       inkscape:collect="always"
       xlink:href="#linearGradient3279"
       id="linearGradient4176"
       gradientUnits="userSpaceOnUse"
       gradientTransform="matrix(0,1,1,0,-280.00002,312.3622)"
       x1="80"
       y1="540"
       x2="140"
       y2="540" />
  </defs>
  <sodipodi:namedview
     id="base"
     pagecolor="#ffffff"
     bordercolor="#666666"
     borderopacity="1.0"
     inkscape:pageopacity="0.0"
     inkscape:pageshadow="2"
     inkscape:zoom="1.4142136"
     inkscape:cx="96.140821"
     inkscape:cy="172.71153"
     inkscape:document-units="px"
     inkscape:current-layer="layer1"
     showgrid="true"
     showguides="true"
     inkscape:guide-bbox="true"
     inkscape:window-width="1600"
     inkscape:window-height="842"
     inkscape:window-x="0"
     inkscape:window-y="0"
     inkscape:window-maximized="1"
     fit-margin-top="0"
     fit-margin-left="0"
     fit-margin-right="0"
     fit-margin-bottom="0">
    <inkscape:grid
       type="xygrid"
       id="grid2985"
       empspacing="5"
       visible="true"
       enabled="true"
       snapvisiblegridlinesonly="true"
       originx="0"
       originy="9.094947e-13" />
    <sodipodi:guide
       orientation="0,1"
       position="-10,50"
       id="guide2987"
       inkscape:label=""
       inkscape:color="rgb(0,0,255)" />
    <sodipodi:guide
       orientation="0,1"
       position="-10,100"
       id="guide2989"
       inkscape:label=""
       inkscape:color="rgb(0,0,255)" />
    <sodipodi:guide
       orientation="0,1"
       position="-10,150"
       id="guide2991"
       inkscape:label=""
       inkscape:color="rgb(0,0,255)" />
    <sodipodi:guide
       orientation="0,1"
       position="-10,200"
       id="guide2993"
       inkscape:label=""
       inkscape:color="rgb(0,0,255)" />
    <sodipodi:guide
       orientation="0,1"
       position="-10,250"
       id="guide2995"
       inkscape:label=""
       inkscape:color="rgb(0,0,255)" />
  </sodipodi:namedview>
  <metadata
     id="metadata7">
    <rdf:RDF>
      <cc:Work
         rdf:about="">
        <dc:format>image/svg+xml</dc:format>
        <dc:type
           rdf:resource="http://purl.org/dc/dcmitype/StillImage" />
        <dc:title></dc:title>
      </cc:Work>
    </rdf:RDF>
  </metadata>
  <g
     inkscape:label="Ebene 1"
     inkscape:groupmode="layer"
     id="layer1"
     transform="translate(0,-752.3622)">
    <path
       id="path3903"
       d="m 5,766.3622 40,0 0,22 -40,0 z"
       style="fill:#0089c8;fill-opacity:1;stroke:none"
       inkscape:connector-curvature="0" />
    <path
       inkscape:connector-curvature="0"
       style="fill:#004ac2;fill-opacity:1;stroke:none"
       d="m 5,816.3622 40,0 0,22 -40,0 z"
       id="path3901" />
    <path
       id="path3899"
       d="m 5,866.3622 40,0 0,22 -40,0 z"
       style="fill:#010042;fill-opacity:1;stroke:none"
       inkscape:connector-curvature="0" />
    <path
       inkscape:connector-curvature="0"
       style="fill:#004ac2;fill-opacity:1;stroke:none"
       d="m 5,916.3622 40,0 0,22 -40,0 z"
       id="path3897" />
    <path
       id="path3895"
       d="m 5,966.3622 40,0 0,22 -40,0 z"
       style="fill:#0089c8;fill-opacity:1;stroke:none"
       inkscape:connector-curvature="0" />
    <path
       inkscape:connector-curvature="0"
       style="fill:#00ffff;fill-opacity:1;stroke:none"
       d="m 5,1016.3622 40,0 0,22 -40,0 z"
       id="rect2997-3" />
    <g
       id="g3877"
       transform="matrix(0.05,0,0,0.05,0,999.74409)">
      <path
         id="rect2999"
         transform="translate(0,-4947.6378)"
         d="m 0,5000 0,1000 1000,0 0,-1000 -1000,0 z m 120,300 760,0 0,400 -760,0 0,-400 z"
         style="fill:#999999;fill-opacity:1;stroke:none"
         inkscape:connector-curvature="0" />
      <rect
         y="172.3622"
         x="0"
         height="80"
         width="1000"
         id="rect3001"
         style="fill:#0000ff;fill-opacity:1;stroke:none" />
      <rect
         y="852.36218"
         x="0"
         height="80"
         width="1000"
         id="rect3003"
         style="fill:#0000ff;fill-opacity:1;stroke:none" />
      <path
         id="rect3005"
         transform="translate(0,-4947.6378)"
         d="m 0,5240 0,520 1000,0 0,-520 z m 160,100 680,0 0,320 -680,0 z"
         style="fill:#0000ff;fill-opacity:1;stroke:none"
         inkscape:connector-curvature="0"
         sodipodi:nodetypes="cccccccccc" />
      <path
         sodipodi:nodetypes="ccccc"
         inkscape:connector-curvature="0"
         id="path4165"
         d="m 160,392.3622 60,60 0,260 -60,0 z"
         style="fill:url(#linearGradient4174);fill-opacity:1;stroke:none" />
      <path
         sodipodi:nodetypes="ccccc"
         style="fill:url(#linearGradient4176);fill-opacity:1;stroke:none"
         d="m 160,392.3622 60,60 620,0 0,-60 z"
         id="path4175"
         inkscape:connector-curvature="0" />
    </g>
    <use
       x="0"
       y="0"
       xlink:href="#g3877"
       id="use3885"
       transform="translate(0,-50)"
       width="1000"
       height="6000" />
    <use
       x="0"
       y="0"
       xlink:href="#g3877"
       id="use3887"
       transform="translate(0,-100)"
       width="1000"
       height="6000" />
    <use
       x="0"
       y="0"
       xlink:href="#g3877"
       id="use3889"
       transform="translate(0,-150)"
       width="1000"
       height="6000" />
    <use
       x="0"
       y="0"
       xlink:href="#g3877"
       id="use3891"
       transform="translate(0,-200)"
       width="1000"
       height="6000" />
    <use
       x="0"
       y="0"
       xlink:href="#g3877"
       id="use3893"
       transform="translate(0,-250)"
       width="1000"
       height="6000" />
  </g>
</svg>
