<?xml version="1.0" encoding="UTF-8" standalone="no"?>
<!-- Created with Inkscape (http://www.inkscape.org/) -->

<svg
   xmlns:dc="http://purl.org/dc/elements/1.1/"
   xmlns:cc="http://creativecommons.org/ns#"
   xmlns:rdf="http://www.w3.org/1999/02/22-rdf-syntax-ns#"
   xmlns:svg="http://www.w3.org/2000/svg"
   xmlns="http://www.w3.org/2000/svg"
   xmlns:xlink="http://www.w3.org/1999/xlink"
   xmlns:sodipodi="http://sodipodi.sourceforge.net/DTD/sodipodi-0.dtd"
   xmlns:inkscape="http://www.inkscape.org/namespaces/inkscape"
   width="50"
   height="99.99987"
   id="svg2"
   version="1.1"
   inkscape:version="0.91 r13725"
   sodipodi:docname="walking_left_1.svg">
  <defs
     id="defs4">
    <linearGradient
       id="linearGradient4368">
      <stop
         id="stop4370"
         offset="0"
         style="stop-color:#0000f4;stop-opacity:1;" />
      <stop
         style="stop-color:#0000bd;stop-opacity:1;"
         offset="0.21276596"
         id="stop4372" />
      <stop
         style="stop-color:#000086;stop-opacity:1;"
         offset="0.46808508"
         id="stop4374" />
      <stop
         id="stop4376"
         offset="1"
         style="stop-color:#000018;stop-opacity:1;" />
    </linearGradient>
    <linearGradient
       id="linearGradient5479">
      <stop
         style="stop-color:#272727;stop-opacity:1;"
         offset="0"
         id="stop5481" />
      <stop
         id="stop5489"
         offset="0.10297322"
         style="stop-color:#5b5b5b;stop-opacity:1;" />
      <stop
         id="stop5487"
         offset="0.86855668"
         style="stop-color:#c2c2c2;stop-opacity:1;" />
      <stop
         style="stop-color:#525252;stop-opacity:1;"
         offset="1"
         id="stop5483" />
    </linearGradient>
    <linearGradient
       id="linearGradient5473">
      <stop
         id="stop5475"
         offset="0"
         style="stop-color:#656565;stop-opacity:1;" />
      <stop
         id="stop5477"
         offset="1"
         style="stop-color:#141414;stop-opacity:1;" />
    </linearGradient>
    <linearGradient
       id="linearGradient5415">
      <stop
         style="stop-color:#7e7e7e;stop-opacity:1;"
         offset="0"
         id="stop5417" />
      <stop
         style="stop-color:#3b3b3b;stop-opacity:1;"
         offset="1"
         id="stop5419" />
    </linearGradient>
    <linearGradient
       id="linearGradient5407">
      <stop
         style="stop-color:#de5a0c;stop-opacity:1;"
         offset="0"
         id="stop5409" />
      <stop
         id="stop5411"
         offset="1"
         style="stop-color:#d8661a;stop-opacity:1;" />
    </linearGradient>
    <linearGradient
       id="linearGradient5258">
      <stop
         id="stop5262"
         offset="0"
         style="stop-color:#de5a0c;stop-opacity:1;" />
      <stop
         style="stop-color:#d8661a;stop-opacity:1;"
         offset="1"
         id="stop5264" />
    </linearGradient>
    <linearGradient
       id="linearGradient5246">
      <stop
         id="stop5248"
         offset="0"
         style="stop-color:#c87137;stop-opacity:1;" />
      <stop
         style="stop-color:#d2885b;stop-opacity:1;"
         offset="0.09090912"
         id="stop5250" />
      <stop
         id="stop5252"
         offset="1"
         style="stop-color:#d8661a;stop-opacity:1;" />
    </linearGradient>
    <linearGradient
       id="linearGradient4960">
      <stop
         style="stop-color:#c87137;stop-opacity:1;"
         offset="0"
         id="stop4962" />
      <stop
         id="stop4968"
         offset="0.5"
         style="stop-color:#d2885b;stop-opacity:1;" />
      <stop
         style="stop-color:#d8661a;stop-opacity:1;"
         offset="1"
         id="stop4964" />
    </linearGradient>
    <linearGradient
       id="linearGradient4949">
      <stop
         style="stop-color:#916f6f;stop-opacity:1;"
         offset="0"
         id="stop4951" />
      <stop
         style="stop-color:#060505;stop-opacity:1;"
         offset="1"
         id="stop4953" />
    </linearGradient>
    <linearGradient
       id="linearGradient4941">
      <stop
         style="stop-color:#bb07bb;stop-opacity:1;"
         offset="0"
         id="stop4943" />
      <stop
         style="stop-color:#290029;stop-opacity:1;"
         offset="1"
         id="stop4945" />
    </linearGradient>
    <linearGradient
       id="linearGradient4144">
      <stop
         id="stop4146"
         offset="0"
         style="stop-color:#d000d0;stop-opacity:1;" />
      <stop
         id="stop4148"
         offset="1"
         style="stop-color:#6a006a;stop-opacity:1;" />
    </linearGradient>
    <linearGradient
       id="linearGradient3924">
      <stop
         style="stop-color:#800080;stop-opacity:1;"
         offset="0"
         id="stop3926" />
      <stop
         style="stop-color:#3f003f;stop-opacity:1;"
         offset="1"
         id="stop3928" />
    </linearGradient>
    <linearGradient
       id="linearGradient3914">
      <stop
         style="stop-color:#5b3106;stop-opacity:1;"
         offset="0"
         id="stop3916" />
      <stop
         style="stop-color:#2f1f0c;stop-opacity:1;"
         offset="1"
         id="stop3918" />
    </linearGradient>
    <linearGradient
       id="linearGradient3898">
      <stop
         style="stop-color:#b34700;stop-opacity:1;"
         offset="0"
         id="stop3900" />
      <stop
         style="stop-color:#3e200d;stop-opacity:1;"
         offset="1"
         id="stop3902" />
    </linearGradient>
    <linearGradient
       id="linearGradient3890">
      <stop
         style="stop-color:#00006a;stop-opacity:1;"
         offset="0"
         id="stop3892" />
      <stop
         style="stop-color:#000022;stop-opacity:1;"
         offset="1"
         id="stop3894" />
    </linearGradient>
    <linearGradient
       id="linearGradient3874">
      <stop
         style="stop-color:#000091;stop-opacity:1;"
         offset="0"
         id="stop3876" />
      <stop
         style="stop-color:#00003a;stop-opacity:1;"
         offset="1"
         id="stop3878" />
    </linearGradient>
    <linearGradient
       inkscape:collect="always"
       xlink:href="#linearGradient3924-4"
       id="linearGradient3930-6"
       x1="360"
       y1="92.362183"
       x2="760"
       y2="92.362183"
       gradientUnits="userSpaceOnUse"
       gradientTransform="matrix(1.275,0,0,1,-49,0)" />
    <linearGradient
       id="linearGradient3924-4">
      <stop
         style="stop-color:#800080;stop-opacity:1;"
         offset="0"
         id="stop3926-7" />
      <stop
         style="stop-color:#3f003f;stop-opacity:1;"
         offset="1"
         id="stop3928-8" />
    </linearGradient>
    <linearGradient
       inkscape:collect="always"
       xlink:href="#linearGradient3924-4"
       id="linearGradient4939"
       gradientUnits="userSpaceOnUse"
       gradientTransform="matrix(0.06129808,0,0,0.3690226,-0.43269231,955.85803)"
       x1="360"
       y1="92.362183"
       x2="760"
       y2="92.362183" />
    <linearGradient
       id="linearGradient3874-1">
      <stop
         style="stop-color:#0000f4;stop-opacity:1;"
         offset="0"
         id="stop3876-5" />
      <stop
         id="stop4869"
         offset="0.20928526"
         style="stop-color:#0000bd;stop-opacity:1;" />
      <stop
         id="stop4867"
         offset="0.78079498"
         style="stop-color:#000086;stop-opacity:1;" />
      <stop
         style="stop-color:#000018;stop-opacity:1;"
         offset="1"
         id="stop3878-7" />
    </linearGradient>
    <linearGradient
       id="linearGradient3890-6">
      <stop
         style="stop-color:#00007f;stop-opacity:1;"
         offset="0"
         id="stop3892-8" />
      <stop
         id="stop4865"
         offset="0.03865979"
         style="stop-color:#000063;stop-opacity:1;" />
      <stop
         id="stop4863"
         offset="0.93558031"
         style="stop-color:#000048;stop-opacity:1;" />
      <stop
         style="stop-color:#000011;stop-opacity:1;"
         offset="1"
         id="stop3894-4" />
    </linearGradient>
    <linearGradient
       id="linearGradient3898-2">
      <stop
         style="stop-color:#b34700;stop-opacity:1;"
         offset="0"
         id="stop3900-9" />
      <stop
         style="stop-color:#3e200d;stop-opacity:1;"
         offset="1"
         id="stop3902-6" />
    </linearGradient>
    <linearGradient
       id="linearGradient4855">
      <stop
         style="stop-color:#0b0b0b;stop-opacity:1;"
         offset="0"
         id="stop4857" />
      <stop
         style="stop-color:#000000;stop-opacity:0;"
         offset="1"
         id="stop4859" />
    </linearGradient>
    <linearGradient
       id="linearGradient3924-9">
      <stop
         style="stop-color:#800080;stop-opacity:1;"
         offset="0"
         id="stop3926-2" />
      <stop
         style="stop-color:#3f003f;stop-opacity:1;"
         offset="1"
         id="stop3928-0" />
    </linearGradient>
    <linearGradient
       id="linearGradient5005">
      <stop
         style="stop-color:#0000f4;stop-opacity:1;"
         offset="0"
         id="stop5007" />
      <stop
         id="stop5009"
         offset="0.20928526"
         style="stop-color:#0000bd;stop-opacity:1;" />
      <stop
         id="stop5011"
         offset="0.78079498"
         style="stop-color:#000086;stop-opacity:1;" />
      <stop
         style="stop-color:#000018;stop-opacity:1;"
         offset="1"
         id="stop5013" />
    </linearGradient>
    <linearGradient
       id="linearGradient5016">
      <stop
         style="stop-color:#00007f;stop-opacity:1;"
         offset="0"
         id="stop5018" />
      <stop
         id="stop5020"
         offset="0.03865979"
         style="stop-color:#000063;stop-opacity:1;" />
      <stop
         id="stop5022"
         offset="0.93558031"
         style="stop-color:#000048;stop-opacity:1;" />
      <stop
         style="stop-color:#000011;stop-opacity:1;"
         offset="1"
         id="stop5024" />
    </linearGradient>
    <linearGradient
       id="linearGradient5027">
      <stop
         style="stop-color:#b34700;stop-opacity:1;"
         offset="0"
         id="stop5029" />
      <stop
         style="stop-color:#3e200d;stop-opacity:1;"
         offset="1"
         id="stop5031" />
    </linearGradient>
    <linearGradient
       inkscape:collect="always"
       xlink:href="#linearGradient4368"
       id="linearGradient5186"
       gradientUnits="userSpaceOnUse"
       gradientTransform="matrix(-1,0,0,0.80657204,980.00009,200.12833)"
       x1="230.00003"
       y1="349.91776"
       x2="700.00006"
       y2="471.2511" />
    <linearGradient
       inkscape:collect="always"
       xlink:href="#linearGradient4949"
       id="linearGradient5199"
       gradientUnits="userSpaceOnUse"
       gradientTransform="matrix(0.04857687,0,0,0.04945677,-495.13762,828.8007)"
       x1="582.35309"
       y1="681.26233"
       x2="830"
       y2="670" />
    <linearGradient
       inkscape:collect="always"
       xlink:href="#linearGradient4941"
       id="linearGradient5202"
       gradientUnits="userSpaceOnUse"
       gradientTransform="matrix(0.04123998,-0.02567054,0.02471143,0.0428406,-7.5312788,977.33959)"
       x1="630"
       y1="592.36218"
       x2="830"
       y2="592.36218" />
    <radialGradient
       inkscape:collect="always"
       xlink:href="#linearGradient4960"
       id="radialGradient5205"
       gradientUnits="userSpaceOnUse"
       gradientTransform="matrix(0.05822549,0.10282517,-0.09898337,0.06048536,138.51055,897.06103)"
       cx="190.51668"
       cy="1286.9421"
       fx="190.51668"
       fy="1286.9421"
       r="199.25507" />
    <radialGradient
       inkscape:collect="always"
       xlink:href="#linearGradient5407"
       id="radialGradient5256"
       gradientUnits="userSpaceOnUse"
       gradientTransform="matrix(-0.05232554,-0.01553041,0.02403846,-0.08740008,69.674755,997.27764)"
       cx="785.08655"
       cy="250.46155"
       fx="785.08655"
       fy="250.46155"
       r="160" />
    <linearGradient
       inkscape:collect="always"
       xlink:href="#linearGradient5415"
       id="linearGradient5421"
       x1="140"
       y1="-27.637819"
       x2="140"
       y2="32.362179"
       gradientUnits="userSpaceOnUse"
       gradientTransform="matrix(0.03104968,0,0,0.10820963,1.9230779,1003.143)" />
    <linearGradient
       inkscape:collect="always"
       xlink:href="#linearGradient5473"
       id="linearGradient5427"
       gradientUnits="userSpaceOnUse"
       x1="140"
       y1="-27.637819"
       x2="140"
       y2="32.362179"
       gradientTransform="matrix(0.00300481,0,0,0.15815255,3.3653846,1003.025)" />
    <linearGradient
       inkscape:collect="always"
       xlink:href="#linearGradient5473"
       id="linearGradient5431"
       gradientUnits="userSpaceOnUse"
       gradientTransform="matrix(0.04166667,0,0,2.8333334,60,50.669319)"
       x1="140"
       y1="-27.637819"
       x2="140"
       y2="32.362179" />
    <linearGradient
       inkscape:collect="always"
       xlink:href="#linearGradient5473"
       id="linearGradient5435"
       gradientUnits="userSpaceOnUse"
       gradientTransform="matrix(0.00300481,0,0,0.15815255,6.25,1003.025)"
       x1="140"
       y1="-27.637819"
       x2="140"
       y2="32.362179" />
    <linearGradient
       inkscape:collect="always"
       xlink:href="#linearGradient5473"
       id="linearGradient5439"
       gradientUnits="userSpaceOnUse"
       gradientTransform="matrix(0.04166667,0,0,2.8333334,140,50.669325)"
       x1="140"
       y1="-27.637819"
       x2="140"
       y2="32.362179" />
    <linearGradient
       inkscape:collect="always"
       xlink:href="#linearGradient5473"
       id="linearGradient5443"
       gradientUnits="userSpaceOnUse"
       gradientTransform="matrix(0.00300481,0,0,0.15815255,9.1346154,1003.025)"
       x1="140"
       y1="-27.637819"
       x2="140"
       y2="32.362179" />
    <filter
       inkscape:collect="always"
       id="filter5467"
       x="-0.15272728"
       width="1.3054545"
       y="-0.063636363"
       height="1.1272727">
      <feGaussianBlur
         inkscape:collect="always"
         stdDeviation="3.1818182"
         id="feGaussianBlur5469" />
    </filter>
    <linearGradient
       inkscape:collect="always"
       xlink:href="#linearGradient5479"
       id="linearGradient5485"
       x1="370"
       y1="212.36218"
       x2="370"
       y2="-27.637819"
       gradientUnits="userSpaceOnUse"
       gradientTransform="matrix(0.04120879,0,0,0.04161909,5.425824,1000.3037)" />
    <linearGradient
       inkscape:collect="always"
       xlink:href="#linearGradient5473"
       id="linearGradient5497"
       x1="280"
       y1="267.36218"
       x2="330"
       y2="267.36218"
       gradientUnits="userSpaceOnUse"
       gradientTransform="translate(0,-39.999998)" />
    <linearGradient
       inkscape:collect="always"
       xlink:href="#linearGradient5473"
       id="linearGradient5505"
       x1="400"
       y1="297.36218"
       x2="480"
       y2="297.36218"
       gradientUnits="userSpaceOnUse"
       gradientTransform="matrix(0.04807692,0,0,0.05707761,1.9230779,997.66304)" />
    <filter
       inkscape:collect="always"
       id="filter5597"
       x="-0.10625257"
       width="1.2125051"
       y="-1.3812834"
       height="3.7625668">
      <feGaussianBlur
         inkscape:collect="always"
         stdDeviation="1.7266043"
         id="feGaussianBlur5599" />
    </filter>
    <filter
       inkscape:collect="always"
       id="filter5601"
       x="-0.096368611"
       width="1.1927372"
       y="-1.3812834"
       height="3.7625668">
      <feGaussianBlur
         inkscape:collect="always"
         stdDeviation="1.7266043"
         id="feGaussianBlur5603" />
    </filter>
    <filter
       inkscape:collect="always"
       id="filter5605"
       x="-0.096368611"
       width="1.1927372"
       y="-2.0719252"
       height="5.1438503">
      <feGaussianBlur
         inkscape:collect="always"
         stdDeviation="1.7266043"
         id="feGaussianBlur5607" />
    </filter>
    <linearGradient
       inkscape:collect="always"
       xlink:href="#linearGradient5473"
       id="linearGradient3346"
       gradientUnits="userSpaceOnUse"
       gradientTransform="matrix(0.00300481,0,0,0.15815255,12.019231,1003.025)"
       x1="140"
       y1="-27.637819"
       x2="140"
       y2="32.362179" />
    <linearGradient
       inkscape:collect="always"
       xlink:href="#linearGradient3874-1"
       id="linearGradient3358"
       gradientUnits="userSpaceOnUse"
       gradientTransform="matrix(1,0,0,0.78890873,0,151.05322)"
       x1="510"
       y1="407.48691"
       x2="770"
       y2="382.13544" />
    <radialGradient
       inkscape:collect="always"
       xlink:href="#linearGradient3898-2-7"
       id="radialGradient5190-0"
       gradientUnits="userSpaceOnUse"
       gradientTransform="matrix(-0.0137544,-0.02391625,0.05958194,-0.0369775,-25.004726,1105.5025)"
       cx="719.99994"
       cy="1252.3622"
       fx="719.99994"
       fy="1252.3622"
       r="360" />
    <linearGradient
       id="linearGradient3898-2-7">
      <stop
         style="stop-color:#b34700;stop-opacity:1;"
         offset="0"
         id="stop3900-9-0" />
      <stop
         style="stop-color:#3e200d;stop-opacity:1;"
         offset="1"
         id="stop3902-6-8" />
    </linearGradient>
    <linearGradient
       inkscape:collect="always"
       xlink:href="#linearGradient3890-6-4"
       id="linearGradient5188-3"
       gradientUnits="userSpaceOnUse"
       gradientTransform="matrix(0.03507396,-0.02176746,0.02465728,0.04287426,-9.5580385,1015.9337)"
       x1="428.49997"
       y1="732.36218"
       x2="760"
       y2="732.36218" />
    <linearGradient
       id="linearGradient3890-6-4">
      <stop
         style="stop-color:#00007f;stop-opacity:1;"
         offset="0"
         id="stop3892-8-1" />
      <stop
         id="stop4865-0"
         offset="0.03865979"
         style="stop-color:#000063;stop-opacity:1;" />
      <stop
         id="stop4863-4"
         offset="0.93558031"
         style="stop-color:#000048;stop-opacity:1;" />
      <stop
         style="stop-color:#000011;stop-opacity:1;"
         offset="1"
         id="stop3894-4-8" />
    </linearGradient>
    <linearGradient
       inkscape:collect="always"
       xlink:href="#linearGradient4855-2"
       id="linearGradient5217-6"
       gradientUnits="userSpaceOnUse"
       gradientTransform="matrix(1,0,0,0.85714265,-1000.0001,150.33758)"
       x1="760"
       y1="912.36218"
       x2="820"
       y2="912.36218" />
    <linearGradient
       id="linearGradient4855-2">
      <stop
         style="stop-color:#0b0b0b;stop-opacity:1;"
         offset="0"
         id="stop4857-4" />
      <stop
         style="stop-color:#000000;stop-opacity:0;"
         offset="1"
         id="stop4859-7" />
    </linearGradient>
    <linearGradient
       y2="912.36218"
       x2="820"
       y1="912.36218"
       x1="760"
       gradientTransform="matrix(1,0,0,0.85714265,-1345.7573,-260.30218)"
       gradientUnits="userSpaceOnUse"
       id="linearGradient4251"
       xlink:href="#linearGradient4855-2"
       inkscape:collect="always" />
    <linearGradient
       id="linearGradient4855-2-3">
      <stop
         style="stop-color:#0b0b0b;stop-opacity:1;"
         offset="0"
         id="stop4857-4-3" />
      <stop
         style="stop-color:#000000;stop-opacity:0;"
         offset="1"
         id="stop4859-7-7" />
    </linearGradient>
    <radialGradient
       inkscape:collect="always"
       xlink:href="#linearGradient3898-2-7-4"
       id="radialGradient3362-9"
       gradientUnits="userSpaceOnUse"
       gradientTransform="matrix(-1.5172334e-8,-0.55782317,1.4436276,-2.6866257e-8,-1081.4739,1414.8112)"
       cx="719.99994"
       cy="1252.3622"
       fx="719.99994"
       fy="1252.3622"
       r="360" />
    <linearGradient
       id="linearGradient3898-2-7-4">
      <stop
         style="stop-color:#b34700;stop-opacity:1;"
         offset="0"
         id="stop3900-9-0-9" />
      <stop
         style="stop-color:#3e200d;stop-opacity:1;"
         offset="1"
         id="stop3902-6-8-9" />
    </linearGradient>
    <radialGradient
       r="360"
       fy="1252.3622"
       fx="719.99994"
       cy="1252.3622"
       cx="719.99994"
       gradientTransform="matrix(-1.5172334e-8,-0.55782317,1.4436276,-2.6866257e-8,-971.4739,1354.9722)"
       gradientUnits="userSpaceOnUse"
       id="radialGradient4329"
       xlink:href="#linearGradient3898-2-7-4"
       inkscape:collect="always" />
    <linearGradient
       inkscape:collect="always"
       xlink:href="#linearGradient3890-6-4-2"
       id="linearGradient5188-3-5"
       gradientUnits="userSpaceOnUse"
       gradientTransform="matrix(0.84981683,0,0,1,114.13927,40.000028)"
       x1="428.49997"
       y1="732.36218"
       x2="760"
       y2="732.36218" />
    <linearGradient
       id="linearGradient3890-6-4-2">
      <stop
         style="stop-color:#00007f;stop-opacity:1;"
         offset="0"
         id="stop3892-8-1-6" />
      <stop
         id="stop4865-0-9"
         offset="0.03865979"
         style="stop-color:#000063;stop-opacity:1;" />
      <stop
         id="stop4863-4-1"
         offset="0.93558031"
         style="stop-color:#000048;stop-opacity:1;" />
      <stop
         style="stop-color:#000011;stop-opacity:1;"
         offset="1"
         id="stop3894-4-8-3" />
    </linearGradient>
    <linearGradient
       y2="732.36218"
       x2="760"
       y1="732.36218"
       x1="428.49997"
       gradientTransform="matrix(0.04085658,0,0,0.04994291,14.141311,1002.5315)"
       gradientUnits="userSpaceOnUse"
       id="linearGradient4395"
       xlink:href="#linearGradient3890-6-4-2"
       inkscape:collect="always" />
  </defs>
  <sodipodi:namedview
     id="base"
     pagecolor="#ffffff"
     bordercolor="#666666"
     borderopacity="1.0"
     inkscape:pageopacity="0.0"
     inkscape:pageshadow="2"
     inkscape:zoom="4.9780317"
     inkscape:cx="0.60306338"
     inkscape:cy="47.831592"
     inkscape:document-units="px"
     inkscape:current-layer="layer1"
     showgrid="true"
     inkscape:window-width="1600"
     inkscape:window-height="842"
     inkscape:window-x="0"
     inkscape:window-y="0"
     inkscape:window-maximized="1"
     showguides="true"
     inkscape:guide-bbox="true"
     fit-margin-top="0"
     fit-margin-left="0"
     fit-margin-right="0"
     fit-margin-bottom="0">
    <inkscape:grid
       type="xygrid"
       id="grid2985"
       empspacing="5"
       visible="true"
       enabled="true"
       snapvisiblegridlinesonly="true"
       originx="0"
       originy="0.76784222" />
  </sodipodi:namedview>
  <metadata
     id="metadata7">
    <rdf:RDF>
      <cc:Work
         rdf:about="">
        <dc:format>image/svg+xml</dc:format>
        <dc:type
           rdf:resource="http://purl.org/dc/dcmitype/StillImage" />
        <dc:title></dc:title>
      </cc:Work>
    </rdf:RDF>
  </metadata>
  <g
     inkscape:label="Ebene 1"
     inkscape:groupmode="layer"
     id="layer1"
     transform="translate(0,-953.13015)">
    <g
       transform="matrix(0.04807692,0,0,0.04994291,3.3653846,1003.5223)"
       id="g3340">
      <path
         sodipodi:nodetypes="ccccccc"
         inkscape:connector-curvature="0"
         id="path3346"
         d="M 300,949.1559 C 333.52941,848.74767 593.38233,752.5232 593.38233,752.5232 l 268.23533,0 8.3823,200.8163 -33.5294,4.1837 -532.27938,0 z"
         style="fill:url(#radialGradient4329);fill-opacity:1" />
      <path
         sodipodi:nodetypes="ccccccccc"
         inkscape:connector-curvature="0"
         id="path3348"
         d="m 300,947.5232 c 5,5 10,5 40,5 l 489.99996,0 c 30,0 35,0 40,-5 l 0,40 c -5,5 -15,5 -30,5 l -509.99996,0 c -20,0 -25,0 -30,-5 z"
         style="fill:#2b1100;fill-opacity:1;stroke:none" />
      <path
         sodipodi:nodetypes="ccc"
         inkscape:connector-curvature="0"
         id="path3350"
         d="m 450,822.5232 40,95 -80,-75"
         style="fill:none;stroke:#1a1a1a;stroke-width:10;stroke-linecap:round;stroke-linejoin:round;stroke-miterlimit:4;stroke-dasharray:none;stroke-opacity:1" />
      <path
         style="fill:none;stroke:#1a1a1a;stroke-width:10;stroke-linecap:round;stroke-linejoin:round;stroke-miterlimit:4;stroke-dasharray:none;stroke-opacity:1"
         d="m 510,792.5232 30,105 -70,-85"
         id="path3352"
         inkscape:connector-curvature="0"
         sodipodi:nodetypes="ccc" />
      <path
         style="fill:none;stroke:#1a1a1a;stroke-width:10;stroke-linecap:round;stroke-linejoin:round;stroke-miterlimit:4;stroke-dasharray:none;stroke-opacity:1"
         d="m 390,852.5232 40,80 -80,-50"
         id="path3354"
         inkscape:connector-curvature="0"
         sodipodi:nodetypes="ccc" />
      <path
         sodipodi:nodetypes="ccc"
         inkscape:connector-curvature="0"
         id="path3356"
         d="m 575,762.5232 15,110 -60,-90"
         style="fill:none;stroke:#1a1a1a;stroke-width:10;stroke-linecap:round;stroke-linejoin:round;stroke-miterlimit:4;stroke-dasharray:none;stroke-opacity:1" />
      <path
         sodipodi:nodetypes="cscccc"
         inkscape:connector-curvature="0"
         id="path3342"
         d="m 770,192.3622 c 0,31.55635 -5,31.55635 -5,90.161 0,81.17621 35,190 95,390 l -270,0 c -40,-180 -139.99996,-308.85505 -139.99996,-480.16095 z"
         style="fill:url(#linearGradient3358);fill-opacity:1;stroke:none" />
    </g>
    <path
       style="fill:url(#radialGradient5256);fill-opacity:1;stroke:none"
       d="m 39.313499,969.40929 c -0.851961,4.27329 -0.608038,5.78095 -1.813499,7.76929 -1.205461,1.98834 -7.222861,4.48604 -9.134615,2.99657 -3.846154,-2.99657 -6.25,-8.49029 -6.25,-8.49029 -1.442308,-0.24971 -1.923077,0.49943 -3.846154,-0.49943 1.442307,-2.49714 0.961538,-2.99657 2.884615,-7.99086 0,0 0,-2.99658 0.961539,-4.99429 0.506561,-1.05245 8.420538,-2.99658 9.615384,-2.99658 4.779387,0 9.337756,5.40267 7.58273,14.20559 z"
       id="path5230"
       inkscape:connector-curvature="0"
       sodipodi:nodetypes="ssscccsss" />
    <g
       id="g4871"
       transform="matrix(-0.04807692,0,0,0.04994291,53.365389,1001.0332)">
      <path
         style="fill:url(#linearGradient5186);fill-opacity:1;stroke:none"
         d="m 210.00009,242.3622 c 19.99996,180.00001 199.99996,200.00001 239.99996,240.00001 14.14214,14.14213 10,20 -50,90 l 230,150 c 160,-166.01941 180,-300 -100,-479.99996 z"
         id="path4873"
         inkscape:connector-curvature="0"
         sodipodi:nodetypes="cscccc" />
    </g>
    <rect
       style="fill:url(#linearGradient5505);fill-opacity:1;stroke:none"
       id="rect5445"
       width="3.8461537"
       height="11.986298"
       x="21.153847"
       y="1008.6426" />
    <rect
       style="fill:url(#linearGradient5421);fill-opacity:1;stroke:none"
       id="rect5413"
       width="14.903846"
       height="6.492578"
       x="1.9230769"
       y="1000.1523" />
    <path
       style="fill:url(#linearGradient4939);fill-opacity:1;stroke:none"
       d="m 34.615385,975.18086 c 11.538461,0 9.615384,17.92396 9.134615,37.95664 l -20.192308,0 c -0.961538,-18.97833 -3.365384,-37.95664 11.057693,-37.95664 z"
       id="rect3922-8"
       inkscape:connector-curvature="0"
       sodipodi:nodetypes="sccs" />
    <path
       style="fill:none;stroke:#2a2a2a;stroke-width:0.73501551;stroke-linecap:round;stroke-linejoin:round;stroke-miterlimit:4;stroke-dasharray:none;stroke-opacity:1"
       d="m 18.75,1008.3929 c 0,1.748 0.240385,2.2474 -0.721154,3.7457"
       id="path5613"
       inkscape:connector-curvature="0"
       sodipodi:nodetypes="cc" />
    <rect
       style="fill:url(#linearGradient5485);fill-opacity:1;stroke:none"
       id="rect5423"
       width="11.538462"
       height="9.9885817"
       x="14.903846"
       y="999.15344" />
    <path
       sodipodi:nodetypes="cczscczccccccccc"
       inkscape:connector-curvature="0"
       id="rect4957"
       d="m 31.730769,986.1683 8.653846,-4.49486 c 7.692308,8.98973 7.868625,16.78201 8.252832,18.64536 0.384197,1.8633 0.179135,2.6885 -0.02592,3.5136 -0.205062,0.8252 -8.204885,4.9591 -13.996139,7.8068 -2.14676,0.7398 -4.733132,2.1673 -6.73077,2.4971 -2.403846,1.4983 -7.451923,3.2463 -7.932692,2.9966 -0.480769,-0.2497 -0.721154,-0.9989 -0.480769,-1.4983 -0.480769,-0.2497 -0.480769,-1.4983 -0.240385,-1.9977 -0.480769,-0.7491 -0.305649,-1.3492 0,-1.9977 l -1.682692,0 c -0.961539,0 -0.961539,-1.9977 0,-1.9977 l 4.567308,0 c 2.403846,0 4.326923,-0.9989 5.76923,-1.9977 4.202598,-3.2737 6.28322,-6.4015 10.575397,-8.33089 -4.329903,-6.44207 -4.577262,-8.16676 -6.729246,-13.14461 z"
       style="fill:url(#radialGradient5205);fill-opacity:1;stroke:none" />
    <path
       style="fill:url(#linearGradient5202);fill-opacity:1;stroke:none"
       d="m 33.652323,978.83632 c 3.574132,-2.22478 7.613892,2.45287 10.649066,7.71475 l -10.649066,6.26926 c -3.300039,-6.52185 -3.574129,-11.75923 0,-13.98401 z"
       id="rect4930"
       inkscape:connector-curvature="0"
       sodipodi:nodetypes="zccz" />
    <rect
       style="fill:url(#linearGradient5199);fill-opacity:1;stroke:none"
       id="rect4933"
       width="12.456831"
       height="3.8518407"
       x="-467.18274"
       y="861.13684"
       transform="matrix(0.84896322,-0.52845195,0.49965726,0.86622319,0,0)" />
    <path
       style="fill:#d7b900;fill-opacity:1;stroke:none"
       d="m 20.192308,955.2037 c 4.200628,0.36983 8.321424,-2.57753 12.5,-1.99772 3.128895,0.43416 6.868153,1.29134 8.653846,3.99544 1.815362,2.74902 0,12.48572 0,12.48572 l -2.884616,1.99772 c 0,0 -0.208076,-5.46688 -0.961538,-7.49144 -0.658884,-1.77042 -1.24321,-4.16034 -2.884615,-4.99429 -0.863765,-0.43885 -0.961539,0 -0.961539,0 l -0.961538,3.99544 c 0,0 -2.745087,-3.84271 -4.807693,-4.49487 -2.168163,-0.68553 -4.643351,1.91579 -6.730769,0.99886 -2.007614,-0.88187 -3.846154,-5.49372 -3.846154,-5.49372 0,0 1.874686,0.90994 2.884616,0.99886 z"
       id="rect5228"
       inkscape:connector-curvature="0"
       sodipodi:nodetypes="sssccssccsscs" />
    <rect
       y="998.65405"
       x="3.3653846"
       height="9.4891529"
       width="1.4423077"
       id="rect5425"
       style="fill:url(#linearGradient5427);fill-opacity:1;stroke:none" />
    <rect
       y="998.65405"
       x="6.25"
       height="9.4891529"
       width="1.4423077"
       id="rect5433"
       style="fill:url(#linearGradient5435);fill-opacity:1;stroke:none" />
    <rect
       y="998.65405"
       x="9.1346149"
       height="9.4891529"
       width="1.4423077"
       id="rect5441"
       style="fill:url(#linearGradient5443);fill-opacity:1;stroke:none" />
    <ellipse
       style="fill:#000000;fill-opacity:1;stroke:none"
       id="path5449"
       transform="matrix(0.99630756,-0.08585602,0.07960181,0.99682674,0,0)"
       cx="-53.065048"
       cy="961.64441"
       rx="1.084088"
       ry="0.70348603" />
    <path
       style="fill:none;stroke:#984202;stroke-width:17.54116058;stroke-linecap:round;stroke-linejoin:round;stroke-miterlimit:4;stroke-dasharray:none;stroke-opacity:0.91267604;filter:url(#filter5467)"
       d="m 660,190 c 0,-10 7.68172,-18.98495 20,-20 20,0 20,15 20,40 0,25 -5,35 -10,60 -15,15 -20,15 -40,20"
       id="path5453"
       inkscape:connector-curvature="0"
       transform="matrix(0.05726792,-0.00725592,0.00630574,0.05370682,-5.4907837,957.48774)"
       sodipodi:nodetypes="ccccc" />
    <path
       style="fill:#e6e6e6;stroke:none"
       d="m 22.836538,973.18315 c 2.884616,-0.99886 4.086539,-1.49829 6.009616,-2.99658 1.442308,-0.49943 1.442308,0.99886 1.442308,0.99886 -0.641026,0.66591 -0.801283,0.83238 -1.442308,1.49829 -1.442308,1.49829 -2.644231,2.49714 -4.326923,3.24629 -0.721154,-0.99886 -1.201923,-1.748 -1.682693,-2.74686 z"
       id="path5471"
       inkscape:connector-curvature="0"
       sodipodi:nodetypes="cccccc" />
    <path
       inkscape:connector-curvature="0"
       id="path5511"
       d="m 422.00002,254.36218 43,-2"
       style="fill:none;stroke:#2e1a00;stroke-width:1px;stroke-linecap:butt;stroke-linejoin:miter;stroke-opacity:1;filter:url(#filter5605)"
       sodipodi:nodetypes="cc"
       transform="matrix(0.04807692,0,0,0.04994291,0,1000.5338)" />
    <path
       style="fill:none;stroke:#2e1a00;stroke-width:1px;stroke-linecap:butt;stroke-linejoin:miter;stroke-opacity:1;filter:url(#filter5601)"
       d="m 415.00002,292.36218 43,-3"
       id="path5513"
       inkscape:connector-curvature="0"
       sodipodi:nodetypes="cc"
       transform="matrix(0.04807692,0,0,0.04994291,0,1000.5338)" />
    <path
       inkscape:connector-curvature="0"
       id="path5515"
       d="m 426.00002,335.36218 29,-8"
       style="fill:none;stroke:#2e1a00;stroke-width:1px;stroke-linecap:butt;stroke-linejoin:miter;stroke-opacity:1;filter:url(#filter5597)"
       sodipodi:nodetypes="cc"
       transform="matrix(0.04807692,0,0,0.04994291,0,1000.5338)" />
    <rect
       style="fill:url(#linearGradient3346);fill-opacity:1;stroke:none"
       id="rect3344"
       width="1.4423077"
       height="9.4891529"
       x="12.019231"
       y="998.65405" />
    <path
       inkscape:connector-curvature="0"
       id="path4875"
       d="m 34.169936,1029.075 1.972581,3.4299 -11.968987,7.4282 -1.972582,-3.43 z"
       style="fill:url(#linearGradient5188-3);fill-opacity:1;stroke:none"
       sodipodi:nodetypes="ccccc" />
    <path
       inkscape:connector-curvature="0"
       id="path4875-3"
       d="m 45.192309,1037.1101 -1e-6,3.9954 -13.942307,0 0,-3.9954 z"
       style="fill:url(#linearGradient4395);fill-opacity:1;stroke:none"
       sodipodi:nodetypes="ccccc" />
    <path
       style="fill:url(#radialGradient5190-0);fill-opacity:1"
       d="m 16.346156,1052.0929 c 0.480769,-4.9942 8.379694,-12.5026 8.379694,-12.5026 l 11.070708,-6.8707 5.297543,8.3952 -1.280679,1.0382 -10.005728,6.9434 -12.019231,3.9954 z"
       id="path4877"
       inkscape:connector-curvature="0"
       sodipodi:nodetypes="cccccccc" />
    <path
       style="fill:#2b1100;fill-opacity:1;stroke:none"
       d="m 16.346156,1051.5935 c 0.329648,0.086 0.480769,0 1.923077,0 8.173077,-0.4994 14.412692,-5.3055 21.153846,-9.4891 1.238171,-0.7685 1.444533,-0.8965 1.527608,-1.239 l 0.986292,1.715 c -0.08308,0.3424 -0.4958,0.5986 -1.114885,0.9828 -7.016303,4.3544 -11.975938,8.0303 -21.110554,9.5286 -1.442307,0 -2.554967,0.086 -2.884615,0 z"
       id="path4879"
       inkscape:connector-curvature="0"
       sodipodi:nodetypes="ccccccccc" />
    <path
       style="fill:none;stroke:#1a1a1a;stroke-width:0.49001035;stroke-linecap:round;stroke-linejoin:round;stroke-miterlimit:4;stroke-dasharray:none;stroke-opacity:1"
       d="m 19.71154,1045.1009 3.365385,3.496 -4.807692,-1.4982"
       id="path4881"
       inkscape:connector-curvature="0"
       sodipodi:nodetypes="ccc" />
    <path
       sodipodi:nodetypes="ccc"
       inkscape:connector-curvature="0"
       id="path4883"
       d="m 22.115387,1042.6038 3.365384,3.9954 -4.807692,-1.9977"
       style="fill:none;stroke:#1a1a1a;stroke-width:0.49001035;stroke-linecap:round;stroke-linejoin:round;stroke-miterlimit:4;stroke-dasharray:none;stroke-opacity:1" />
    <path
       sodipodi:nodetypes="ccc"
       inkscape:connector-curvature="0"
       id="path4885"
       d="m 17.788463,1048.0975 3.365385,2.4972 -4.326923,0"
       style="fill:none;stroke:#1a1a1a;stroke-width:0.49001035;stroke-linecap:round;stroke-linejoin:round;stroke-miterlimit:4;stroke-dasharray:none;stroke-opacity:1" />
    <path
       style="fill:none;stroke:#1a1a1a;stroke-width:0.49001035;stroke-linecap:round;stroke-linejoin:round;stroke-miterlimit:4;stroke-dasharray:none;stroke-opacity:1"
       d="m 24.038463,1040.1066 2.884616,3.496 -3.846154,-1.9977"
       id="path4887"
       inkscape:connector-curvature="0"
       sodipodi:nodetypes="ccc" />
  </g>
</svg>
