<?xml version="1.0" encoding="UTF-8" standalone="no"?>
<!-- Created with Inkscape (http://www.inkscape.org/) -->

<svg
   xmlns:dc="http://purl.org/dc/elements/1.1/"
   xmlns:cc="http://creativecommons.org/ns#"
   xmlns:rdf="http://www.w3.org/1999/02/22-rdf-syntax-ns#"
   xmlns:svg="http://www.w3.org/2000/svg"
   xmlns="http://www.w3.org/2000/svg"
   xmlns:xlink="http://www.w3.org/1999/xlink"
   xmlns:sodipodi="http://sodipodi.sourceforge.net/DTD/sodipodi-0.dtd"
   xmlns:inkscape="http://www.inkscape.org/namespaces/inkscape"
   width="25"
   height="50.000019"
   id="svg2"
   version="1.1"
   inkscape:version="0.91 r13725"
   sodipodi:docname="health.svg">
  <defs
     id="defs4">
    <linearGradient
       id="linearGradient3783">
      <stop
         id="stop3785"
         offset="0"
         style="stop-color:#215a21;stop-opacity:1;" />
      <stop
         id="stop3787"
         offset="1"
         style="stop-color:#00be00;stop-opacity:1;" />
    </linearGradient>
    <linearGradient
       id="linearGradient3767">
      <stop
         style="stop-color:#54c154;stop-opacity:1;"
         offset="0"
         id="stop3769" />
      <stop
         style="stop-color:#00be00;stop-opacity:1;"
         offset="1"
         id="stop3771" />
    </linearGradient>
    <linearGradient
       inkscape:collect="always"
       xlink:href="#linearGradient3767"
       id="linearGradient3773"
       x1="0"
       y1="500"
       x2="60"
       y2="500"
       gradientUnits="userSpaceOnUse"
       gradientTransform="matrix(0.05208333,0,0,0.05,10,1002.3622)" />
    <linearGradient
       inkscape:collect="always"
       xlink:href="#linearGradient3767"
       id="linearGradient3777"
       gradientUnits="userSpaceOnUse"
       x1="-4.2632564e-14"
       y1="720"
       x2="60"
       y2="720"
       gradientTransform="matrix(0,0.05,-0.05208333,0,61.5625,1002.3622)" />
    <linearGradient
       inkscape:collect="always"
       xlink:href="#linearGradient3783"
       id="linearGradient3781"
       gradientUnits="userSpaceOnUse"
       gradientTransform="matrix(0,-0.05,-0.05208333,0,61.5625,1052.3622)"
       x1="1.7e-05"
       y1="660"
       x2="60.000015"
       y2="660" />
    <linearGradient
       inkscape:collect="always"
       xlink:href="#linearGradient3783"
       id="linearGradient3791"
       gradientUnits="userSpaceOnUse"
       x1="0"
       y1="500"
       x2="60"
       y2="500"
       gradientTransform="matrix(-0.05208333,0,0,0.05,35,1002.3622)" />
  </defs>
  <sodipodi:namedview
     id="base"
     pagecolor="#ffffff"
     bordercolor="#666666"
     borderopacity="1.0"
     inkscape:pageopacity="0.0"
     inkscape:pageshadow="2"
     inkscape:zoom="5.6"
     inkscape:cx="-4.2196225"
     inkscape:cy="42.857374"
     inkscape:document-units="px"
     inkscape:current-layer="layer1"
     showgrid="true"
     inkscape:window-width="1600"
     inkscape:window-height="842"
     inkscape:window-x="0"
     inkscape:window-y="0"
     inkscape:window-maximized="1"
     fit-margin-left="0"
     fit-margin-right="0"
     fit-margin-top="0"
     fit-margin-bottom="0">
    <inkscape:grid
       type="xygrid"
       id="grid2985"
       empspacing="5"
       visible="true"
       enabled="true"
       snapvisiblegridlinesonly="true"
       originx="-10"
       originy="-2.0734863e-06" />
  </sodipodi:namedview>
  <metadata
     id="metadata7">
    <rdf:RDF>
      <cc:Work
         rdf:about="">
        <dc:format>image/svg+xml</dc:format>
        <dc:type
           rdf:resource="http://purl.org/dc/dcmitype/StillImage" />
        <dc:title></dc:title>
      </cc:Work>
    </rdf:RDF>
  </metadata>
  <g
     inkscape:label="Ebene 1"
     inkscape:groupmode="layer"
     id="layer1"
     transform="translate(-10,-1002.3622)">
    <rect
       style="fill:#008000;fill-opacity:1;stroke:none"
       id="rect2987"
       width="25"
       height="50"
       x="10"
       y="1002.3622" />
    <path
       style="fill:url(#linearGradient3773);fill-opacity:1;stroke:none"
       d="m 10,1002.3622 3.125,3 0,44 -3.125,3 z"
       id="path3757"
       inkscape:connector-curvature="0" />
    <path
       inkscape:connector-curvature="0"
       id="path3775"
       d="m 35,1002.3622 -3.125,3 -18.75,0 -3.125,-3 z"
       style="fill:url(#linearGradient3777);fill-opacity:1;stroke:none"
       sodipodi:nodetypes="ccccc" />
    <path
       sodipodi:nodetypes="ccccc"
       style="fill:url(#linearGradient3781);fill-opacity:1;stroke:none"
       d="m 35,1052.3622 -3.125,-3 -18.75,0 -3.125,3 z"
       id="path3779"
       inkscape:connector-curvature="0" />
    <path
       inkscape:connector-curvature="0"
       id="path3789"
       d="m 35,1002.3622 -3.125,3 0,44 3.125,3 z"
       style="fill:url(#linearGradient3791);fill-opacity:1;stroke:none" />
  </g>
</svg>
